"351210488","KOZIENICE","2012","01","01",6.3,"",2.4,"",1.0,"",6.0,"",91.5,"",1000.5,"",1016.4,"",.0,"",1.8,""
"351210488","KOZIENICE","2012","01","02",7.9,"",3.9,"",5.0,"",7.9,"",90.4,"",995.5,"",1011.1,"",.0,"",.7,""
"351210488","KOZIENICE","2012","01","03",6.3,"",3.8,"",5.6,"",7.6,"",83.5,"",1000.5,"",1016.1,"",.0,"",.3,""
"351210488","KOZIENICE","2012","01","04",7.5,"",5.4,"",5.9,"",7.1,"",76.5,"",991.9,"",1007.4,"",.0,"",.0,""
"351210488","KOZIENICE","2012","01","05",7.0,"",5.9,"",2.9,"",6.5,"",86.1,"",976.3,"",991.6,"",4.6,"",5.4,""
"351210488","KOZIENICE","2012","01","06",7.6,"",4.9,"",2.5,"",6.8,"",93.3,"",977.2,"",992.6,"",4.1,"",.2,""
"351210488","KOZIENICE","2012","01","07",6.9,"",3.5,"",.7,"",5.6,"",87.4,"",995.2,"",1010.9,"",.0,"",.8,""
"351210488","KOZIENICE","2012","01","08",7.8,"",2.5,"",2.3,"",6.9,"",95.0,"",993.7,"",1009.3,"",.4,"",.3,""
"351210488","KOZIENICE","2012","01","09",8.0,"",2.9,"",2.2,"",6.5,"",90.9,"",1002.7,"",1018.5,"",.0,"",.0,""
"351210488","KOZIENICE","2012","01","10",8.0,"",1.5,"",1.1,"",6.2,"",94.1,"",1006.4,"",1022.3,"",.7,"",.1,""
"351210488","KOZIENICE","2012","01","11",7.6,"",3.9,"",3.0,"",7.1,"",93.1,"",1009.0,"",1024.9,"",.0,"",.3,""
"351210488","KOZIENICE","2012","01","12",5.8,"",5.4,"",5.2,"",7.6,"",85.5,"",999.6,"",1015.3,"",.0,"",2.7,""
"351210488","KOZIENICE","2012","01","13",6.9,"",5.0,"",1.8,"",5.6,"",80.6,"",989.1,"",1004.7,"",.5,"",.2,""
"351210488","KOZIENICE","2012","01","14",7.6,"",6.1,"",-.4,"",4.9,"",81.5,"",990.3,"",1006.1,"",.5,"",1.6,""
"351210488","KOZIENICE","2012","01","15",8.0,"",4.4,"",-2.7,"",4.3,"",85.0,"",998.7,"",1014.7,"",.0,"",.0,""
"351210488","KOZIENICE","2012","01","16",7.5,"",2.8,"",-3.2,"",4.4,"",91.4,"",1004.7,"",1020.9,"",.3,"",.1,""
"351210488","KOZIENICE","2012","01","17",6.0,"",1.5,"",-5.1,"",3.5,"",82.1,"",1007.0,"",1023.3,"",.0,"",.0,""
"351210488","KOZIENICE","2012","01","18",7.3,"",2.1,"",-4.0,"",4.3,"",92.0,"",1009.5,"",1025.8,"",.7,"",.9,""
"351210488","KOZIENICE","2012","01","19",8.0,"",3.4,"",.2,"",5.9,"",95.0,"",995.9,"",1011.7,"",.5,"",5.6,""
"351210488","KOZIENICE","2012","01","20",7.6,"",4.4,"",1.7,"",6.0,"",86.5,"",987.8,"",1003.4,"",.0,"",1.7,""
"351210488","KOZIENICE","2012","01","21",7.9,"",3.1,"",.2,"",5.8,"",93.5,"",991.6,"",1007.3,"",.3,"",1.0,""
"351210488","KOZIENICE","2012","01","22",7.9,"",4.1,"",1.4,"",6.4,"",94.3,"",982.4,"",997.9,"",3.0,"",4.5,""
"351210488","KOZIENICE","2012","01","23",7.4,"",4.4,"",1.1,"",5.7,"",86.0,"",989.5,"",1005.2,"",.2,"",.0,""
"351210488","KOZIENICE","2012","01","24",5.9,"",2.3,"",-.8,"",5.2,"",90.6,"",999.1,"",1015.0,"",.0,"",.0,""
"351210488","KOZIENICE","2012","01","25",5.4,"",1.0,"",-1.8,"",5.1,"",94.8,"",1007.5,"",1023.7,"",.0,"",1.8,""
"351210488","KOZIENICE","2012","01","26",6.6,"",4.0,"",-4.8,"",3.6,"",81.8,"",1012.4,"",1028.7,"",.3,"",.0,""
"351210488","KOZIENICE","2012","01","27",2.5,"",4.8,"",-10.5,"",2.1,"",74.3,"",1017.6,"",1034.4,"",.0,"",.0,""
"351210488","KOZIENICE","2012","01","28",3.1,"",3.9,"",-10.5,"",2.1,"",74.9,"",1020.5,"",1037.4,"",.0,"",.0,""
"351210488","KOZIENICE","2012","01","29",.4,"",3.6,"",-11.4,"",1.7,"",67.6,"",1024.5,"",1041.5,"",.0,"",.0,""
"351210488","KOZIENICE","2012","01","30",1.6,"",4.3,"",-12.3,"",1.8,"",76.4,"",1025.9,"",1043.0,"",.0,"",.0,""
"351210488","KOZIENICE","2012","01","31",1.8,"",3.0,"",-13.2,"",1.7,"",75.8,"",1023.0,"",1040.1,"",.0,"",.0,""
"351210488","KOZIENICE","2012","02","01",.5,"",3.0,"",-15.6,"",1.5,"",79.6,"",1021.5,"",1038.7,"",.0,"",.0,""
"351210488","KOZIENICE","2012","02","02",3.4,"",1.1,"",-19.2,"",1.1,"",79.0,"",1019.3,"",1036.7,"",.0,"",.0,""
"351210488","KOZIENICE","2012","02","03",.3,"",.9,"",-20.7,"",.9,"",75.3,"",1021.6,"",1039.2,"",.0,"",.0,""
"351210488","KOZIENICE","2012","02","04",4.6,"",1.5,"",-19.4,"",1.0,"",72.3,"",1022.1,"",1039.6,"",.0,"",.0,""
"351210488","KOZIENICE","2012","02","05",5.9,"",3.1,"",-16.0,"",1.2,"",70.3,"",1021.0,"",1038.2,"",.0,"",.0,""
"351210488","KOZIENICE","2012","02","06",6.8,"",2.5,"",-16.0,"",1.3,"",73.5,"",1019.9,"",1037.1,"",.0,"",.0,""
"351210488","KOZIENICE","2012","02","07",7.8,"",3.3,"",-10.4,"",2.2,"",78.1,"",1020.7,"",1037.5,"",.0,"",.0,""
"351210488","KOZIENICE","2012","02","08",6.1,"",1.4,"",-10.8,"",1.7,"",63.1,"",1022.4,"",1039.4,"",.0,"",.0,""
"351210488","KOZIENICE","2012","02","09",4.3,"",2.4,"",-12.9,"",1.7,"",75.4,"",1017.2,"",1034.2,"",.0,"",.0,""
"351210488","KOZIENICE","2012","02","10",1.5,"",1.5,"",-15.2,"",1.4,"",76.0,"",1022.6,"",1039.8,"",.0,"",.0,""
"351210488","KOZIENICE","2012","02","11",.4,"",.8,"",-17.3,"",1.3,"",77.8,"",1019.7,"",1037.0,"",.0,"",.0,""
"351210488","KOZIENICE","2012","02","12",2.4,"",.8,"",-14.5,"",1.5,"",71.9,"",1014.1,"",1031.2,"",.0,"",.0,""
"351210488","KOZIENICE","2012","02","13",7.1,"",1.6,"",-8.7,"",2.2,"",69.1,"",1004.3,"",1020.8,"",.0,"",.0,""
"351210488","KOZIENICE","2012","02","14",8.0,"",1.4,"",-5.9,"",3.4,"",86.0,"",998.6,"",1014.9,"",.0,"",.6,""
"351210488","KOZIENICE","2012","02","15",7.9,"",4.4,"",-4.1,"",4.2,"",90.5,"",975.6,"",991.3,"",2.7,"",.8,""
"351210488","KOZIENICE","2012","02","16",7.8,"",3.1,"",-5.8,"",3.5,"",86.5,"",995.8,"",1012.0,"",.0,"",.0,""
"351210488","KOZIENICE","2012","02","17",6.5,"",2.1,"",-6.5,"",3.8,"",94.4,"",997.8,"",1014.1,"",2.2,"",.5,""
"351210488","KOZIENICE","2012","02","18",7.5,"",3.0,"",.9,"",5.4,"",83.4,"",999.7,"",1015.5,"",.0,"",.0,""
"351210488","KOZIENICE","2012","02","19",7.1,"",4.5,"",.8,"",5.5,"",85.4,"",998.9,"",1014.7,"",2.8,"",.4,""
"351210488","KOZIENICE","2012","02","20",7.3,"",3.9,"",.7,"",5.3,"",83.1,"",1011.6,"",1027.7,"",.0,"",.0,""
"351210488","KOZIENICE","2012","02","21",5.6,"",4.3,"",.1,"",4.1,"",67.6,"",1012.4,"",1028.5,"",.0,"",.3,""
"351210488","KOZIENICE","2012","02","22",8.0,"",4.0,"",2.4,"",7.0,"",96.6,"",1010.1,"",1026.0,"",.2,"",.0,""
"351210488","KOZIENICE","2012","02","23",4.1,"",5.9,"",3.6,"",7.2,"",90.9,"",996.0,"",1011.6,"",3.6,"",.6,""
"351210488","KOZIENICE","2012","02","24",7.8,"",5.0,"",7.0,"",9.2,"",91.5,"",992.8,"",1008.2,"",.5,"",.4,""
"351210488","KOZIENICE","2012","02","25",7.1,"",7.1,"",5.0,"",6.4,"",72.8,"",991.2,"",1006.6,"",.0,"",5.2,""
"351210488","KOZIENICE","2012","02","26",6.4,"",5.5,"",.2,"",5.3,"",85.5,"",994.5,"",1010.3,"",.3,"",1.1,""
"351210488","KOZIENICE","2012","02","27",4.5,"",4.0,"",-1.8,"",4.0,"",74.6,"",1003.4,"",1019.5,"",.0,"",.0,""
"351210488","KOZIENICE","2012","02","28",5.4,"",2.8,"",-2.7,"",4.6,"",89.0,"",998.8,"",1014.9,"",1.1,"",.5,""
"351210488","KOZIENICE","2012","02","29",4.8,"",4.4,"",3.9,"",6.4,"",79.9,"",999.7,"",1015.3,"",.0,"",.0,""
"351210488","KOZIENICE","2012","03","01",7.8,"",2.3,"",4.9,"",8.3,"",95.3,"",1004.7,"",1020.4,"",.3,"",.6,""
"351210488","KOZIENICE","2012","03","02",5.5,"",5.5,"",5.1,"",7.3,"",82.0,"",1003.3,"",1019.0,"",.0,"",.0,""
"351210488","KOZIENICE","2012","03","03",.4,"",5.6,"",2.5,"",4.6,"",64.6,"",1007.9,"",1023.8,"",.0,"",.0,""
"351210488","KOZIENICE","2012","03","04",.9,"",2.9,"",-.8,"",4.0,"",72.6,"",1009.9,"",1026.0,"",.0,"",.0,""
"351210488","KOZIENICE","2012","03","05",4.0,"",2.6,"",-1.9,"",3.2,"",63.0,"",1008.2,"",1024.4,"",.0,"",.0,""
"351210488","KOZIENICE","2012","03","06",5.5,"",2.9,"",-3.2,"",2.9,"",60.4,"",1012.7,"",1029.0,"",.0,"",.0,""
"351210488","KOZIENICE","2012","03","07",4.5,"",1.5,"",-3.7,"",3.0,"",64.4,"",1013.5,"",1029.8,"",.0,"",.0,""
"351210488","KOZIENICE","2012","03","08",.1,"",2.4,"",-3.0,"",3.4,"",71.6,"",1007.6,"",1023.8,"",.0,"",.0,""
"351210488","KOZIENICE","2012","03","09",6.9,"",1.6,"",-1.7,"",5.0,"",90.8,"",1017.2,"",1033.5,"",.0,"",.0,""
"351210488","KOZIENICE","2012","03","10",7.1,"",4.6,"",4.2,"",6.3,"",77.8,"",1013.4,"",1029.2,"",.1,"",.9,""
"351210488","KOZIENICE","2012","03","11",5.5,"",6.1,"",4.8,"",6.2,"",72.1,"",1000.9,"",1016.5,"",1.1,"",.0,""
"351210488","KOZIENICE","2012","03","12",5.6,"",2.6,"",2.0,"",6.5,"",89.0,"",1003.8,"",1019.6,"",.1,"",.0,""
"351210488","KOZIENICE","2012","03","13",7.4,"",4.0,"",6.4,"",8.1,"",85.0,"",1006.7,"",1022.3,"",.0,"",.0,""
"351210488","KOZIENICE","2012","03","14",6.3,"",3.9,"",4.3,"",7.4,"",88.3,"",1006.4,"",1022.2,"",1.5,"",.0,""
"351210488","KOZIENICE","2012","03","15",4.6,"",3.1,"",2.2,"",5.4,"",75.5,"",1012.4,"",1028.4,"",.0,"",.0,""
"351210488","KOZIENICE","2012","03","16",1.9,"",2.5,"",6.0,"",6.9,"",76.3,"",1007.6,"",1023.3,"",.0,"",.0,""
"351210488","KOZIENICE","2012","03","17",.0,"",2.0,"",10.0,"",7.3,"",65.6,"",1002.7,"",1018.1,"",.0,"",.0,""
"351210488","KOZIENICE","2012","03","18",1.8,"",2.9,"",11.4,"",7.6,"",59.9,"",999.3,"",1014.5,"",.0,"",.0,""
"351210488","KOZIENICE","2012","03","19",3.6,"",4.1,"",7.4,"",6.7,"",65.8,"",1003.5,"",1019.0,"",.0,"",.0,""
"351210488","KOZIENICE","2012","03","20",4.1,"",4.6,"",7.1,"",5.8,"",59.6,"",1013.6,"",1029.3,"",.0,"",.0,""
"351210488","KOZIENICE","2012","03","21",7.1,"",5.4,"",10.9,"",9.1,"",69.3,"",1013.7,"",1029.2,"",.0,"",.0,""
"351210488","KOZIENICE","2012","03","22",6.1,"",3.1,"",10.5,"",9.2,"",73.0,"",1015.5,"",1031.1,"",.0,"",.0,""
"351210488","KOZIENICE","2012","03","23",.4,"",3.5,"",11.0,"",8.9,"",70.1,"",1010.4,"",1025.8,"",.0,"",.0,""
"351210488","KOZIENICE","2012","03","24",1.9,"",1.8,"",7.0,"",6.4,"",68.5,"",1009.7,"",1025.4,"",.0,"",.0,""
"351210488","KOZIENICE","2012","03","25",3.3,"",5.0,"",7.3,"",6.1,"",60.6,"",1006.1,"",1021.7,"",.0,"",.0,""
"351210488","KOZIENICE","2012","03","26",3.3,"",4.5,"",4.3,"",5.2,"",64.9,"",1013.6,"",1029.5,"",.0,"",.0,""
"351210488","KOZIENICE","2012","03","27",4.1,"",6.0,"",9.0,"",6.3,"",55.5,"",1005.0,"",1020.5,"",.0,"",.0,""
"351210488","KOZIENICE","2012","03","28",4.8,"",4.6,"",10.4,"",7.3,"",59.9,"",1001.0,"",1016.3,"",.0,"",.1,""
"351210488","KOZIENICE","2012","03","29",6.4,"",6.1,"",8.0,"",7.0,"",66.3,"",988.5,"",1003.8,"",1.0,"",1.8,""
"351210488","KOZIENICE","2012","03","30",6.5,"",3.8,"",4.6,"",6.9,"",82.9,"",985.9,"",1001.3,"",.3,"",6.5,""
"351210488","KOZIENICE","2012","03","31",7.8,"",4.8,"",3.2,"",7.2,"",93.5,"",978.4,"",993.7,"",8.6,"",.9,""
"351210488","KOZIENICE","2012","04","01",7.0,"",5.4,"",1.7,"",4.9,"",72.4,"",990.0,"",1005.6,"",.0,"",.8,""
"351210488","KOZIENICE","2012","04","02",7.3,"",5.4,"",4.5,"",5.5,"",67.4,"",987.7,"",1003.1,"",.1,"",.0,""
"351210488","KOZIENICE","2012","04","03",4.5,"",2.3,"",5.6,"",5.9,"",67.4,"",994.7,"",1010.2,"",.0,"",.1,""
"351210488","KOZIENICE","2012","04","04",4.1,"",3.0,"",8.8,"",8.8,"",80.1,"",992.0,"",1007.3,"",.4,"",.0,""
"351210488","KOZIENICE","2012","04","05",8.0,"",3.1,"",4.3,"",7.1,"",85.3,"",1000.9,"",1016.6,"",.0,"",1.0,""
"351210488","KOZIENICE","2012","04","06",8.0,"",1.9,"",2.9,"",7.1,"",94.0,"",995.0,"",1010.7,"",1.7,"",.0,""
"351210488","KOZIENICE","2012","04","07",7.8,"",2.9,"",5.0,"",7.3,"",84.6,"",985.0,"",1000.3,"",.0,"",.0,""
"351210488","KOZIENICE","2012","04","08",5.8,"",5.0,"",1.6,"",5.0,"",72.4,"",988.9,"",1004.6,"",.0,"",.0,""
"351210488","KOZIENICE","2012","04","09",1.0,"",2.5,"",.7,"",3.7,"",60.6,"",996.2,"",1012.0,"",.0,"",.0,""
"351210488","KOZIENICE","2012","04","10",2.8,"",3.3,"",4.5,"",4.0,"",53.4,"",994.9,"",1010.5,"",.0,"",.0,""
"351210488","KOZIENICE","2012","04","11",4.3,"",4.3,"",8.5,"",5.4,"",51.0,"",987.3,"",1002.5,"",.0,"",.0,""
"351210488","KOZIENICE","2012","04","12",7.1,"",2.8,"",10.5,"",8.4,"",68.9,"",985.3,"",1000.3,"",.0,"",.1,""
"351210488","KOZIENICE","2012","04","13",6.6,"",2.8,"",8.7,"",8.6,"",78.1,"",987.8,"",1003.0,"",.0,"",.2,""
"351210488","KOZIENICE","2012","04","14",7.3,"",3.4,"",11.0,"",8.7,"",69.1,"",989.0,"",1004.1,"",.0,"",4.4,""
"351210488","KOZIENICE","2012","04","15",8.0,"",3.6,"",10.1,"",11.5,"",92.9,"",986.0,"",1001.2,"",3.9,"",15.3,""
"351210488","KOZIENICE","2012","04","16",8.0,"",4.4,"",7.4,"",10.0,"",95.9,"",986.4,"",1001.7,"",4.1,"",.4,""
"351210488","KOZIENICE","2012","04","17",5.8,"",3.3,"",6.0,"",5.6,"",62.9,"",996.0,"",1011.5,"",.0,"",.0,""
"351210488","KOZIENICE","2012","04","18",5.1,"",3.1,"",6.3,"",6.7,"",72.9,"",990.4,"",1005.8,"",.0,"",.8,""
"351210488","KOZIENICE","2012","04","19",7.8,"",2.3,"",8.3,"",10.4,"",94.9,"",983.0,"",998.2,"",.1,"",.0,""
"351210488","KOZIENICE","2012","04","20",5.0,"",2.0,"",9.3,"",10.3,"",88.5,"",982.7,"",997.8,"",7.3,"",.0,""
"351210488","KOZIENICE","2012","04","21",4.4,"",2.4,"",11.7,"",9.8,"",74.8,"",987.7,"",1002.8,"",.0,"",.0,""
"351210488","KOZIENICE","2012","04","22",5.4,"",2.8,"",14.0,"",9.3,"",61.6,"",990.5,"",1005.5,"",.0,"",1.3,""
"351210488","KOZIENICE","2012","04","23",5.9,"",2.3,"",9.7,"",9.1,"",77.1,"",992.9,"",1008.1,"",.0,"",.0,""
"351210488","KOZIENICE","2012","04","24",5.3,"",3.5,"",11.5,"",9.9,"",74.3,"",990.4,"",1005.5,"",.0,"",.0,""
"351210488","KOZIENICE","2012","04","25",5.0,"",3.5,"",12.1,"",9.0,"",65.9,"",991.8,"",1006.9,"",.0,"",.0,""
"351210488","KOZIENICE","2012","04","26",2.8,"",3.1,"",13.7,"",8.2,"",58.5,"",999.8,"",1015.0,"",.0,"",.0,""
"351210488","KOZIENICE","2012","04","27",2.8,"",2.1,"",17.0,"",10.8,"",60.4,"",1003.7,"",1018.7,"",.0,"",.0,""
"351210488","KOZIENICE","2012","04","28",1.6,"",2.5,"",18.9,"",11.8,"",61.0,"",1006.0,"",1020.9,"",.0,"",.0,""
"351210488","KOZIENICE","2012","04","29",1.6,"",3.5,"",22.6,"",11.2,"",44.5,"",1000.7,"",1015.4,"",.0,"",.0,""
"351210488","KOZIENICE","2012","04","30",.3,"",2.8,"",22.0,"",10.3,"",44.1,"",999.8,"",1014.5,"",.0,"",.0,""
"351210488","KOZIENICE","2012","05","01",1.1,"",2.0,"",21.3,"",11.3,"",51.4,"",1001.2,"",1015.9,"",.0,"",.0,""
"351210488","KOZIENICE","2012","05","02",3.5,"",2.3,"",19.2,"",13.8,"",65.0,"",999.7,"",1014.6,"",.0,"",.0,""
"351210488","KOZIENICE","2012","05","03",3.5,"",1.9,"",18.4,"",13.7,"",68.8,"",993.6,"",1008.4,"",.0,"",.0,""
"351210488","KOZIENICE","2012","05","04",6.3,"",1.6,"",16.8,"",15.2,"",81.5,"",988.5,"",1003.3,"",10.5,"",13.9,""
"351210488","KOZIENICE","2012","05","05",4.5,"",2.0,"",17.2,"",14.2,"",75.5,"",990.7,"",1005.5,"",.0,"",.0,""
"351210488","KOZIENICE","2012","05","06",4.9,"",3.5,"",15.2,"",12.5,"",74.9,"",992.9,"",1007.9,"",.0,"",4.4,""
"351210488","KOZIENICE","2012","05","07",7.9,"",2.4,"",7.6,"",9.4,"",90.3,"",1001.8,"",1017.3,"",3.4,"",.0,""
"351210488","KOZIENICE","2012","05","08",2.8,"",2.1,"",8.8,"",8.8,"",79.9,"",1005.7,"",1021.1,"",.0,"",.0,""
"351210488","KOZIENICE","2012","05","09",5.0,"",1.9,"",11.2,"",11.1,"",84.6,"",1006.7,"",1022.0,"",.0,"",.0,""
"351210488","KOZIENICE","2012","05","10",3.9,"",2.3,"",16.4,"",12.4,"",70.9,"",1008.5,"",1023.6,"",.0,"",.0,""
"351210488","KOZIENICE","2012","05","11",6.0,"",3.5,"",22.3,"",14.6,"",55.9,"",1006.8,"",1021.6,"",.0,"",.0,""
"351210488","KOZIENICE","2012","05","12",5.9,"",3.1,"",13.8,"",12.3,"",77.5,"",1005.5,"",1020.7,"",2.2,"",.0,""
"351210488","KOZIENICE","2012","05","13",4.4,"",2.9,"",8.0,"",8.3,"",78.1,"",1009.6,"",1025.2,"",.0,"",.0,""
"351210488","KOZIENICE","2012","05","14",4.5,"",2.5,"",10.1,"",7.8,"",67.3,"",1006.7,"",1022.2,"",.0,"",.0,""
"351210488","KOZIENICE","2012","05","15",7.9,"",2.4,"",10.5,"",10.4,"",81.8,"",997.9,"",1013.1,"",1.1,"",3.6,""
"351210488","KOZIENICE","2012","05","16",8.0,"",3.1,"",10.6,"",12.3,"",96.3,"",993.1,"",1008.3,"",7.4,"",8.6,""
"351210488","KOZIENICE","2012","05","17",7.3,"",4.6,"",8.6,"",8.3,"",75.5,"",999.7,"",1015.1,"",.4,"",.0,""
"351210488","KOZIENICE","2012","05","18",2.8,"",2.4,"",9.6,"",7.3,"",63.4,"",1005.6,"",1021.1,"",.0,"",.0,""
"351210488","KOZIENICE","2012","05","19",3.0,"",2.3,"",13.5,"",11.7,"",76.6,"",1004.4,"",1019.6,"",.0,"",.0,""
"351210488","KOZIENICE","2012","05","20",3.6,"",2.8,"",18.0,"",15.3,"",76.3,"",1000.3,"",1015.2,"",.0,"",.0,""
"351210488","KOZIENICE","2012","05","21",2.8,"",3.4,"",21.1,"",16.7,"",70.5,"",996.2,"",1010.9,"",.0,"",.0,""
"351210488","KOZIENICE","2012","05","22",.6,"",3.5,"",21.4,"",15.2,"",63.5,"",996.0,"",1010.6,"",.0,"",.0,""
"351210488","KOZIENICE","2012","05","23",3.0,"",3.4,"",21.0,"",14.8,"",64.5,"",1000.8,"",1015.6,"",.3,"",.0,""
"351210488","KOZIENICE","2012","05","24",2.1,"",4.3,"",17.8,"",12.0,"",59.8,"",1006.4,"",1021.4,"",.0,"",.0,""
"351210488","KOZIENICE","2012","05","25",1.6,"",3.0,"",14.0,"",8.4,"",55.8,"",1008.5,"",1023.7,"",.0,"",.0,""
"351210488","KOZIENICE","2012","05","26",4.3,"",2.5,"",12.7,"",9.3,"",67.0,"",1006.1,"",1021.4,"",.3,"",.0,""
"351210488","KOZIENICE","2012","05","27",4.1,"",2.6,"",14.3,"",10.4,"",67.0,"",1003.3,"",1018.4,"",.0,"",.6,""
"351210488","KOZIENICE","2012","05","28",4.8,"",1.9,"",15.6,"",12.1,"",72.0,"",997.1,"",1012.1,"",4.7,"",.0,""
"351210488","KOZIENICE","2012","05","29",3.5,"",2.9,"",18.4,"",11.6,"",59.4,"",993.4,"",1008.2,"",.0,"",.3,""
"351210488","KOZIENICE","2012","05","30",6.6,"",2.4,"",12.4,"",10.5,"",74.4,"",998.6,"",1013.7,"",.0,"",.0,""
"351210488","KOZIENICE","2012","05","31",6.5,"",2.5,"",12.6,"",10.0,"",72.1,"",1000.0,"",1015.2,"",.0,"",.0,""
"351210488","KOZIENICE","2012","06","01",6.1,"",2.8,"",11.8,"",12.5,"",89.4,"",991.5,"",1006.6,"",5.7,"",.0,""
"351210488","KOZIENICE","2012","06","02",5.0,"",4.5,"",9.9,"",7.5,"",63.9,"",995.8,"",1011.1,"",.0,"",.0,""
"351210488","KOZIENICE","2012","06","03",5.8,"",2.9,"",12.5,"",9.2,"",65.4,"",995.3,"",1010.4,"",.0,"",22.6,""
"351210488","KOZIENICE","2012","06","04",8.0,"",1.6,"",13.2,"",14.2,"",93.9,"",993.3,"",1008.3,"",.0,"",1.2,""
"351210488","KOZIENICE","2012","06","05",8.0,"",1.5,"",14.0,"",13.7,"",86.5,"",995.2,"",1010.3,"",.0,"",.0,""
"351210488","KOZIENICE","2012","06","06",7.1,"",2.4,"",13.4,"",10.8,"",71.1,"",997.4,"",1012.5,"",.0,"",1.5,""
"351210488","KOZIENICE","2012","06","07",6.6,"",1.5,"",15.6,"",13.6,"",79.4,"",994.6,"",1009.5,"",.0,"",.0,""
"351210488","KOZIENICE","2012","06","08",6.5,"",1.9,"",19.1,"",16.9,"",78.8,"",993.3,"",1008.1,"",.0,"",.0,""
"351210488","KOZIENICE","2012","06","09",7.0,"",2.1,"",19.1,"",17.4,"",79.6,"",997.4,"",1012.2,"",.2,"",.0,""
"351210488","KOZIENICE","2012","06","10",4.8,"",2.0,"",18.7,"",15.9,"",77.0,"",995.5,"",1010.3,"",.6,"",8.8,""
"351210488","KOZIENICE","2012","06","11",7.6,"",2.0,"",15.4,"",16.2,"",93.4,"",989.3,"",1004.2,"",.6,"",.4,""
"351210488","KOZIENICE","2012","06","12",7.0,"",2.1,"",17.5,"",15.8,"",80.8,"",989.6,"",1004.4,"",.0,"",6.5,""
"351210488","KOZIENICE","2012","06","13",7.4,"",2.9,"",16.9,"",16.7,"",87.6,"",988.7,"",1003.5,"",1.0,"",.0,""
"351210488","KOZIENICE","2012","06","14",7.8,"",2.3,"",14.9,"",14.4,"",85.3,"",999.9,"",1015.0,"",.0,"",.1,""
"351210488","KOZIENICE","2012","06","15",5.9,"",3.0,"",13.8,"",12.0,"",78.0,"",1005.8,"",1021.0,"",.0,"",.0,""
"351210488","KOZIENICE","2012","06","16",1.9,"",2.6,"",19.0,"",14.5,"",68.1,"",1005.3,"",1020.2,"",.0,"",.0,""
"351210488","KOZIENICE","2012","06","17",3.4,"",3.1,"",22.8,"",19.0,"",70.4,"",1005.4,"",1020.2,"",.0,"",.0,""
"351210488","KOZIENICE","2012","06","18",2.5,"",2.4,"",22.8,"",20.2,"",74.9,"",1005.4,"",1020.2,"",.0,"",.0,""
"351210488","KOZIENICE","2012","06","19",3.3,"",2.9,"",22.5,"",18.2,"",68.6,"",1003.5,"",1018.2,"",.0,"",.4,""
"351210488","KOZIENICE","2012","06","20",7.4,"",3.3,"",20.3,"",18.4,"",77.9,"",1002.0,"",1016.8,"",.0,"",.0,""
"351210488","KOZIENICE","2012","06","21",6.6,"",2.3,"",21.8,"",21.3,"",81.5,"",995.4,"",1010.0,"",1.3,"",.0,""
"351210488","KOZIENICE","2012","06","22",6.9,"",2.8,"",17.9,"",18.2,"",89.3,"",999.1,"",1014.0,"",.0,"",.0,""
"351210488","KOZIENICE","2012","06","23",3.8,"",2.4,"",19.0,"",13.7,"",66.3,"",1006.0,"",1020.9,"",.0,"",.0,""
"351210488","KOZIENICE","2012","06","24",4.1,"",2.1,"",19.7,"",12.2,"",57.8,"",1002.9,"",1017.8,"",.0,"",1.4,""
"351210488","KOZIENICE","2012","06","25",6.1,"",3.6,"",18.1,"",13.1,"",64.5,"",994.8,"",1009.7,"",.0,"",.0,""
"351210488","KOZIENICE","2012","06","26",5.9,"",4.5,"",14.3,"",12.2,"",75.4,"",997.6,"",1012.7,"",.0,"",.0,""
"351210488","KOZIENICE","2012","06","27",7.3,"",3.5,"",16.5,"",11.2,"",61.8,"",1000.2,"",1015.1,"",.0,"",.0,""
"351210488","KOZIENICE","2012","06","28",6.3,"",1.4,"",17.8,"",12.7,"",63.9,"",998.7,"",1013.6,"",.0,"",.0,""
"351210488","KOZIENICE","2012","06","29",2.9,"",2.1,"",20.1,"",14.3,"",63.1,"",1000.7,"",1015.5,"",.0,"",.0,""
"351210488","KOZIENICE","2012","06","30",2.6,"",2.4,"",23.3,"",17.3,"",64.9,"",1000.6,"",1015.2,"",.0,"",.0,""
"351210488","KOZIENICE","2012","07","01",3.9,"",3.1,"",25.4,"",21.3,"",71.1,"",1000.2,"",1014.7,"",1.6,"",17.0,""
"351210488","KOZIENICE","2012","07","02",6.8,"",2.1,"",22.9,"",21.5,"",78.3,"",1004.9,"",1019.6,"",.0,"",.0,""
"351210488","KOZIENICE","2012","07","03",4.8,"",2.3,"",25.9,"",23.7,"",73.3,"",1001.8,"",1016.3,"",.0,"",.6,""
"351210488","KOZIENICE","2012","07","04",6.0,"",3.0,"",23.4,"",21.2,"",76.4,"",1000.1,"",1014.7,"",.0,"",1.2,""
"351210488","KOZIENICE","2012","07","05",2.9,"",2.1,"",24.0,"",22.3,"",77.1,"",999.2,"",1013.8,"",.0,"",.0,""
"351210488","KOZIENICE","2012","07","06",3.5,"",3.3,"",24.1,"",22.5,"",78.0,"",997.1,"",1011.7,"",36.2,"",1.0,""
"351210488","KOZIENICE","2012","07","07",3.5,"",2.0,"",25.9,"",21.9,"",68.9,"",996.6,"",1011.1,"",.0,"",.0,""
"351210488","KOZIENICE","2012","07","08",4.0,"",2.6,"",24.2,"",22.4,"",75.1,"",996.1,"",1010.7,"",.0,"",1.7,""
"351210488","KOZIENICE","2012","07","09",6.1,"",1.6,"",22.6,"",20.2,"",75.9,"",995.9,"",1010.5,"",.0,"",.0,""
"351210488","KOZIENICE","2012","07","10",4.8,"",2.0,"",22.4,"",16.1,"",62.3,"",998.2,"",1012.8,"",.0,"",1.3,""
"351210488","KOZIENICE","2012","07","11",5.5,"",2.1,"",20.8,"",18.0,"",76.4,"",997.7,"",1012.4,"",2.6,"",.0,""
"351210488","KOZIENICE","2012","07","12",5.9,"",2.1,"",17.8,"",16.3,"",81.1,"",996.4,"",1011.2,"",.0,"",.0,""
"351210488","KOZIENICE","2012","07","13",6.3,"",3.1,"",16.4,"",12.1,"",67.9,"",997.9,"",1012.9,"",.0,"",.8,""
"351210488","KOZIENICE","2012","07","14",7.3,"",3.8,"",18.2,"",15.3,"",75.9,"",993.1,"",1007.9,"",.0,"",.0,""
"351210488","KOZIENICE","2012","07","15",5.9,"",3.0,"",19.1,"",13.5,"",63.1,"",995.8,"",1010.6,"",.0,"",.0,""
"351210488","KOZIENICE","2012","07","16",5.5,"",3.6,"",17.4,"",12.7,"",65.6,"",1002.0,"",1017.0,"",.0,"",.0,""
"351210488","KOZIENICE","2012","07","17",5.3,"",3.1,"",14.4,"",13.5,"",83.3,"",1001.2,"",1016.3,"",1.1,"",.0,""
"351210488","KOZIENICE","2012","07","18",6.0,"",3.3,"",15.8,"",15.0,"",83.8,"",999.3,"",1014.3,"",1.4,"",1.0,""
"351210488","KOZIENICE","2012","07","19",6.6,"",3.1,"",18.7,"",17.0,"",79.9,"",992.2,"",1007.0,"",.4,"",.0,""
"351210488","KOZIENICE","2012","07","20",4.1,"",3.9,"",17.7,"",12.1,"",61.9,"",996.4,"",1011.3,"",.0,"",.0,""
"351210488","KOZIENICE","2012","07","21",7.3,"",1.5,"",16.5,"",12.0,"",65.9,"",1001.5,"",1016.5,"",.0,"",.0,""
"351210488","KOZIENICE","2012","07","22",3.8,"",2.0,"",15.6,"",10.2,"",61.3,"",1007.7,"",1022.8,"",.0,"",.0,""
"351210488","KOZIENICE","2012","07","23",1.1,"",1.6,"",16.6,"",11.5,"",65.6,"",1013.4,"",1028.6,"",.0,"",.0,""
"351210488","KOZIENICE","2012","07","24",2.8,"",2.4,"",19.5,"",12.2,"",59.6,"",1010.1,"",1025.1,"",.0,"",.0,""
"351210488","KOZIENICE","2012","07","25",5.4,"",2.4,"",22.1,"",17.4,"",67.3,"",1003.0,"",1017.7,"",.0,"",.0,""
"351210488","KOZIENICE","2012","07","26",7.4,"",1.1,"",22.2,"",21.1,"",79.9,"",999.7,"",1014.4,"",.1,"",.0,""
"351210488","KOZIENICE","2012","07","27",2.9,"",1.0,"",24.4,"",19.5,"",68.0,"",999.2,"",1013.8,"",.0,"",.0,""
"351210488","KOZIENICE","2012","07","28",1.5,"",2.6,"",26.1,"",19.3,"",61.5,"",996.3,"",1010.8,"",.0,"",.0,""
"351210488","KOZIENICE","2012","07","29",4.4,"",3.4,"",25.4,"",19.5,"",64.1,"",994.9,"",1009.4,"",.0,"",1.6,""
"351210488","KOZIENICE","2012","07","30",6.3,"",1.5,"",19.9,"",19.7,"",85.8,"",1000.8,"",1015.6,"",3.2,"",.0,""
"351210488","KOZIENICE","2012","07","31",3.5,"",1.1,"",20.4,"",13.5,"",62.1,"",1003.5,"",1018.3,"",.0,"",.0,""
"351210488","KOZIENICE","2012","08","01",4.6,"",1.4,"",21.1,"",15.0,"",64.4,"",1003.7,"",1018.5,"",.0,"",.0,""
"351210488","KOZIENICE","2012","08","02",3.8,"",3.1,"",23.3,"",16.8,"",62.1,"",1002.2,"",1016.9,"",.0,"",.0,""
"351210488","KOZIENICE","2012","08","03",4.1,"",2.1,"",23.6,"",19.8,"",71.5,"",999.3,"",1013.9,"",6.0,"",.0,""
"351210488","KOZIENICE","2012","08","04",5.5,"",2.3,"",21.4,"",18.8,"",76.5,"",1000.6,"",1015.3,"",.0,"",.0,""
"351210488","KOZIENICE","2012","08","05",5.1,"",1.9,"",20.8,"",19.2,"",81.5,"",999.6,"",1014.3,"",10.2,"",15.4,""
"351210488","KOZIENICE","2012","08","06",3.6,"",2.8,"",24.8,"",21.6,"",73.0,"",995.6,"",1010.1,"",.2,"",10.9,""
"351210488","KOZIENICE","2012","08","07",4.9,"",3.5,"",20.5,"",17.4,"",73.8,"",1000.2,"",1015.0,"",.0,"",.0,""
"351210488","KOZIENICE","2012","08","08",3.9,"",2.8,"",17.6,"",13.6,"",69.4,"",1005.1,"",1020.1,"",.0,"",.0,""
"351210488","KOZIENICE","2012","08","09",5.3,"",2.5,"",16.0,"",13.8,"",76.4,"",1005.7,"",1020.8,"",.5,"",.0,""
"351210488","KOZIENICE","2012","08","10",6.1,"",2.6,"",16.2,"",12.6,"",70.4,"",1004.3,"",1019.3,"",.1,"",.6,""
"351210488","KOZIENICE","2012","08","11",7.0,"",1.8,"",14.6,"",13.5,"",82.3,"",1003.3,"",1018.4,"",.0,"",.0,""
"351210488","KOZIENICE","2012","08","12",4.3,"",2.5,"",15.2,"",12.2,"",73.1,"",1003.2,"",1018.3,"",.0,"",1.8,""
"351210488","KOZIENICE","2012","08","13",7.3,"",3.3,"",13.7,"",14.2,"",91.0,"",1000.6,"",1015.8,"",1.2,"",4.7,""
"351210488","KOZIENICE","2012","08","14",8.0,"",4.6,"",13.7,"",15.5,"",98.9,"",995.0,"",1010.0,"",22.2,"",.8,""
"351210488","KOZIENICE","2012","08","15",7.1,"",3.1,"",15.2,"",15.5,"",90.6,"",997.7,"",1012.7,"",.0,"",.0,""
"351210488","KOZIENICE","2012","08","16",5.5,"",2.0,"",15.1,"",15.0,"",88.5,"",1001.5,"",1016.6,"",.0,"",.0,""
"351210488","KOZIENICE","2012","08","17",4.9,"",1.3,"",15.9,"",15.0,"",84.8,"",1004.7,"",1019.7,"",.0,"",.0,""
"351210488","KOZIENICE","2012","08","18",3.0,"",1.8,"",17.4,"",15.2,"",79.0,"",1008.1,"",1023.1,"",.0,"",.0,""
"351210488","KOZIENICE","2012","08","19",1.3,"",1.3,"",20.6,"",15.9,"",69.4,"",1007.3,"",1022.2,"",.0,"",.0,""
"351210488","KOZIENICE","2012","08","20",2.8,"",2.0,"",25.5,"",17.7,"",56.9,"",1002.0,"",1016.6,"",.0,"",.8,""
"351210488","KOZIENICE","2012","08","21",4.8,"",2.3,"",22.2,"",20.8,"",79.5,"",1002.4,"",1017.1,"",1.0,"",.0,""
"351210488","KOZIENICE","2012","08","22",4.9,"",2.5,"",22.3,"",20.0,"",76.3,"",998.2,"",1012.8,"",.5,"",.0,""
"351210488","KOZIENICE","2012","08","23",2.9,"",1.9,"",19.8,"",14.7,"",66.5,"",999.6,"",1014.4,"",.0,"",.0,""
"351210488","KOZIENICE","2012","08","24",4.9,"",1.4,"",18.8,"",16.5,"",77.5,"",995.7,"",1010.6,"",.0,"",.2,""
"351210488","KOZIENICE","2012","08","25",5.9,"",2.5,"",21.0,"",18.9,"",77.6,"",994.2,"",1008.8,"",.0,"",.0,""
"351210488","KOZIENICE","2012","08","26",6.9,"",1.5,"",16.9,"",18.5,"",96.1,"",995.5,"",1010.3,"",1.0,"",.0,""
"351210488","KOZIENICE","2012","08","27",6.0,"",3.4,"",15.9,"",14.7,"",80.9,"",999.6,"",1014.6,"",.0,"",.0,""
"351210488","KOZIENICE","2012","08","28",2.4,"",1.5,"",13.9,"",11.6,"",75.4,"",1005.7,"",1020.9,"",.0,"",.0,""
"351210488","KOZIENICE","2012","08","29",4.0,"",.9,"",14.6,"",11.9,"",75.6,"",1005.5,"",1020.7,"",.0,"",.0,""
"351210488","KOZIENICE","2012","08","30",2.5,"",1.6,"",16.3,"",12.1,"",69.4,"",1005.0,"",1020.1,"",.0,"",.0,""
"351210488","KOZIENICE","2012","08","31",5.8,"",2.8,"",18.8,"",12.4,"",61.1,"",1001.4,"",1016.3,"",.0,"",.0,""
"351210488","KOZIENICE","2012","09","01",7.4,"",1.9,"",17.1,"",17.3,"",89.0,"",1005.2,"",1020.3,"",.5,"",.0,""
"351210488","KOZIENICE","2012","09","02",5.9,"",1.4,"",18.0,"",15.7,"",78.4,"",1009.6,"",1024.6,"",.0,"",.0,""
"351210488","KOZIENICE","2012","09","03",6.6,"",1.3,"",19.1,"",16.5,"",76.0,"",1006.8,"",1021.8,"",.0,"",.0,""
"351210488","KOZIENICE","2012","09","04",2.6,"",2.0,"",17.3,"",14.5,"",76.6,"",1005.0,"",1020.1,"",.0,"",.0,""
"351210488","KOZIENICE","2012","09","05",4.3,"",1.5,"",16.2,"",13.8,"",77.9,"",1002.4,"",1017.4,"",.0,"",4.1,""
"351210488","KOZIENICE","2012","09","06",5.9,"",2.8,"",14.7,"",12.6,"",76.0,"",1003.8,"",1018.9,"",.0,"",.0,""
"351210488","KOZIENICE","2012","09","07",5.9,"",3.3,"",12.8,"",11.4,"",78.3,"",1004.2,"",1019.4,"",.4,"",.0,""
"351210488","KOZIENICE","2012","09","08",4.6,"",2.8,"",15.0,"",13.1,"",78.9,"",1002.1,"",1017.3,"",.0,"",.0,""
"351210488","KOZIENICE","2012","09","09",4.9,"",2.6,"",14.7,"",11.7,"",72.5,"",1005.2,"",1020.3,"",.0,"",.0,""
"351210488","KOZIENICE","2012","09","10",4.1,"",2.5,"",15.6,"",11.3,"",68.6,"",1005.8,"",1021.0,"",.0,"",.0,""
"351210488","KOZIENICE","2012","09","11",1.5,"",2.5,"",21.6,"",13.2,"",55.5,"",1000.3,"",1015.0,"",.0,"",.1,""
"351210488","KOZIENICE","2012","09","12",5.6,"",2.8,"",19.0,"",15.5,"",71.8,"",993.8,"",1008.5,"",.8,"",5.5,""
"351210488","KOZIENICE","2012","09","13",8.0,"",3.4,"",13.0,"",14.8,"",99.5,"",994.8,"",1009.8,"",.1,"",.8,""
"351210488","KOZIENICE","2012","09","14",6.6,"",2.0,"",12.6,"",12.6,"",87.8,"",998.9,"",1014.1,"",.0,"",.0,""
"351210488","KOZIENICE","2012","09","15",6.5,"",2.9,"",13.1,"",12.2,"",82.5,"",996.3,"",1011.4,"",.0,"",.0,""
"351210488","KOZIENICE","2012","09","16",7.3,"",1.4,"",14.6,"",13.5,"",82.4,"",1003.5,"",1018.7,"",.0,"",.0,""
"351210488","KOZIENICE","2012","09","17",5.1,"",1.6,"",15.0,"",12.2,"",75.1,"",1002.5,"",1017.6,"",.0,"",.0,""
"351210488","KOZIENICE","2012","09","18",3.9,"",2.3,"",16.1,"",12.9,"",74.6,"",999.3,"",1014.3,"",.0,"",.0,""
"351210488","KOZIENICE","2012","09","19",6.4,"",3.1,"",15.1,"",13.9,"",82.4,"",996.8,"",1011.8,"",.5,"",.6,""
"351210488","KOZIENICE","2012","09","20",7.6,"",1.9,"",10.3,"",10.7,"",86.3,"",1005.2,"",1020.6,"",.0,"",.0,""
"351210488","KOZIENICE","2012","09","21",3.1,"",.9,"",8.6,"",8.6,"",80.4,"",1007.7,"",1023.2,"",.0,"",.0,""
"351210488","KOZIENICE","2012","09","22",5.9,"",3.1,"",8.9,"",10.3,"",90.3,"",998.3,"",1013.6,"",.7,"",.2,""
"351210488","KOZIENICE","2012","09","23",2.5,"",3.9,"",9.5,"",8.1,"",70.3,"",1000.8,"",1016.1,"",.0,"",.0,""
"351210488","KOZIENICE","2012","09","24",4.6,"",2.3,"",9.6,"",8.5,"",73.6,"",994.9,"",1010.2,"",.0,"",.0,""
"351210488","KOZIENICE","2012","09","25",5.5,"",1.6,"",12.7,"",12.8,"",87.0,"",991.1,"",1006.1,"",.0,"",.0,""
"351210488","KOZIENICE","2012","09","26",4.5,"",2.5,"",15.3,"",13.1,"",77.5,"",994.0,"",1008.9,"",.0,"",.0,""
"351210488","KOZIENICE","2012","09","27",5.9,"",4.0,"",19.1,"",15.1,"",70.6,"",993.1,"",1007.8,"",.0,"",.5,""
"351210488","KOZIENICE","2012","09","28",6.0,"",2.6,"",13.9,"",12.5,"",80.3,"",1002.3,"",1017.4,"",.0,"",.0,""
"351210488","KOZIENICE","2012","09","29",4.5,"",2.0,"",12.9,"",10.7,"",75.9,"",1002.6,"",1017.9,"",.0,"",3.3,""
"351210488","KOZIENICE","2012","09","30",2.5,"",2.5,"",11.9,"",10.8,"",79.3,"",1005.3,"",1020.6,"",.0,"",.0,""
"351210488","KOZIENICE","2012","10","01",5.8,"",2.0,"",8.9,"",10.5,"",90.1,"",1005.9,"",1021.4,"",.8,"",.0,""
"351210488","KOZIENICE","2012","10","02",5.4,"",.8,"",13.5,"",12.8,"",85.0,"",1002.3,"",1017.4,"",.0,"",13.9,""
"351210488","KOZIENICE","2012","10","03",6.1,"",1.5,"",12.3,"",14.2,"",99.1,"",1000.8,"",1016.0,"",7.5,"",.0,""
"351210488","KOZIENICE","2012","10","04",6.9,"",2.5,"",14.5,"",13.1,"",81.5,"",997.7,"",1012.8,"",.0,"",4.0,""
"351210488","KOZIENICE","2012","10","05",6.8,"",4.4,"",12.5,"",10.4,"",72.8,"",998.9,"",1014.1,"",.0,"",.0,""
"351210488","KOZIENICE","2012","10","06",6.8,"",4.8,"",17.6,"",13.4,"",67.4,"",995.4,"",1010.3,"",.0,"",.9,""
"351210488","KOZIENICE","2012","10","07",7.4,"",2.1,"",9.8,"",9.8,"",80.9,"",997.2,"",1012.5,"",.0,"",.0,""
"351210488","KOZIENICE","2012","10","08",5.8,"",3.0,"",8.6,"",9.1,"",82.1,"",999.0,"",1014.4,"",.2,"",.0,""
"351210488","KOZIENICE","2012","10","09",4.6,"",4.0,"",9.5,"",8.1,"",69.3,"",992.8,"",1008.0,"",.0,"",.0,""
"351210488","KOZIENICE","2012","10","10",6.5,"",3.3,"",7.9,"",7.9,"",74.4,"",995.1,"",1010.4,"",.0,"",.0,""
"351210488","KOZIENICE","2012","10","11",5.4,"",2.3,"",6.6,"",8.2,"",84.4,"",998.1,"",1013.6,"",.3,"",.0,""
"351210488","KOZIENICE","2012","10","12",1.3,"",1.1,"",3.2,"",7.0,"",91.1,"",1001.3,"",1017.0,"",.0,"",.0,""
"351210488","KOZIENICE","2012","10","13",4.6,"",1.8,"",6.3,"",8.8,"",91.1,"",999.4,"",1014.9,"",.0,"",.0,""
"351210488","KOZIENICE","2012","10","14",3.6,"",2.1,"",8.8,"",10.2,"",90.8,"",994.7,"",1010.1,"",.0,"",.0,""
"351210488","KOZIENICE","2012","10","15",3.5,"",3.0,"",12.6,"",11.8,"",82.0,"",992.4,"",1007.5,"",.0,"",.0,""
"351210488","KOZIENICE","2012","10","16",7.1,"",2.0,"",12.4,"",13.9,"",96.4,"",995.3,"",1010.5,"",6.3,"",2.9,""
"351210488","KOZIENICE","2012","10","17",4.4,"",2.9,"",9.2,"",10.3,"",89.1,"",1001.5,"",1016.9,"",.0,"",.0,""
"351210488","KOZIENICE","2012","10","18",2.9,"",1.9,"",8.0,"",9.8,"",89.9,"",1006.8,"",1022.4,"",.0,"",.0,""
"351210488","KOZIENICE","2012","10","19",1.8,"",1.4,"",8.7,"",9.6,"",86.5,"",1006.4,"",1021.9,"",.0,"",.0,""
"351210488","KOZIENICE","2012","10","20",1.0,"",1.8,"",8.0,"",9.9,"",91.4,"",1006.1,"",1021.6,"",.0,"",.0,""
"351210488","KOZIENICE","2012","10","21",4.4,"",.6,"",6.0,"",9.5,"",100.0,"",1005.8,"",1021.5,"",.0,"",.0,""
"351210488","KOZIENICE","2012","10","22",8.0,"",1.4,"",6.4,"",9.7,"",100.0,"",1009.1,"",1024.8,"",.6,"",.0,""
"351210488","KOZIENICE","2012","10","23",7.9,"",2.1,"",9.7,"",11.1,"",92.1,"",1011.0,"",1026.5,"",.0,"",.0,""
"351210488","KOZIENICE","2012","10","24",6.8,"",1.8,"",5.7,"",7.3,"",79.9,"",1006.9,"",1022.6,"",.0,"",.0,""
"351210488","KOZIENICE","2012","10","25",7.6,"",3.1,"",7.0,"",8.9,"",88.1,"",994.3,"",1009.7,"",.0,"",.9,""
"351210488","KOZIENICE","2012","10","26",3.8,"",2.9,"",3.1,"",5.5,"",72.1,"",993.5,"",1009.2,"",.0,"",1.5,""
"351210488","KOZIENICE","2012","10","27",7.9,"",4.0,"",.1,"",6.1,"",98.1,"",983.9,"",999.5,"",25.8,"",1.1,""
"351210488","KOZIENICE","2012","10","28",5.6,"",3.1,"",.0,"",5.7,"",93.5,"",992.1,"",1007.8,"",.2,"",.0,""
"351210488","KOZIENICE","2012","10","29",6.4,"",2.0,"",-2.0,"",5.1,"",96.9,"",999.4,"",1015.4,"",.3,"",.9,""
"351210488","KOZIENICE","2012","10","30",7.0,"",1.4,"",-.4,"",5.8,"",97.5,"",991.9,"",1007.6,"",.0,"",.1,""
"351210488","KOZIENICE","2012","10","31",4.9,"",2.5,"",2.0,"",6.9,"",96.6,"",995.4,"",1011.1,"",.0,"",.0,""
"351210488","KOZIENICE","2012","11","01",6.3,"",3.5,"",3.3,"",7.1,"",89.9,"",989.5,"",1005.0,"",2.5,"",.2,""
"351210488","KOZIENICE","2012","11","02",7.4,"",2.5,"",9.4,"",10.4,"",88.8,"",988.4,"",1003.5,"",.0,"",.4,""
"351210488","KOZIENICE","2012","11","03",4.8,"",3.1,"",6.8,"",8.6,"",87.9,"",993.1,"",1008.5,"",.0,"",.0,""
"351210488","KOZIENICE","2012","11","04",5.1,"",2.1,"",7.6,"",9.3,"",89.4,"",993.1,"",1008.4,"",.0,"",4.8,""
"351210488","KOZIENICE","2012","11","05",7.8,"",3.1,"",8.4,"",10.7,"",96.0,"",983.6,"",998.7,"",10.1,"",.0,""
"351210488","KOZIENICE","2012","11","06",6.3,"",4.5,"",5.3,"",7.6,"",85.4,"",991.7,"",1007.1,"",.4,"",.0,""
"351210488","KOZIENICE","2012","11","07",7.1,"",4.8,"",5.2,"",7.7,"",86.1,"",997.5,"",1013.0,"",1.8,"",3.6,""
"351210488","KOZIENICE","2012","11","08",8.0,"",3.9,"",7.9,"",9.4,"",88.1,"",1000.5,"",1015.9,"",.4,"",.0,""
"351210488","KOZIENICE","2012","11","09",8.0,"",3.0,"",7.4,"",9.6,"",92.8,"",1001.0,"",1016.5,"",.6,"",.0,""
"351210488","KOZIENICE","2012","11","10",6.3,"",3.5,"",5.8,"",8.0,"",87.6,"",1003.1,"",1018.8,"",.0,"",.0,""
"351210488","KOZIENICE","2012","11","11",4.9,"",4.9,"",10.2,"",7.9,"",64.3,"",998.5,"",1013.8,"",.0,"",.0,""
"351210488","KOZIENICE","2012","11","12",7.6,"",2.3,"",8.7,"",9.5,"",84.5,"",1006.9,"",1022.4,"",.0,"",.0,""
"351210488","KOZIENICE","2012","11","13",4.6,"",1.8,"",4.0,"",7.3,"",89.9,"",1016.8,"",1032.8,"",.0,"",.0,""
"351210488","KOZIENICE","2012","11","14",7.1,"",1.4,"",.7,"",6.4,"",98.9,"",1020.1,"",1036.2,"",.0,"",.0,""
"351210488","KOZIENICE","2012","11","15",5.0,"",2.0,"",1.9,"",6.7,"",95.5,"",1011.6,"",1027.6,"",.0,"",.2,""
"351210488","KOZIENICE","2012","11","16",8.0,"",1.8,"",.3,"",6.3,"",100.0,"",1010.1,"",1026.1,"",.0,"",.0,""
"351210488","KOZIENICE","2012","11","17",8.0,"",3.3,"",.6,"",6.4,"",100.0,"",1006.0,"",1021.9,"",.0,"",.0,""
"351210488","KOZIENICE","2012","11","18",7.5,"",2.5,"",3.1,"",7.5,"",97.3,"",1001.4,"",1017.1,"",.0,"",.0,""
"351210488","KOZIENICE","2012","11","19",7.0,"",1.0,"",4.3,"",8.0,"",96.8,"",1006.5,"",1022.3,"",.0,"",.0,""
"351210488","KOZIENICE","2012","11","20",7.9,"",1.1,"",3.8,"",7.9,"",98.5,"",1010.2,"",1026.1,"",.0,"",.0,""
"351210488","KOZIENICE","2012","11","21",7.0,"",3.6,"",5.5,"",7.8,"",86.3,"",1010.6,"",1026.4,"",.0,"",.0,""
"351210488","KOZIENICE","2012","11","22",7.9,"",2.3,"",4.3,"",7.7,"",92.9,"",1010.0,"",1025.8,"",.0,"",.0,""
"351210488","KOZIENICE","2012","11","23",7.8,"",1.8,"",4.8,"",8.3,"",96.9,"",1009.7,"",1025.4,"",.0,"",.0,""
"351210488","KOZIENICE","2012","11","24",7.8,"",1.9,"",6.0,"",8.9,"",95.5,"",1007.4,"",1023.0,"",.0,"",.0,""
"351210488","KOZIENICE","2012","11","25",7.9,"",1.8,"",5.7,"",8.9,"",97.0,"",1003.7,"",1019.3,"",.0,"",.0,""
"351210488","KOZIENICE","2012","11","26",5.6,"",2.6,"",6.3,"",8.8,"",91.6,"",999.9,"",1015.4,"",.0,"",.0,""
"351210488","KOZIENICE","2012","11","27",7.4,"",1.4,"",5.9,"",9.0,"",96.6,"",993.8,"",1009.2,"",.1,"",.0,""
"351210488","KOZIENICE","2012","11","28",7.8,"",2.3,"",8.6,"",10.0,"",90.3,"",989.0,"",1004.2,"",.0,"",.0,""
"351210488","KOZIENICE","2012","11","29",7.0,"",3.0,"",9.4,"",9.9,"",84.1,"",977.9,"",992.9,"",.1,"",.1,""
"351210488","KOZIENICE","2012","11","30",7.5,"",4.0,"",4.2,"",6.8,"",82.5,"",984.4,"",999.8,"",.0,"",1.3,""
"351210488","KOZIENICE","2012","12","01",3.9,"",1.8,"",-.2,"",5.6,"",92.3,"",998.1,"",1014.0,"",.0,"",.0,""
"351210488","KOZIENICE","2012","12","02",6.4,"",1.5,"",-2.8,"",5.1,"",99.5,"",998.3,"",1014.3,"",.0,"",1.6,""
"351210488","KOZIENICE","2012","12","03",8.0,"",3.3,"",-.8,"",5.6,"",96.8,"",993.0,"",1008.8,"",1.4,"",.0,""
"351210488","KOZIENICE","2012","12","04",7.8,"",3.4,"",-1.5,"",4.9,"",88.8,"",987.3,"",1003.1,"",.0,"",.2,""
"351210488","KOZIENICE","2012","12","05",6.5,"",2.8,"",-.4,"",5.5,"",92.1,"",983.7,"",999.4,"",.0,"",.0,""
"351210488","KOZIENICE","2012","12","06",2.5,"",2.1,"",-5.5,"",3.4,"",84.1,"",992.4,"",1008.5,"",.0,"",.7,""
"351210488","KOZIENICE","2012","12","07",7.9,"",1.1,"",-3.7,"",4.4,"",94.6,"",995.8,"",1011.8,"",.1,"",1.0,""
"351210488","KOZIENICE","2012","12","08",8.0,"",1.9,"",-6.6,"",3.6,"",95.6,"",1003.2,"",1019.5,"",.1,"",.0,""
"351210488","KOZIENICE","2012","12","09",7.1,"",1.4,"",-9.0,"",3.0,"",96.8,"",1003.9,"",1020.4,"",.0,"",.0,""
"351210488","KOZIENICE","2012","12","10",8.0,"",2.3,"",-7.4,"",3.4,"",96.3,"",994.3,"",1010.6,"",.0,"",.0,""
"351210488","KOZIENICE","2012","12","11",8.0,"",1.1,"",-6.0,"",3.7,"",93.6,"",997.9,"",1014.1,"",.0,"",.0,""
"351210488","KOZIENICE","2012","12","12",7.3,"",2.0,"",-5.2,"",4.1,"",97.0,"",1001.7,"",1018.0,"",.0,"",.0,""
"351210488","KOZIENICE","2012","12","13",5.0,"",3.0,"",-6.9,"",3.3,"",89.6,"",1004.1,"",1020.5,"",.0,"",.0,""
"351210488","KOZIENICE","2012","12","14",4.3,"",2.5,"",-8.3,"",3.0,"",88.8,"",1004.7,"",1021.2,"",.0,"",.0,""
"351210488","KOZIENICE","2012","12","15",7.0,"",4.4,"",-.7,"",5.2,"",88.6,"",997.2,"",1013.1,"",.4,"",4.5,""
"351210488","KOZIENICE","2012","12","16",8.0,"",2.5,"",1.1,"",6.6,"",100.0,"",995.7,"",1011.5,"",1.0,"",1.6,""
"351210488","KOZIENICE","2012","12","17",8.0,"",3.9,"",-.2,"",6.0,"",98.9,"",997.7,"",1013.5,"",1.0,"",.7,""
"351210488","KOZIENICE","2012","12","18",8.0,"",4.3,"",-3.4,"",4.5,"",93.5,"",1000.6,"",1016.7,"",.6,"",.2,""
"351210488","KOZIENICE","2012","12","19",7.9,"",3.0,"",-5.6,"",3.7,"",90.0,"",1009.7,"",1026.1,"",.0,"",.0,""
"351210488","KOZIENICE","2012","12","20",6.6,"",2.6,"",-10.4,"",2.4,"",87.1,"",1011.9,"",1028.6,"",.0,"",.0,""
"351210488","KOZIENICE","2012","12","21",5.0,"",3.1,"",-11.2,"",2.3,"",87.0,"",1006.1,"",1022.7,"",.0,"",.0,""
"351210488","KOZIENICE","2012","12","22",6.9,"",1.8,"",-10.5,"",2.4,"",86.3,"",1008.8,"",1025.5,"",.0,"",.0,""
"351210488","KOZIENICE","2012","12","23",6.3,"",3.4,"",-11.2,"",2.4,"",89.1,"",1004.9,"",1021.6,"",.0,"",1.6,""
"351210488","KOZIENICE","2012","12","24",6.8,"",3.0,"",-1.1,"",5.8,"",97.9,"",996.1,"",1012.0,"",2.7,"",.0,""
"351210488","KOZIENICE","2012","12","25",7.3,"",4.5,"",3.6,"",6.8,"",86.4,"",991.1,"",1006.7,"",.0,"",.0,""
"351210488","KOZIENICE","2012","12","26",7.3,"",3.6,"",5.8,"",7.6,"",82.8,"",993.8,"",1009.3,"",.0,"",.0,""
"351210488","KOZIENICE","2012","12","27",5.8,"",4.4,"",4.4,"",7.2,"",86.8,"",992.2,"",1007.7,"",.4,"",.0,""
"351210488","KOZIENICE","2012","12","28",5.0,"",3.4,"",.7,"",5.3,"",80.0,"",1004.5,"",1020.4,"",.0,"",.0,""
"351210488","KOZIENICE","2012","12","29",3.5,"",2.6,"",-2.6,"",3.7,"",76.1,"",1012.4,"",1028.7,"",.0,"",.0,""
"351210488","KOZIENICE","2012","12","30",2.6,"",3.4,"",1.4,"",4.4,"",64.1,"",1003.8,"",1019.7,"",.0,"",.0,""
"351210488","KOZIENICE","2012","12","31",2.6,"",4.5,"",3.3,"",6.0,"",78.6,"",1003.1,"",1018.9,"",.0,"",.0,""
