"353200272","OLSZTYN","2012","01","01",5.3,"",2.4,"",-1.8,"",5.4,"",99.4,"",996.6,"",1013.8,"",2.3,"",2.3,""
"353200272","OLSZTYN","2012","01","02",8.0,"",3.0,"",5.5,"",9.1,"",99.1,"",989.7,"",1006.4,"",4.8,"",6.3,""
"353200272","OLSZTYN","2012","01","03",6.6,"",4.0,"",4.5,"",7.6,"",90.0,"",994.8,"",1011.5,"",.0,"",2.7,""
"353200272","OLSZTYN","2012","01","04",5.6,"",5.9,"",4.6,"",6.6,"",78.3,"",983.9,"",1000.5,"",.0,"",.2,""
"353200272","OLSZTYN","2012","01","05",7.1,"",4.8,"",2.4,"",6.7,"",92.4,"",967.2,"",983.7,"",4.9,"",.1,""
"353200272","OLSZTYN","2012","01","06",7.3,"",4.0,"",2.2,"",7.0,"",97.6,"",975.7,"",992.3,"",.9,"",.3,""
"353200272","OLSZTYN","2012","01","07",6.9,"",3.4,"",.0,"",6.0,"",96.8,"",989.5,"",1006.5,"",.1,"",3.8,""
"353200272","OLSZTYN","2012","01","08",7.3,"",2.5,"",2.6,"",7.2,"",97.5,"",990.3,"",1007.2,"",.1,"",.3,""
"353200272","OLSZTYN","2012","01","09",7.6,"",4.1,"",1.0,"",6.0,"",91.0,"",1000.4,"",1017.5,"",.1,"",.0,""
"353200272","OLSZTYN","2012","01","10",7.0,"",1.3,"",-.7,"",5.2,"",89.6,"",1004.7,"",1022.0,"",.0,"",.0,""
"353200272","OLSZTYN","2012","01","11",7.8,"",4.0,"",2.9,"",7.1,"",94.3,"",1004.0,"",1021.1,"",1.0,"",.0,""
"353200272","OLSZTYN","2012","01","12",7.5,"",5.6,"",4.7,"",7.9,"",91.8,"",991.5,"",1008.3,"",2.4,"",4.2,""
"353200272","OLSZTYN","2012","01","13",5.8,"",5.6,"",1.2,"",5.6,"",84.5,"",983.2,"",1000.0,"",.0,"",3.2,""
"353200272","OLSZTYN","2012","01","14",7.8,"",7.4,"",-.9,"",5.4,"",94.9,"",988.1,"",1005.1,"",.7,"",.8,""
"353200272","OLSZTYN","2012","01","15",4.9,"",3.8,"",-3.9,"",4.2,"",91.3,"",999.2,"",1016.6,"",.0,"",.3,""
"353200272","OLSZTYN","2012","01","16",5.6,"",1.8,"",-5.0,"",4.1,"",96.8,"",1003.7,"",1021.2,"",.3,"",.0,""
"353200272","OLSZTYN","2012","01","17",6.0,"",1.3,"",-5.4,"",3.8,"",93.1,"",1006.1,"",1023.7,"",.0,"",.1,""
"353200272","OLSZTYN","2012","01","18",7.9,"",3.0,"",-2.1,"",5.2,"",96.5,"",1004.7,"",1022.1,"",.1,"",.7,""
"353200272","OLSZTYN","2012","01","19",7.9,"",3.1,"",.5,"",6.2,"",97.0,"",990.2,"",1007.1,"",.0,"",7.5,""
"353200272","OLSZTYN","2012","01","20",7.4,"",2.5,"",.3,"",6.2,"",98.6,"",983.4,"",1000.2,"",3.2,"",.0,""
"353200272","OLSZTYN","2012","01","21",7.8,"",2.8,"",-.4,"",5.7,"",96.3,"",987.4,"",1004.4,"",.0,"",3.5,""
"353200272","OLSZTYN","2012","01","22",7.8,"",2.8,"",.5,"",6.3,"",99.4,"",976.7,"",993.4,"",1.4,"",.1,""
"353200272","OLSZTYN","2012","01","23",7.8,"",2.9,"",.5,"",6.3,"",98.8,"",984.7,"",1001.6,"",2.8,"",.3,""
"353200272","OLSZTYN","2012","01","24",7.9,"",2.6,"",-1.1,"",5.3,"",94.5,"",996.9,"",1014.1,"",.0,"",.7,""
"353200272","OLSZTYN","2012","01","25",7.6,"",1.8,"",-1.5,"",5.4,"",98.1,"",1005.6,"",1023.0,"",2.2,"",1.0,""
"353200272","OLSZTYN","2012","01","26",6.4,"",3.1,"",-4.9,"",4.0,"",92.9,"",1013.2,"",1030.9,"",.3,"",.0,""
"353200272","OLSZTYN","2012","01","27",1.5,"",3.5,"",-10.9,"",2.2,"",83.9,"",1017.2,"",1035.4,"",.0,"",.0,""
"353200272","OLSZTYN","2012","01","28",4.5,"",4.0,"",-11.2,"",2.1,"",79.6,"",1020.4,"",1038.6,"",.0,"",.0,""
"353200272","OLSZTYN","2012","01","29",1.6,"",3.1,"",-11.7,"",1.7,"",69.9,"",1025.5,"",1043.9,"",.0,"",.0,""
"353200272","OLSZTYN","2012","01","30",.4,"",3.0,"",-12.4,"",1.8,"",75.1,"",1026.6,"",1045.1,"",.0,"",.0,""
"353200272","OLSZTYN","2012","01","31",2.0,"",2.4,"",-13.3,"",1.7,"",77.0,"",1023.9,"",1042.4,"",.0,"",.0,""
"353200272","OLSZTYN","2012","02","01",.4,"",2.5,"",-16.2,"",1.4,"",81.6,"",1023.0,"",1041.7,"",.0,"",.0,""
"353200272","OLSZTYN","2012","02","02",.5,"",1.1,"",-20.7,"",1.0,"",82.4,"",1019.5,"",1038.5,"",.0,"",.0,""
"353200272","OLSZTYN","2012","02","03",.0,"",2.9,"",-19.9,"",1.0,"",78.0,"",1019.0,"",1037.9,"",.0,"",.0,""
"353200272","OLSZTYN","2012","02","04",1.3,"",2.0,"",-19.1,"",1.1,"",78.4,"",1021.4,"",1040.3,"",.0,"",.0,""
"353200272","OLSZTYN","2012","02","05",2.1,"",1.8,"",-21.2,"",.9,"",77.5,"",1022.7,"",1041.8,"",.0,"",.0,""
"353200272","OLSZTYN","2012","02","06",4.4,"",2.3,"",-18.9,"",1.2,"",82.0,"",1021.0,"",1039.9,"",.0,"",.0,""
"353200272","OLSZTYN","2012","02","07",7.4,"",2.4,"",-13.1,"",1.9,"",84.3,"",1023.0,"",1041.4,"",.0,"",.0,""
"353200272","OLSZTYN","2012","02","08",7.0,"",1.5,"",-8.8,"",2.7,"",86.0,"",1022.0,"",1040.1,"",.0,"",.0,""
"353200272","OLSZTYN","2012","02","09",5.5,"",3.3,"",-10.8,"",2.3,"",84.4,"",1018.5,"",1036.7,"",.0,"",.0,""
"353200272","OLSZTYN","2012","02","10",.0,"",1.5,"",-15.7,"",1.5,"",82.5,"",1023.0,"",1041.6,"",.0,"",.0,""
"353200272","OLSZTYN","2012","02","11",2.9,"",1.0,"",-14.4,"",1.9,"",85.0,"",1018.9,"",1037.4,"",.0,"",.0,""
"353200272","OLSZTYN","2012","02","12",7.0,"",2.8,"",-8.7,"",2.6,"",81.5,"",1010.2,"",1028.1,"",.0,"",.6,""
"353200272","OLSZTYN","2012","02","13",8.0,"",2.1,"",-6.1,"",3.7,"",94.1,"",1000.8,"",1018.3,"",.9,"",.0,""
"353200272","OLSZTYN","2012","02","14",6.5,"",2.1,"",-4.5,"",3.9,"",89.8,"",995.4,"",1012.8,"",.0,"",.9,""
"353200272","OLSZTYN","2012","02","15",8.0,"",4.8,"",-5.2,"",3.8,"",90.8,"",973.4,"",990.4,"",1.0,"",.3,""
"353200272","OLSZTYN","2012","02","16",3.5,"",2.4,"",-8.4,"",2.9,"",89.6,"",996.6,"",1014.2,"",.0,"",.2,""
"353200272","OLSZTYN","2012","02","17",7.6,"",3.3,"",-3.9,"",4.4,"",92.8,"",993.8,"",1011.1,"",2.7,"",.2,""
"353200272","OLSZTYN","2012","02","18",7.6,"",3.4,"",.1,"",5.4,"",87.8,"",997.0,"",1014.0,"",.0,"",1.5,""
"353200272","OLSZTYN","2012","02","19",8.0,"",4.1,"",1.4,"",6.5,"",95.3,"",992.7,"",1009.7,"",5.0,"",.0,""
"353200272","OLSZTYN","2012","02","20",5.6,"",3.5,"",-.5,"",5.4,"",90.8,"",1006.9,"",1024.2,"",2.2,"",.0,""
"353200272","OLSZTYN","2012","02","21",7.1,"",4.8,"",-.7,"",5.3,"",90.1,"",1005.1,"",1022.5,"",2.0,"",.0,""
"353200272","OLSZTYN","2012","02","22",8.0,"",3.5,"",2.5,"",7.2,"",98.0,"",1004.3,"",1021.4,"",.7,"",4.5,""
"353200272","OLSZTYN","2012","02","23",5.5,"",6.4,"",4.0,"",6.8,"",84.5,"",988.5,"",1005.2,"",2.1,"",1.7,""
"353200272","OLSZTYN","2012","02","24",6.5,"",5.8,"",5.8,"",7.7,"",83.5,"",987.7,"",1004.3,"",.5,"",.2,""
"353200272","OLSZTYN","2012","02","25",7.4,"",7.0,"",3.5,"",6.3,"",80.6,"",985.9,"",1002.6,"",.7,"",3.0,""
"353200272","OLSZTYN","2012","02","26",6.6,"",6.3,"",-.8,"",5.0,"",86.1,"",993.7,"",1010.8,"",1.1,"",.5,""
"353200272","OLSZTYN","2012","02","27",3.6,"",3.3,"",-2.7,"",4.2,"",83.5,"",1002.5,"",1019.9,"",.2,"",.0,""
"353200272","OLSZTYN","2012","02","28",6.1,"",3.5,"",-2.5,"",5.2,"",95.9,"",994.6,"",1011.8,"",4.7,"",.0,""
"353200272","OLSZTYN","2012","02","29",4.4,"",3.5,"",3.9,"",6.5,"",81.6,"",999.1,"",1016.0,"",.0,"",.0,""
"353200272","OLSZTYN","2012","03","01",8.0,"",3.0,"",5.0,"",8.6,"",98.6,"",1001.2,"",1018.0,"",.5,"",.1,""
"353200272","OLSZTYN","2012","03","02",4.8,"",7.1,"",3.5,"",6.6,"",82.9,"",1002.2,"",1019.2,"",.0,"",.0,""
"353200272","OLSZTYN","2012","03","03",.9,"",5.9,"",1.4,"",5.2,"",77.3,"",1008.9,"",1026.1,"",.0,"",.0,""
"353200272","OLSZTYN","2012","03","04",.4,"",2.9,"",-1.9,"",3.9,"",75.0,"",1010.6,"",1028.1,"",.0,"",.0,""
"353200272","OLSZTYN","2012","03","05",2.4,"",2.9,"",-3.1,"",3.5,"",72.5,"",1008.7,"",1026.2,"",.0,"",.0,""
"353200272","OLSZTYN","2012","03","06",4.0,"",2.6,"",-4.7,"",3.1,"",72.5,"",1013.3,"",1031.0,"",.0,"",.0,""
"353200272","OLSZTYN","2012","03","07",3.6,"",2.1,"",-3.3,"",2.7,"",57.8,"",1011.6,"",1029.1,"",.0,"",.0,""
"353200272","OLSZTYN","2012","03","08",.6,"",3.1,"",-2.5,"",3.0,"",61.8,"",1005.9,"",1023.3,"",.0,"",.0,""
"353200272","OLSZTYN","2012","03","09",5.9,"",1.5,"",-1.6,"",4.6,"",83.0,"",1014.5,"",1032.0,"",.0,"",.1,""
"353200272","OLSZTYN","2012","03","10",8.0,"",3.9,"",3.6,"",7.4,"",92.5,"",1007.4,"",1024.4,"",1.2,"",3.2,""
"353200272","OLSZTYN","2012","03","11",3.5,"",7.1,"",2.3,"",5.8,"",79.9,"",999.5,"",1016.5,"",.0,"",.0,""
"353200272","OLSZTYN","2012","03","12",5.1,"",3.4,"",2.5,"",6.9,"",93.4,"",1001.4,"",1018.4,"",.0,"",.0,""
"353200272","OLSZTYN","2012","03","13",5.1,"",4.5,"",4.6,"",7.5,"",89.5,"",1003.4,"",1020.4,"",.0,"",.0,""
"353200272","OLSZTYN","2012","03","14",2.8,"",4.4,"",1.9,"",4.5,"",67.0,"",1006.2,"",1023.3,"",.0,"",.0,""
"353200272","OLSZTYN","2012","03","15",4.8,"",2.6,"",2.8,"",5.8,"",78.1,"",1010.0,"",1027.2,"",.0,"",.0,""
"353200272","OLSZTYN","2012","03","16",3.1,"",2.9,"",6.6,"",7.2,"",75.0,"",1004.0,"",1020.8,"",.0,"",.0,""
"353200272","OLSZTYN","2012","03","17",.1,"",2.4,"",9.1,"",7.7,"",70.5,"",999.0,"",1015.6,"",.0,"",.0,""
"353200272","OLSZTYN","2012","03","18",4.8,"",2.3,"",4.1,"",7.7,"",94.3,"",997.2,"",1014.0,"",.0,"",4.8,""
"353200272","OLSZTYN","2012","03","19",3.6,"",4.9,"",5.6,"",6.7,"",73.5,"",999.3,"",1016.1,"",.0,"",.0,""
"353200272","OLSZTYN","2012","03","20",5.1,"",4.8,"",4.9,"",6.5,"",74.3,"",1008.4,"",1025.4,"",.0,"",2.4,""
"353200272","OLSZTYN","2012","03","21",7.6,"",5.0,"",8.0,"",9.5,"",89.0,"",1010.4,"",1027.2,"",.2,"",.0,""
"353200272","OLSZTYN","2012","03","22",3.0,"",1.9,"",6.5,"",8.6,"",89.6,"",1013.0,"",1030.0,"",.0,"",.0,""
"353200272","OLSZTYN","2012","03","23",1.0,"",4.0,"",7.1,"",8.0,"",80.9,"",1009.2,"",1026.1,"",.0,"",.0,""
"353200272","OLSZTYN","2012","03","24",1.9,"",1.1,"",4.1,"",4.8,"",64.8,"",1008.8,"",1025.9,"",.0,"",.0,""
"353200272","OLSZTYN","2012","03","25",4.4,"",6.5,"",4.3,"",6.2,"",75.1,"",1005.9,"",1022.9,"",.0,"",.0,""
"353200272","OLSZTYN","2012","03","26",4.5,"",4.3,"",4.0,"",5.6,"",71.8,"",1012.4,"",1029.5,"",.0,"",.0,""
"353200272","OLSZTYN","2012","03","27",6.1,"",7.0,"",7.2,"",6.8,"",67.5,"",1004.4,"",1021.1,"",.0,"",.0,""
"353200272","OLSZTYN","2012","03","28",4.4,"",5.8,"",10.1,"",7.4,"",63.3,"",997.0,"",1013.5,"",.0,"",.3,""
"353200272","OLSZTYN","2012","03","29",6.4,"",7.0,"",6.1,"",6.9,"",74.0,"",985.6,"",1002.2,"",.1,"",.3,""
"353200272","OLSZTYN","2012","03","30",6.3,"",3.8,"",3.6,"",6.4,"",82.5,"",983.3,"",1000.0,"",4.1,"",4.9,""
"353200272","OLSZTYN","2012","03","31",7.3,"",3.4,"",1.6,"",6.6,"",95.9,"",976.3,"",993.0,"",8.6,"",3.3,""
"353200272","OLSZTYN","2012","04","01",6.4,"",4.6,"",1.2,"",5.1,"",78.1,"",987.2,"",1004.0,"",.1,"",7.4,""
"353200272","OLSZTYN","2012","04","02",6.1,"",6.5,"",2.0,"",4.6,"",67.3,"",982.6,"",999.3,"",1.2,"",.0,""
"353200272","OLSZTYN","2012","04","03",6.3,"",1.9,"",2.1,"",5.1,"",72.3,"",992.7,"",1009.6,"",.0,"",.9,""
"353200272","OLSZTYN","2012","04","04",7.8,"",3.5,"",1.3,"",6.5,"",96.3,"",993.5,"",1010.5,"",9.7,"",.0,""
"353200272","OLSZTYN","2012","04","05",2.0,"",2.6,"",1.5,"",4.4,"",67.3,"",1001.4,"",1018.5,"",.0,"",.0,""
"353200272","OLSZTYN","2012","04","06",2.4,"",1.1,"",2.5,"",4.2,"",62.3,"",993.9,"",1010.8,"",.0,"",.0,""
"353200272","OLSZTYN","2012","04","07",7.8,"",2.1,"",3.0,"",6.9,"",90.1,"",980.9,"",997.5,"",3.1,"",4.6,""
"353200272","OLSZTYN","2012","04","08",5.8,"",5.4,"",.5,"",5.0,"",79.6,"",987.1,"",1004.0,"",.3,"",.0,""
"353200272","OLSZTYN","2012","04","09",1.4,"",2.3,"",1.7,"",3.6,"",57.1,"",993.9,"",1010.8,"",.0,"",.0,""
"353200272","OLSZTYN","2012","04","10",5.4,"",4.9,"",6.5,"",3.7,"",40.3,"",991.6,"",1008.2,"",.0,"",.0,""
"353200272","OLSZTYN","2012","04","11",6.1,"",3.9,"",9.3,"",4.9,"",43.0,"",985.7,"",1002.0,"",.0,"",.0,""
"353200272","OLSZTYN","2012","04","12",7.3,"",2.3,"",11.3,"",7.0,"",53.4,"",982.9,"",999.1,"",.0,"",.6,""
"353200272","OLSZTYN","2012","04","13",7.5,"",2.3,"",7.6,"",8.5,"",82.0,"",984.8,"",1001.2,"",3.0,"",1.2,""
"353200272","OLSZTYN","2012","04","14",4.8,"",1.5,"",6.5,"",7.7,"",82.3,"",989.8,"",1006.4,"",.0,"",.0,""
"353200272","OLSZTYN","2012","04","15",7.1,"",3.3,"",8.0,"",8.0,"",75.3,"",990.5,"",1007.1,"",.3,"",3.2,""
"353200272","OLSZTYN","2012","04","16",7.9,"",5.6,"",5.1,"",7.8,"",89.6,"",986.7,"",1003.3,"",10.3,"",.0,""
"353200272","OLSZTYN","2012","04","17",3.6,"",3.3,"",3.9,"",5.1,"",66.5,"",993.4,"",1010.2,"",.0,"",.0,""
"353200272","OLSZTYN","2012","04","18",3.4,"",2.3,"",5.8,"",5.0,"",58.6,"",990.0,"",1006.6,"",.0,"",.0,""
"353200272","OLSZTYN","2012","04","19",7.9,"",2.9,"",8.0,"",8.9,"",83.4,"",983.6,"",1000.0,"",2.5,"",7.1,""
"353200272","OLSZTYN","2012","04","20",5.8,"",2.0,"",9.8,"",9.9,"",83.8,"",980.4,"",996.7,"",.0,"",.0,""
"353200272","OLSZTYN","2012","04","21",4.0,"",2.5,"",11.1,"",9.9,"",77.9,"",986.7,"",1002.9,"",3.4,"",1.7,""
"353200272","OLSZTYN","2012","04","22",5.4,"",1.8,"",12.3,"",9.5,"",71.5,"",988.4,"",1004.7,"",.0,"",4.8,""
"353200272","OLSZTYN","2012","04","23",6.5,"",2.0,"",8.0,"",8.8,"",83.1,"",991.3,"",1007.9,"",6.7,"",.0,""
"353200272","OLSZTYN","2012","04","24",2.4,"",3.6,"",10.7,"",8.7,"",70.4,"",989.3,"",1005.7,"",.0,"",.9,""
"353200272","OLSZTYN","2012","04","25",4.9,"",4.1,"",10.4,"",10.0,"",79.9,"",988.2,"",1004.5,"",.0,"",.0,""
"353200272","OLSZTYN","2012","04","26",3.3,"",3.4,"",13.8,"",7.9,"",56.0,"",996.7,"",1013.0,"",.0,"",.0,""
"353200272","OLSZTYN","2012","04","27",1.8,"",2.9,"",18.6,"",11.2,"",53.8,"",1000.5,"",1016.6,"",.0,"",.0,""
"353200272","OLSZTYN","2012","04","28",1.4,"",2.8,"",20.4,"",11.3,"",51.5,"",1003.2,"",1019.3,"",.0,"",.0,""
"353200272","OLSZTYN","2012","04","29",3.4,"",3.0,"",22.1,"",11.2,"",44.9,"",997.3,"",1013.1,"",.0,"",.0,""
"353200272","OLSZTYN","2012","04","30",1.4,"",1.9,"",22.3,"",12.2,"",48.3,"",997.4,"",1013.2,"",.0,"",.0,""
"353200272","OLSZTYN","2012","05","01",.0,"",3.0,"",17.9,"",12.0,"",60.5,"",1002.5,"",1018.6,"",.0,"",.0,""
"353200272","OLSZTYN","2012","05","02",.0,"",2.5,"",15.4,"",8.6,"",53.1,"",1001.0,"",1017.2,"",.0,"",.0,""
"353200272","OLSZTYN","2012","05","03",1.3,"",1.8,"",14.6,"",6.7,"",45.5,"",994.0,"",1010.2,"",.0,"",.0,""
"353200272","OLSZTYN","2012","05","04",6.1,"",2.1,"",15.4,"",11.5,"",66.0,"",987.2,"",1003.2,"",.0,"",.0,""
"353200272","OLSZTYN","2012","05","05",4.6,"",3.4,"",15.0,"",11.5,"",71.1,"",988.3,"",1004.3,"",1.3,"",.0,""
"353200272","OLSZTYN","2012","05","06",7.0,"",4.4,"",6.8,"",8.3,"",83.9,"",992.3,"",1008.9,"",.7,"",.0,""
"353200272","OLSZTYN","2012","05","07",3.5,"",1.6,"",6.3,"",6.9,"",75.6,"",1001.4,"",1018.2,"",.0,"",.0,""
"353200272","OLSZTYN","2012","05","08",2.1,"",1.5,"",9.5,"",7.3,"",65.1,"",1004.7,"",1021.4,"",.0,"",.0,""
"353200272","OLSZTYN","2012","05","09",3.1,"",2.8,"",13.5,"",9.2,"",62.6,"",1004.2,"",1020.6,"",.0,"",.0,""
"353200272","OLSZTYN","2012","05","10",5.8,"",3.4,"",19.4,"",13.5,"",62.6,"",1005.2,"",1021.3,"",.0,"",.0,""
"353200272","OLSZTYN","2012","05","11",7.1,"",3.4,"",21.6,"",16.5,"",65.8,"",1002.0,"",1017.9,"",.0,"",17.1,""
"353200272","OLSZTYN","2012","05","12",6.3,"",4.4,"",10.8,"",9.8,"",73.8,"",1003.5,"",1020.0,"",.0,"",.1,""
"353200272","OLSZTYN","2012","05","13",6.0,"",3.3,"",9.0,"",8.1,"",72.5,"",1007.9,"",1024.6,"",.0,"",.0,""
"353200272","OLSZTYN","2012","05","14",1.8,"",1.5,"",9.5,"",7.3,"",65.3,"",1006.6,"",1023.3,"",.0,"",.0,""
"353200272","OLSZTYN","2012","05","15",6.4,"",2.4,"",9.8,"",8.2,"",70.8,"",998.2,"",1014.7,"",.0,"",16.8,""
"353200272","OLSZTYN","2012","05","16",7.6,"",4.0,"",9.2,"",11.2,"",96.6,"",993.0,"",1009.5,"",16.8,"",.0,""
"353200272","OLSZTYN","2012","05","17",6.1,"",4.8,"",7.6,"",7.9,"",76.4,"",998.4,"",1015.1,"",.0,"",.0,""
"353200272","OLSZTYN","2012","05","18",3.0,"",2.6,"",9.2,"",7.4,"",66.1,"",1003.7,"",1020.4,"",.0,"",.0,""
"353200272","OLSZTYN","2012","05","19",3.5,"",2.9,"",12.3,"",9.3,"",67.6,"",1004.1,"",1020.6,"",.0,"",.0,""
"353200272","OLSZTYN","2012","05","20",1.0,"",2.8,"",17.9,"",13.7,"",69.6,"",999.9,"",1016.0,"",.0,"",.0,""
"353200272","OLSZTYN","2012","05","21",4.8,"",3.1,"",21.9,"",16.0,"",64.1,"",995.3,"",1011.1,"",.0,"",.0,""
"353200272","OLSZTYN","2012","05","22",1.0,"",2.9,"",22.7,"",14.9,"",57.6,"",996.7,"",1012.5,"",.0,"",.0,""
"353200272","OLSZTYN","2012","05","23",2.6,"",3.3,"",19.6,"",15.4,"",68.0,"",1003.3,"",1019.4,"",.0,"",.0,""
"353200272","OLSZTYN","2012","05","24",.5,"",4.1,"",15.3,"",9.2,"",54.6,"",1010.0,"",1026.4,"",.0,"",.0,""
"353200272","OLSZTYN","2012","05","25",.4,"",3.3,"",14.3,"",8.9,"",57.6,"",1010.4,"",1026.9,"",.0,"",.0,""
"353200272","OLSZTYN","2012","05","26",2.8,"",3.4,"",14.3,"",9.6,"",61.5,"",1007.0,"",1023.4,"",.0,"",.0,""
"353200272","OLSZTYN","2012","05","27",4.3,"",2.9,"",13.2,"",11.5,"",76.4,"",1003.5,"",1019.9,"",.0,"",.0,""
"353200272","OLSZTYN","2012","05","28",2.5,"",2.1,"",15.0,"",9.2,"",60.0,"",995.3,"",1011.5,"",.0,"",.0,""
"353200272","OLSZTYN","2012","05","29",3.9,"",4.1,"",14.9,"",11.1,"",67.3,"",990.7,"",1006.8,"",1.1,"",.0,""
"353200272","OLSZTYN","2012","05","30",5.0,"",3.1,"",9.1,"",8.3,"",73.5,"",997.5,"",1014.0,"",.2,"",.0,""
"353200272","OLSZTYN","2012","05","31",6.0,"",1.6,"",11.2,"",9.6,"",74.3,"",997.9,"",1014.3,"",.0,"",3.2,""
"353200272","OLSZTYN","2012","06","01",6.1,"",2.8,"",8.8,"",10.1,"",89.3,"",989.2,"",1005.6,"",9.8,"",2.0,""
"353200272","OLSZTYN","2012","06","02",5.0,"",4.4,"",7.2,"",8.4,"",82.6,"",989.8,"",1006.3,"",5.8,"",.0,""
"353200272","OLSZTYN","2012","06","03",6.1,"",3.1,"",10.3,"",7.9,"",65.6,"",991.7,"",1008.1,"",.0,"",.0,""
"353200272","OLSZTYN","2012","06","04",7.3,"",1.3,"",12.1,"",10.1,"",72.4,"",992.1,"",1008.4,"",.0,"",.0,""
"353200272","OLSZTYN","2012","06","05",7.3,"",2.6,"",12.5,"",10.8,"",74.9,"",995.0,"",1011.3,"",.0,"",.0,""
"353200272","OLSZTYN","2012","06","06",5.6,"",1.5,"",11.6,"",8.8,"",66.1,"",996.7,"",1013.1,"",.0,"",.0,""
"353200272","OLSZTYN","2012","06","07",6.6,"",1.5,"",14.3,"",10.5,"",65.6,"",993.4,"",1009.6,"",.0,"",.1,""
"353200272","OLSZTYN","2012","06","08",6.9,"",2.4,"",16.7,"",15.6,"",82.1,"",991.6,"",1007.6,"",.0,"",.0,""
"353200272","OLSZTYN","2012","06","09",5.9,"",1.9,"",18.3,"",15.4,"",75.0,"",994.7,"",1010.7,"",.4,"",.0,""
"353200272","OLSZTYN","2012","06","10",5.0,"",2.3,"",17.6,"",12.6,"",66.5,"",994.5,"",1010.5,"",.0,"",14.8,""
"353200272","OLSZTYN","2012","06","11",6.9,"",3.3,"",15.4,"",12.9,"",75.5,"",988.6,"",1004.6,"",.0,"",.0,""
"353200272","OLSZTYN","2012","06","12",6.8,"",1.8,"",15.7,"",13.7,"",78.8,"",988.9,"",1004.9,"",1.3,"",.2,""
"353200272","OLSZTYN","2012","06","13",5.9,"",2.3,"",16.3,"",14.9,"",81.8,"",990.0,"",1006.0,"",.2,"",.0,""
"353200272","OLSZTYN","2012","06","14",6.6,"",3.0,"",15.0,"",13.4,"",80.5,"",998.9,"",1015.2,"",.5,"",3.4,""
"353200272","OLSZTYN","2012","06","15",5.6,"",3.4,"",12.8,"",11.6,"",80.3,"",1004.1,"",1020.5,"",.0,"",.0,""
"353200272","OLSZTYN","2012","06","16",4.6,"",2.6,"",18.1,"",14.5,"",71.9,"",1002.2,"",1018.3,"",.0,"",7.9,""
"353200272","OLSZTYN","2012","06","17",4.9,"",3.1,"",18.8,"",15.9,"",74.4,"",1003.4,"",1019.4,"",.0,"",.0,""
"353200272","OLSZTYN","2012","06","18",1.8,"",2.6,"",20.3,"",15.2,"",66.3,"",1004.1,"",1020.2,"",.0,"",1.0,""
"353200272","OLSZTYN","2012","06","19",6.1,"",3.6,"",16.9,"",15.0,"",78.3,"",1003.3,"",1019.5,"",.0,"",.0,""
"353200272","OLSZTYN","2012","06","20",6.1,"",2.1,"",13.4,"",13.2,"",86.0,"",1003.3,"",1019.7,"",2.0,"",.0,""
"353200272","OLSZTYN","2012","06","21",8.0,"",3.0,"",15.6,"",17.3,"",97.1,"",996.4,"",1012.5,"",15.7,"",9.9,""
"353200272","OLSZTYN","2012","06","22",8.0,"",2.8,"",16.1,"",17.8,"",97.5,"",996.0,"",1012.1,"",.1,"",.4,""
"353200272","OLSZTYN","2012","06","23",2.6,"",3.0,"",16.9,"",13.7,"",73.6,"",1003.3,"",1019.5,"",.0,"",.6,""
"353200272","OLSZTYN","2012","06","24",6.0,"",2.8,"",18.2,"",13.3,"",66.4,"",1000.0,"",1016.1,"",.0,"",11.0,""
"353200272","OLSZTYN","2012","06","25",5.6,"",5.0,"",15.6,"",13.4,"",76.5,"",989.5,"",1005.6,"",.0,"",4.0,""
"353200272","OLSZTYN","2012","06","26",7.9,"",4.8,"",13.0,"",13.1,"",87.9,"",991.1,"",1007.3,"",4.3,"",.0,""
"353200272","OLSZTYN","2012","06","27",7.1,"",3.8,"",13.4,"",11.9,"",78.1,"",996.6,"",1012.9,"",.0,"",.0,""
"353200272","OLSZTYN","2012","06","28",5.3,"",1.4,"",13.7,"",12.1,"",78.5,"",997.4,"",1013.7,"",.0,"",.0,""
"353200272","OLSZTYN","2012","06","29",1.1,"",2.3,"",18.0,"",12.7,"",65.1,"",999.5,"",1015.6,"",.0,"",.0,""
"353200272","OLSZTYN","2012","06","30",3.1,"",2.8,"",21.7,"",18.2,"",69.9,"",998.5,"",1014.3,"",.5,"",.2,""
"353200272","OLSZTYN","2012","07","01",4.5,"",2.8,"",21.8,"",22.0,"",85.5,"",998.3,"",1014.2,"",10.2,"",.1,""
"353200272","OLSZTYN","2012","07","02",4.3,"",3.1,"",19.0,"",16.7,"",76.8,"",1004.3,"",1020.4,"",.0,"",13.6,""
"353200272","OLSZTYN","2012","07","03",5.8,"",2.8,"",19.4,"",19.8,"",87.4,"",1002.3,"",1018.4,"",.0,"",.0,""
"353200272","OLSZTYN","2012","07","04",6.0,"",2.1,"",21.3,"",22.0,"",87.9,"",999.9,"",1015.8,"",.0,"",.0,""
"353200272","OLSZTYN","2012","07","05",3.6,"",2.1,"",21.7,"",21.6,"",84.3,"",999.3,"",1015.2,"",.0,"",.0,""
"353200272","OLSZTYN","2012","07","06",3.9,"",2.5,"",25.0,"",23.4,"",77.9,"",996.5,"",1012.2,"",15.7,"",.0,""
"353200272","OLSZTYN","2012","07","07",4.6,"",2.0,"",24.1,"",21.7,"",75.8,"",995.5,"",1011.2,"",2.1,"",5.6,""
"353200272","OLSZTYN","2012","07","08",5.5,"",2.3,"",20.2,"",20.4,"",87.3,"",995.1,"",1011.0,"",.1,"",.0,""
"353200272","OLSZTYN","2012","07","09",3.5,"",2.4,"",20.5,"",18.5,"",78.8,"",993.8,"",1009.7,"",6.7,"",.0,""
"353200272","OLSZTYN","2012","07","10",2.8,"",2.3,"",19.0,"",15.4,"",73.3,"",996.1,"",1012.1,"",.1,"",.0,""
"353200272","OLSZTYN","2012","07","11",3.9,"",2.1,"",19.2,"",17.0,"",78.6,"",995.9,"",1011.8,"",.4,"",.0,""
"353200272","OLSZTYN","2012","07","12",5.0,"",2.3,"",15.9,"",15.3,"",85.6,"",993.9,"",1010.0,"",4.7,"",.0,""
"353200272","OLSZTYN","2012","07","13",4.8,"",2.9,"",15.4,"",12.9,"",74.9,"",994.5,"",1010.6,"",.0,"",.0,""
"353200272","OLSZTYN","2012","07","14",6.4,"",3.5,"",17.3,"",15.3,"",78.9,"",988.7,"",1004.7,"",2.9,"",.0,""
"353200272","OLSZTYN","2012","07","15",4.4,"",3.4,"",16.2,"",13.7,"",75.8,"",992.2,"",1008.3,"",.4,"",.0,""
"353200272","OLSZTYN","2012","07","16",4.9,"",2.9,"",14.2,"",12.8,"",80.8,"",999.1,"",1015.4,"",2.5,"",.0,""
"353200272","OLSZTYN","2012","07","17",5.1,"",2.6,"",12.9,"",13.4,"",90.1,"",997.2,"",1013.5,"",4.7,"",.0,""
"353200272","OLSZTYN","2012","07","18",6.9,"",3.3,"",14.3,"",13.4,"",82.6,"",994.9,"",1011.1,"",.5,"",1.5,""
"353200272","OLSZTYN","2012","07","19",6.3,"",2.8,"",15.3,"",16.1,"",93.0,"",987.6,"",1003.7,"",18.1,"",.0,""
"353200272","OLSZTYN","2012","07","20",6.4,"",3.5,"",14.3,"",14.5,"",89.3,"",991.7,"",1007.8,"",8.1,"",.0,""
"353200272","OLSZTYN","2012","07","21",5.6,"",3.0,"",14.4,"",13.1,"",80.8,"",999.3,"",1015.5,"",.0,"",.0,""
"353200272","OLSZTYN","2012","07","22",3.4,"",2.0,"",14.2,"",11.7,"",74.6,"",1006.6,"",1023.1,"",.0,"",.0,""
"353200272","OLSZTYN","2012","07","23",1.6,"",2.0,"",15.9,"",11.1,"",66.3,"",1012.4,"",1028.9,"",.0,"",.0,""
"353200272","OLSZTYN","2012","07","24",3.4,"",1.0,"",19.2,"",13.2,"",63.6,"",1009.7,"",1025.9,"",.0,"",.0,""
"353200272","OLSZTYN","2012","07","25",2.9,"",2.9,"",21.9,"",15.5,"",61.8,"",1002.8,"",1018.7,"",.0,"",.0,""
"353200272","OLSZTYN","2012","07","26",6.4,"",.8,"",22.7,"",21.1,"",77.1,"",999.4,"",1015.2,"",.0,"",.0,""
"353200272","OLSZTYN","2012","07","27",2.8,"",1.9,"",23.6,"",21.4,"",75.9,"",999.2,"",1015.0,"",.0,"",.0,""
"353200272","OLSZTYN","2012","07","28",2.3,"",2.3,"",25.3,"",21.8,"",70.9,"",994.5,"",1010.1,"",.0,"",.0,""
"353200272","OLSZTYN","2012","07","29",4.5,"",2.8,"",23.4,"",22.3,"",79.5,"",992.4,"",1008.1,"",5.3,"",1.2,""
"353200272","OLSZTYN","2012","07","30",4.9,"",1.9,"",19.3,"",17.7,"",81.0,"",998.7,"",1014.7,"",.1,"",.0,""
"353200272","OLSZTYN","2012","07","31",4.1,"",1.4,"",17.2,"",13.7,"",71.9,"",1002.5,"",1018.7,"",.0,"",.0,""
"353200272","OLSZTYN","2012","08","01",5.3,"",2.4,"",18.2,"",13.7,"",67.6,"",1003.9,"",1020.0,"",.0,"",.0,""
"353200272","OLSZTYN","2012","08","02",5.1,"",3.3,"",21.4,"",16.2,"",64.6,"",1002.2,"",1018.1,"",.0,"",.9,""
"353200272","OLSZTYN","2012","08","03",6.1,"",2.4,"",21.2,"",20.8,"",83.9,"",998.0,"",1013.9,"",3.1,"",.0,""
"353200272","OLSZTYN","2012","08","04",3.5,"",1.1,"",19.1,"",15.6,"",73.8,"",999.5,"",1015.6,"",.0,"",.0,""
"353200272","OLSZTYN","2012","08","05",4.4,"",2.3,"",22.3,"",16.8,"",65.1,"",998.2,"",1014.0,"",.0,"",.0,""
"353200272","OLSZTYN","2012","08","06",2.8,"",2.9,"",22.1,"",20.7,"",79.1,"",994.0,"",1009.7,"",4.0,"",10.3,""
"353200272","OLSZTYN","2012","08","07",5.8,"",3.5,"",18.7,"",16.2,"",76.6,"",997.2,"",1013.2,"",.0,"",.0,""
"353200272","OLSZTYN","2012","08","08",4.4,"",3.3,"",15.7,"",14.2,"",80.6,"",1001.6,"",1017.8,"",3.0,"",.0,""
"353200272","OLSZTYN","2012","08","09",5.4,"",2.8,"",14.2,"",13.7,"",85.6,"",1002.8,"",1019.2,"",2.0,"",.3,""
"353200272","OLSZTYN","2012","08","10",6.5,"",4.9,"",14.0,"",13.6,"",85.8,"",1002.0,"",1018.3,"",4.7,"",.1,""
"353200272","OLSZTYN","2012","08","11",5.6,"",3.9,"",14.4,"",13.3,"",82.4,"",1003.1,"",1019.5,"",.0,"",.0,""
"353200272","OLSZTYN","2012","08","12",5.1,"",2.1,"",13.1,"",12.9,"",86.9,"",1004.3,"",1020.8,"",2.0,"",.0,""
"353200272","OLSZTYN","2012","08","13",6.1,"",3.4,"",14.7,"",14.3,"",86.9,"",1002.3,"",1018.6,"",.0,"",1.7,""
"353200272","OLSZTYN","2012","08","14",7.9,"",4.8,"",15.2,"",15.5,"",90.1,"",996.6,"",1012.7,"",1.4,"",.4,""
"353200272","OLSZTYN","2012","08","15",7.9,"",2.6,"",15.5,"",15.9,"",90.5,"",997.6,"",1013.8,"",.0,"",.0,""
"353200272","OLSZTYN","2012","08","16",6.9,"",1.3,"",16.7,"",15.3,"",81.6,"",1000.4,"",1016.5,"",.0,"",.0,""
"353200272","OLSZTYN","2012","08","17",4.6,"",2.3,"",16.1,"",15.9,"",87.6,"",1003.6,"",1019.8,"",.0,"",.0,""
"353200272","OLSZTYN","2012","08","18",6.4,"",1.1,"",17.5,"",16.2,"",82.6,"",1006.7,"",1022.9,"",.0,"",.0,""
"353200272","OLSZTYN","2012","08","19",4.5,"",2.5,"",22.5,"",16.2,"",62.8,"",1004.0,"",1019.9,"",.0,"",.0,""
"353200272","OLSZTYN","2012","08","20",4.8,"",1.6,"",21.9,"",19.9,"",76.4,"",1000.0,"",1015.9,"",3.1,"",2.8,""
"353200272","OLSZTYN","2012","08","21",4.1,"",2.8,"",20.4,"",20.3,"",86.0,"",1000.0,"",1016.0,"",.0,"",1.0,""
"353200272","OLSZTYN","2012","08","22",4.0,"",3.5,"",19.9,"",18.0,"",78.8,"",995.1,"",1011.0,"",.0,"",.0,""
"353200272","OLSZTYN","2012","08","23",2.5,"",3.0,"",17.4,"",12.7,"",66.5,"",996.8,"",1012.9,"",.0,"",.0,""
"353200272","OLSZTYN","2012","08","24",4.9,"",2.5,"",15.5,"",13.8,"",80.3,"",994.9,"",1011.0,"",.6,"",.5,""
"353200272","OLSZTYN","2012","08","25",5.4,"",1.6,"",15.8,"",15.6,"",87.6,"",992.0,"",1008.0,"",.0,"",1.4,""
"353200272","OLSZTYN","2012","08","26",6.6,"",2.4,"",17.0,"",17.7,"",91.5,"",992.5,"",1008.6,"",.2,"",.0,""
"353200272","OLSZTYN","2012","08","27",5.6,"",4.3,"",15.5,"",14.7,"",84.1,"",996.8,"",1013.0,"",.8,"",.0,""
"353200272","OLSZTYN","2012","08","28",5.1,"",1.8,"",14.5,"",13.0,"",81.5,"",1003.9,"",1020.2,"",.0,"",.0,""
"353200272","OLSZTYN","2012","08","29",3.1,"",1.3,"",16.4,"",12.5,"",70.4,"",1004.2,"",1020.4,"",.0,"",.0,""
"353200272","OLSZTYN","2012","08","30",3.4,"",3.0,"",17.7,"",13.9,"",71.3,"",1003.6,"",1019.8,"",.0,"",.0,""
"353200272","OLSZTYN","2012","08","31",7.3,"",4.5,"",18.7,"",13.1,"",61.5,"",999.2,"",1015.2,"",.0,"",.0,""
"353200272","OLSZTYN","2012","09","01",6.8,"",1.1,"",16.2,"",16.3,"",88.8,"",1004.4,"",1020.7,"",.0,"",.0,""
"353200272","OLSZTYN","2012","09","02",2.6,"",1.5,"",14.8,"",13.2,"",81.3,"",1008.5,"",1025.0,"",.0,"",.0,""
"353200272","OLSZTYN","2012","09","03",5.5,"",1.6,"",16.2,"",13.9,"",77.8,"",1005.8,"",1022.1,"",.0,"",.0,""
"353200272","OLSZTYN","2012","09","04",3.9,"",1.9,"",15.8,"",14.4,"",81.9,"",1004.0,"",1020.2,"",.0,"",.0,""
"353200272","OLSZTYN","2012","09","05",5.8,"",2.6,"",15.0,"",14.5,"",84.6,"",1000.1,"",1016.4,"",.0,"",.0,""
"353200272","OLSZTYN","2012","09","06",5.6,"",4.5,"",13.6,"",11.2,"",73.3,"",1001.2,"",1017.5,"",.0,"",.2,""
"353200272","OLSZTYN","2012","09","07",5.8,"",4.1,"",12.4,"",12.3,"",85.6,"",999.1,"",1015.5,"",.0,"",.0,""
"353200272","OLSZTYN","2012","09","08",5.5,"",3.9,"",14.2,"",11.7,"",73.4,"",998.2,"",1014.4,"",.0,"",.1,""
"353200272","OLSZTYN","2012","09","09",3.4,"",2.4,"",13.5,"",11.0,"",74.4,"",1003.1,"",1019.5,"",.0,"",.0,""
"353200272","OLSZTYN","2012","09","10",1.8,"",3.5,"",16.4,"",11.8,"",65.1,"",1003.0,"",1019.2,"",.0,"",.0,""
"353200272","OLSZTYN","2012","09","11",1.8,"",2.3,"",21.0,"",14.4,"",61.1,"",996.9,"",1012.8,"",.0,"",.4,""
"353200272","OLSZTYN","2012","09","12",6.8,"",2.3,"",15.3,"",15.8,"",91.0,"",991.8,"",1007.9,"",5.3,"",6.0,""
"353200272","OLSZTYN","2012","09","13",8.0,"",2.5,"",10.8,"",12.9,"",99.3,"",996.2,"",1012.6,"",13.4,"",.3,""
"353200272","OLSZTYN","2012","09","14",6.5,"",2.9,"",12.6,"",11.2,"",78.8,"",995.7,"",1012.0,"",.0,"",.1,""
"353200272","OLSZTYN","2012","09","15",6.1,"",3.1,"",13.4,"",12.3,"",80.5,"",991.8,"",1008.0,"",1.8,"",.0,""
"353200272","OLSZTYN","2012","09","16",7.4,"",2.4,"",14.2,"",13.7,"",85.4,"",1000.6,"",1016.9,"",.0,"",.0,""
"353200272","OLSZTYN","2012","09","17",4.4,"",3.1,"",16.1,"",12.9,"",72.1,"",999.5,"",1015.6,"",.0,"",.0,""
"353200272","OLSZTYN","2012","09","18",2.9,"",2.3,"",15.3,"",13.2,"",78.4,"",996.2,"",1012.4,"",.0,"",.0,""
"353200272","OLSZTYN","2012","09","19",6.1,"",2.8,"",12.3,"",13.5,"",94.1,"",994.3,"",1010.6,"",4.8,"",.0,""
"353200272","OLSZTYN","2012","09","20",5.1,"",2.0,"",9.9,"",10.0,"",83.1,"",1003.2,"",1019.8,"",.0,"",.0,""
"353200272","OLSZTYN","2012","09","21",3.1,"",2.0,"",9.2,"",8.9,"",79.4,"",1005.5,"",1022.2,"",.0,"",.0,""
"353200272","OLSZTYN","2012","09","22",6.3,"",3.4,"",9.5,"",9.8,"",83.0,"",994.6,"",1011.1,"",.2,"",8.3,""
"353200272","OLSZTYN","2012","09","23",7.3,"",4.5,"",10.1,"",9.8,"",79.6,"",994.9,"",1011.4,"",.0,"",.0,""
"353200272","OLSZTYN","2012","09","24",5.6,"",1.9,"",10.5,"",10.2,"",81.5,"",993.4,"",1009.8,"",.0,"",.0,""
"353200272","OLSZTYN","2012","09","25",5.5,"",1.6,"",13.0,"",11.8,"",79.1,"",989.7,"",1005.9,"",.2,"",.0,""
"353200272","OLSZTYN","2012","09","26",4.9,"",2.8,"",15.0,"",13.9,"",83.0,"",991.8,"",1008.0,"",.0,"",.0,""
"353200272","OLSZTYN","2012","09","27",6.6,"",2.8,"",15.5,"",15.2,"",87.3,"",988.9,"",1004.9,"",.5,"",.2,""
"353200272","OLSZTYN","2012","09","28",4.9,"",2.9,"",12.0,"",11.9,"",85.8,"",997.7,"",1014.2,"",.3,"",.0,""
"353200272","OLSZTYN","2012","09","29",4.6,"",2.0,"",12.1,"",11.3,"",81.5,"",999.7,"",1016.1,"",.0,"",.0,""
"353200272","OLSZTYN","2012","09","30",4.0,"",3.5,"",11.2,"",10.2,"",77.4,"",1001.2,"",1017.7,"",.0,"",.0,""
"353200272","OLSZTYN","2012","10","01",5.4,"",2.4,"",10.8,"",10.4,"",82.3,"",1004.4,"",1021.0,"",.6,"",1.3,""
"353200272","OLSZTYN","2012","10","02",7.3,"",1.5,"",11.6,"",12.7,"",94.0,"",1000.2,"",1016.7,"",.0,"",.0,""
"353200272","OLSZTYN","2012","10","03",5.9,"",1.0,"",11.4,"",11.6,"",87.8,"",998.5,"",1015.0,"",.0,"",.0,""
"353200272","OLSZTYN","2012","10","04",6.4,"",3.5,"",14.1,"",12.3,"",77.9,"",992.6,"",1008.8,"",.0,"",3.6,""
"353200272","OLSZTYN","2012","10","05",7.1,"",5.1,"",10.6,"",10.9,"",85.1,"",991.8,"",1008.1,"",2.0,"",.6,""
"353200272","OLSZTYN","2012","10","06",6.6,"",4.1,"",11.2,"",11.5,"",86.6,"",989.9,"",1006.2,"",18.7,"",2.4,""
"353200272","OLSZTYN","2012","10","07",5.4,"",3.3,"",8.1,"",9.9,"",91.5,"",993.7,"",1010.2,"",5.3,"",.0,""
"353200272","OLSZTYN","2012","10","08",5.4,"",4.0,"",8.5,"",9.7,"",88.3,"",994.3,"",1010.8,"",.2,"",.0,""
"353200272","OLSZTYN","2012","10","09",6.4,"",4.4,"",7.1,"",8.7,"",86.5,"",986.4,"",1002.9,"",6.6,"",4.7,""
"353200272","OLSZTYN","2012","10","10",6.0,"",3.5,"",6.7,"",8.8,"",89.9,"",990.6,"",1007.2,"",.3,"",3.1,""
"353200272","OLSZTYN","2012","10","11",5.1,"",2.9,"",6.0,"",8.5,"",91.4,"",995.1,"",1011.8,"",.7,"",.3,""
"353200272","OLSZTYN","2012","10","12",4.4,"",1.6,"",6.2,"",8.3,"",87.6,"",999.0,"",1015.7,"",.0,"",.0,""
"353200272","OLSZTYN","2012","10","13",4.8,"",2.8,"",6.2,"",8.6,"",90.8,"",996.0,"",1012.7,"",.0,"",.0,""
"353200272","OLSZTYN","2012","10","14",5.4,"",2.5,"",6.8,"",9.5,"",95.6,"",992.2,"",1008.9,"",.1,"",.0,""
"353200272","OLSZTYN","2012","10","15",7.5,"",2.8,"",10.3,"",11.8,"",94.9,"",989.6,"",1006.0,"",.0,"",.1,""
"353200272","OLSZTYN","2012","10","16",8.0,"",1.6,"",8.9,"",10.9,"",95.5,"",995.5,"",1012.0,"",8.0,"",7.8,""
"353200272","OLSZTYN","2012","10","17",3.5,"",2.4,"",8.6,"",9.9,"",90.3,"",998.6,"",1015.2,"",.0,"",.0,""
"353200272","OLSZTYN","2012","10","18",1.1,"",3.1,"",10.3,"",10.9,"",87.4,"",1003.3,"",1019.9,"",.0,"",.0,""
"353200272","OLSZTYN","2012","10","19",1.3,"",2.8,"",12.4,"",12.0,"",85.4,"",1003.9,"",1020.4,"",.0,"",.0,""
"353200272","OLSZTYN","2012","10","20",.4,"",2.9,"",11.1,"",11.5,"",88.8,"",1004.4,"",1021.0,"",.0,"",.0,""
"353200272","OLSZTYN","2012","10","21",5.3,"",1.1,"",8.5,"",11.0,"",98.9,"",1004.2,"",1020.9,"",.0,"",.3,""
"353200272","OLSZTYN","2012","10","22",7.4,"",2.1,"",11.1,"",11.8,"",90.3,"",1008.8,"",1025.4,"",.0,"",.0,""
"353200272","OLSZTYN","2012","10","23",7.5,"",1.8,"",9.0,"",10.1,"",88.1,"",1011.0,"",1027.8,"",.0,"",.0,""
"353200272","OLSZTYN","2012","10","24",8.0,"",2.4,"",7.5,"",8.5,"",82.6,"",1004.8,"",1021.6,"",.0,"",.0,""
"353200272","OLSZTYN","2012","10","25",7.4,"",4.4,"",7.2,"",9.1,"",89.5,"",988.6,"",1005.1,"",2.6,"",2.5,""
"353200272","OLSZTYN","2012","10","26",3.9,"",4.4,"",2.7,"",5.0,"",68.4,"",989.5,"",1006.3,"",.0,"",.0,""
"353200272","OLSZTYN","2012","10","27",7.8,"",2.4,"",.3,"",4.8,"",77.8,"",987.9,"",1004.8,"",.0,"",.5,""
"353200272","OLSZTYN","2012","10","28",3.5,"",2.9,"",.2,"",5.2,"",85.3,"",992.7,"",1009.7,"",.0,"",.0,""
"353200272","OLSZTYN","2012","10","29",3.9,"",1.1,"",-.8,"",5.3,"",92.9,"",999.3,"",1016.5,"",.0,"",.0,""
"353200272","OLSZTYN","2012","10","30",6.5,"",2.0,"",.3,"",5.2,"",84.0,"",989.0,"",1006.0,"",.0,"",.0,""
"353200272","OLSZTYN","2012","10","31",7.1,"",3.0,"",1.9,"",6.7,"",95.6,"",991.8,"",1008.6,"",.0,"",.0,""
"353200272","OLSZTYN","2012","11","01",7.3,"",5.6,"",4.3,"",6.9,"",83.6,"",987.0,"",1003.7,"",.1,"",2.1,""
"353200272","OLSZTYN","2012","11","02",7.4,"",3.0,"",7.3,"",9.7,"",94.9,"",984.9,"",1001.4,"",.0,"",.0,""
"353200272","OLSZTYN","2012","11","03",5.4,"",2.9,"",4.7,"",7.8,"",92.1,"",988.1,"",1004.8,"",.4,"",1.9,""
"353200272","OLSZTYN","2012","11","04",7.4,"",3.3,"",6.8,"",8.5,"",85.8,"",989.1,"",1005.7,"",.0,"",2.9,""
"353200272","OLSZTYN","2012","11","05",6.4,"",2.9,"",7.1,"",9.5,"",93.8,"",980.0,"",996.4,"",1.6,"",.0,""
"353200272","OLSZTYN","2012","11","06",6.8,"",3.9,"",4.5,"",7.8,"",92.5,"",985.9,"",1002.5,"",6.9,"",1.6,""
"353200272","OLSZTYN","2012","11","07",7.5,"",5.0,"",5.3,"",7.7,"",86.4,"",990.3,"",1006.9,"",.6,"",.2,""
"353200272","OLSZTYN","2012","11","08",7.9,"",4.9,"",7.2,"",9.4,"",92.8,"",994.0,"",1010.6,"",.6,"",5.1,""
"353200272","OLSZTYN","2012","11","09",7.4,"",2.9,"",7.4,"",9.8,"",95.5,"",997.0,"",1013.6,"",.0,"",.0,""
"353200272","OLSZTYN","2012","11","10",6.9,"",4.3,"",7.2,"",8.9,"",87.6,"",999.0,"",1015.7,"",.0,"",.0,""
"353200272","OLSZTYN","2012","11","11",5.9,"",2.8,"",7.0,"",8.3,"",82.9,"",994.7,"",1011.4,"",.0,"",1.0,""
"353200272","OLSZTYN","2012","11","12",5.4,"",2.6,"",6.9,"",9.2,"",92.4,"",1004.0,"",1020.8,"",.0,"",.0,""
"353200272","OLSZTYN","2012","11","13",4.5,"",2.8,"",4.3,"",7.6,"",91.9,"",1014.4,"",1031.6,"",.1,"",.0,""
"353200272","OLSZTYN","2012","11","14",6.9,"",2.3,"",1.5,"",6.5,"",95.3,"",1017.6,"",1035.0,"",.0,"",.0,""
"353200272","OLSZTYN","2012","11","15",8.0,"",2.5,"",1.5,"",6.3,"",92.6,"",1008.8,"",1026.1,"",.0,"",.0,""
"353200272","OLSZTYN","2012","11","16",7.9,"",2.1,"",2.6,"",7.1,"",95.6,"",1007.5,"",1024.6,"",.0,"",.0,""
"353200272","OLSZTYN","2012","11","17",8.0,"",3.4,"",1.5,"",6.6,"",97.5,"",1003.1,"",1020.2,"",.0,"",.0,""
"353200272","OLSZTYN","2012","11","18",8.0,"",3.4,"",2.2,"",7.0,"",97.1,"",998.1,"",1015.1,"",.0,"",.0,""
"353200272","OLSZTYN","2012","11","19",7.9,"",1.5,"",5.0,"",8.4,"",96.9,"",1004.7,"",1021.7,"",.0,"",.0,""
"353200272","OLSZTYN","2012","11","20",6.8,"",2.1,"",4.2,"",8.0,"",97.1,"",1009.1,"",1026.1,"",.0,"",.0,""
"353200272","OLSZTYN","2012","11","21",6.6,"",3.1,"",4.5,"",7.9,"",93.5,"",1008.9,"",1026.0,"",.0,"",.0,""
"353200272","OLSZTYN","2012","11","22",8.0,"",3.5,"",4.2,"",7.6,"",91.5,"",1007.0,"",1024.0,"",.0,"",.0,""
"353200272","OLSZTYN","2012","11","23",8.0,"",1.8,"",5.0,"",8.7,"",99.5,"",1008.0,"",1025.0,"",.0,"",.0,""
"353200272","OLSZTYN","2012","11","24",8.0,"",2.8,"",5.3,"",8.8,"",99.1,"",1004.6,"",1021.5,"",2.0,"",.0,""
"353200272","OLSZTYN","2012","11","25",7.9,"",2.3,"",3.8,"",7.9,"",98.5,"",1001.4,"",1018.3,"",.0,"",.6,""
"353200272","OLSZTYN","2012","11","26",3.4,"",2.4,"",5.2,"",8.3,"",94.3,"",996.1,"",1012.9,"",.0,"",.3,""
"353200272","OLSZTYN","2012","11","27",8.0,"",2.0,"",5.3,"",8.9,"",99.4,"",991.2,"",1007.9,"",.6,"",1.4,""
"353200272","OLSZTYN","2012","11","28",8.0,"",1.6,"",6.6,"",9.7,"",100.0,"",987.9,"",1004.4,"",1.6,"",2.8,""
"353200272","OLSZTYN","2012","11","29",8.0,"",3.0,"",4.5,"",8.4,"",100.0,"",977.3,"",993.8,"",12.7,"",1.2,""
"353200272","OLSZTYN","2012","11","30",7.6,"",3.1,"",2.3,"",7.1,"",98.6,"",980.5,"",997.2,"",2.5,"",.0,""
"353200272","OLSZTYN","2012","12","01",6.1,"",3.5,"",.3,"",5.7,"",90.6,"",993.8,"",1010.8,"",.0,"",.0,""
"353200272","OLSZTYN","2012","12","02",7.5,"",2.8,"",-.3,"",5.3,"",88.1,"",995.9,"",1013.0,"",.0,"",.0,""
"353200272","OLSZTYN","2012","12","03",6.6,"",2.0,"",-1.4,"",5.1,"",92.4,"",992.4,"",1009.5,"",.0,"",.0,""
"353200272","OLSZTYN","2012","12","04",7.0,"",3.1,"",-2.3,"",4.8,"",92.5,"",983.3,"",1000.3,"",.1,"",.0,""
"353200272","OLSZTYN","2012","12","05",7.9,"",3.1,"",.3,"",6.0,"",95.6,"",978.8,"",995.6,"",1.8,"",.7,""
"353200272","OLSZTYN","2012","12","06",5.0,"",2.0,"",-5.0,"",3.9,"",91.0,"",989.9,"",1007.2,"",.0,"",.0,""
"353200272","OLSZTYN","2012","12","07",5.5,"",.8,"",-6.6,"",3.7,"",97.3,"",994.2,"",1011.7,"",.0,"",.0,""
"353200272","OLSZTYN","2012","12","08",7.6,"",2.3,"",-6.1,"",3.7,"",95.6,"",1000.0,"",1017.6,"",.0,"",.0,""
"353200272","OLSZTYN","2012","12","09",8.0,"",4.0,"",-7.8,"",3.2,"",94.5,"",1000.9,"",1018.5,"",.0,"",.0,""
"353200272","OLSZTYN","2012","12","10",7.9,"",3.1,"",-5.4,"",3.7,"",90.8,"",993.8,"",1011.2,"",.0,"",.0,""
"353200272","OLSZTYN","2012","12","11",7.9,"",2.3,"",-4.8,"",3.9,"",90.5,"",995.5,"",1012.8,"",.0,"",.0,""
"353200272","OLSZTYN","2012","12","12",7.6,"",2.9,"",-3.4,"",4.4,"",93.8,"",999.6,"",1017.0,"",.0,"",.1,""
"353200272","OLSZTYN","2012","12","13",4.4,"",2.6,"",-5.6,"",3.8,"",92.9,"",1000.6,"",1018.1,"",.0,"",.0,""
"353200272","OLSZTYN","2012","12","14",3.6,"",4.0,"",-8.4,"",2.9,"",88.3,"",1002.9,"",1020.7,"",.0,"",.0,""
"353200272","OLSZTYN","2012","12","15",7.4,"",6.4,"",-2.5,"",4.6,"",89.9,"",995.0,"",1012.2,"",.9,"",3.7,""
"353200272","OLSZTYN","2012","12","16",8.0,"",3.8,"",-.3,"",5.9,"",99.1,"",992.8,"",1009.9,"",3.1,"",.0,""
"353200272","OLSZTYN","2012","12","17",8.0,"",4.8,"",-3.2,"",4.6,"",94.5,"",996.1,"",1013.4,"",.4,"",1.9,""
"353200272","OLSZTYN","2012","12","18",8.0,"",3.6,"",-5.9,"",3.7,"",92.3,"",999.6,"",1017.1,"",1.0,"",.1,""
"353200272","OLSZTYN","2012","12","19",8.0,"",2.5,"",-5.8,"",3.8,"",96.3,"",1008.3,"",1026.0,"",.0,"",.0,""
"353200272","OLSZTYN","2012","12","20",8.0,"",2.9,"",-7.7,"",3.2,"",92.4,"",1010.8,"",1028.7,"",.0,"",.0,""
"353200272","OLSZTYN","2012","12","21",4.5,"",2.8,"",-11.6,"",2.2,"",87.8,"",1006.6,"",1024.7,"",.0,"",.0,""
"353200272","OLSZTYN","2012","12","22",3.3,"",1.9,"",-13.7,"",2.0,"",89.5,"",1008.6,"",1026.8,"",.0,"",.0,""
"353200272","OLSZTYN","2012","12","23",5.4,"",4.1,"",-13.4,"",2.0,"",89.0,"",1003.6,"",1021.7,"",.0,"",1.9,""
"353200272","OLSZTYN","2012","12","24",8.0,"",3.5,"",-3.7,"",4.9,"",97.6,"",991.2,"",1008.4,"",.0,"",.0,""
"353200272","OLSZTYN","2012","12","25",7.9,"",4.4,"",4.7,"",7.5,"",88.0,"",984.0,"",1000.6,"",.0,"",.0,""
"353200272","OLSZTYN","2012","12","26",6.9,"",3.0,"",4.4,"",7.7,"",91.9,"",988.0,"",1004.7,"",.0,"",.0,""
"353200272","OLSZTYN","2012","12","27",7.4,"",4.1,"",3.9,"",7.4,"",92.4,"",985.2,"",1001.9,"",.8,"",.2,""
"353200272","OLSZTYN","2012","12","28",2.5,"",5.0,"",-.1,"",4.5,"",73.3,"",1001.1,"",1018.3,"",.0,"",.0,""
"353200272","OLSZTYN","2012","12","29",5.5,"",3.3,"",-1.5,"",4.2,"",77.8,"",1007.0,"",1024.4,"",.3,"",.0,""
"353200272","OLSZTYN","2012","12","30",5.9,"",3.5,"",2.1,"",4.5,"",62.6,"",997.5,"",1014.5,"",.0,"",.0,""
"353200272","OLSZTYN","2012","12","31",5.4,"",3.9,"",2.9,"",7.0,"",92.4,"",996.0,"",1012.9,"",5.8,"",.0,""
