"349190625","ZAKOPANE","2013","01","01",2.5,"",.9,"",-2.2,"",4.1,"",80.8,"",913.7,"",760.0,"",.0,"",.0,""
"349190625","ZAKOPANE","2013","01","02",6.6,"",1.3,"",-1.5,"",4.6,"",82.3,"",918.8,"",803.6,"",.3,"",.0,""
"349190625","ZAKOPANE","2013","01","03",6.8,"",3.1,"",.9,"",5.0,"",75.6,"",924.4,"",851.5,"",.5,"",4.1,""
"349190625","ZAKOPANE","2013","01","04",7.9,"",4.0,"",1.4,"",6.0,"",89.0,"",921.0,"",822.1,"",2.2,"",12.7,""
"349190625","ZAKOPANE","2013","01","05",7.8,"",2.3,"",-.8,"",5.2,"",89.5,"",917.4,"",791.6,"",2.1,"",.7,""
"349190625","ZAKOPANE","2013","01","06",7.8,"",1.8,"",-3.8,"",4.0,"",85.1,"",917.7,"",794.3,"",2.4,"",1.8,""
"349190625","ZAKOPANE","2013","01","07",6.9,"",1.5,"",-7.7,"",2.9,"",83.8,"",921.8,"",830.5,"",.0,"",.0,""
"349190625","ZAKOPANE","2013","01","08",4.6,"",.4,"",-10.1,"",2.6,"",87.3,"",921.2,"",825.2,"",.0,"",3.7,""
"349190625","ZAKOPANE","2013","01","09",5.8,"",1.3,"",-2.5,"",4.9,"",94.5,"",917.3,"",790.8,"",.4,"",.0,""
"349190625","ZAKOPANE","2013","01","10",7.5,"",2.6,"",-2.4,"",4.3,"",84.8,"",907.1,"",702.5,"",.2,"",1.0,""
"349190625","ZAKOPANE","2013","01","11",7.6,"",2.0,"",-4.4,"",3.9,"",88.4,"",906.0,"",694.1,"",3.7,"",1.9,""
"349190625","ZAKOPANE","2013","01","12",6.5,"",2.0,"",-8.0,"",2.7,"",81.3,"",912.1,"",748.4,"",.0,"",.2,""
"349190625","ZAKOPANE","2013","01","13",6.4,"",.5,"",-9.4,"",2.6,"",87.4,"",915.5,"",777.5,"",.0,"",.0,""
"349190625","ZAKOPANE","2013","01","14",7.3,"",1.5,"",-4.6,"",4.2,"",90.3,"",913.3,"",756.8,"",.8,"",3.4,""
"349190625","ZAKOPANE","2013","01","15",6.5,"",.8,"",-1.2,"",5.5,"",98.9,"",909.4,"",721.5,"",.0,"",3.6,""
"349190625","ZAKOPANE","2013","01","16",8.0,"",.8,"",-1.6,"",5.4,"",99.3,"",904.0,"",674.6,"",5.9,"",.0,""
"349190625","ZAKOPANE","2013","01","17",7.9,"",1.1,"",-4.8,"",4.3,"",99.6,"",905.2,"",686.8,"",.0,"",.0,""
"349190625","ZAKOPANE","2013","01","18",7.8,"",1.4,"",-8.4,"",3.2,"",96.8,"",905.1,"",688.9,"",.4,"",.3,""
"349190625","ZAKOPANE","2013","01","19",7.8,"",.8,"",-8.2,"",3.1,"",92.6,"",899.1,"",636.9,"",.0,"",.1,""
"349190625","ZAKOPANE","2013","01","20",6.6,"",.4,"",-6.1,"",3.6,"",92.5,"",899.8,"",641.2,"",.0,"",.0,""
"349190625","ZAKOPANE","2013","01","21",7.4,"",.6,"",-.7,"",5.9,"",99.5,"",897.8,"",618.8,"",2.0,"",2.4,""
"349190625","ZAKOPANE","2013","01","22",7.9,"",1.1,"",-4.7,"",4.4,"",98.4,"",900.9,"",649.3,"",.9,"",3.5,""
"349190625","ZAKOPANE","2013","01","23",7.8,"",.8,"",-7.7,"",3.1,"",91.3,"",905.3,"",690.1,"",.3,"",.4,""
"349190625","ZAKOPANE","2013","01","24",5.6,"",.8,"",-6.0,"",3.5,"",90.1,"",908.1,"",713.2,"",.0,"",.3,""
"349190625","ZAKOPANE","2013","01","25",7.8,"",2.1,"",-9.6,"",2.7,"",92.6,"",912.1,"",749.0,"",.3,"",.7,""
"349190625","ZAKOPANE","2013","01","26",5.1,"",.8,"",-10.7,"",2.3,"",85.0,"",912.9,"",756.0,"",.0,"",.0,""
"349190625","ZAKOPANE","2013","01","27",4.8,"",.9,"",-9.7,"",2.7,"",90.6,"",910.2,"",732.6,"",.0,"",.0,""
"349190625","ZAKOPANE","2013","01","28",7.0,"",1.0,"",-5.6,"",3.8,"",92.3,"",911.8,"",744.7,"",1.4,"",.0,""
"349190625","ZAKOPANE","2013","01","29",6.0,"",2.5,"",-1.1,"",4.7,"",82.8,"",913.9,"",760.5,"",.0,"",.1,""
"349190625","ZAKOPANE","2013","01","30",7.6,"",2.4,"",3.7,"",7.2,"",89.9,"",911.0,"",733.2,"",2.0,"",6.7,""
"349190625","ZAKOPANE","2013","01","31",7.1,"",4.5,"",2.3,"",5.0,"",69.9,"",910.1,"",726.6,"",.0,"",2.3,""
"349190625","ZAKOPANE","2013","02","01",6.8,"",3.4,"",.3,"",4.6,"",74.6,"",906.0,"",690.9,"",.0,"",.0,""
"349190625","ZAKOPANE","2013","02","02",7.5,"",1.6,"",1.2,"",5.6,"",83.5,"",894.5,"",587.4,"",2.1,"",7.3,""
"349190625","ZAKOPANE","2013","02","03",6.9,"",1.8,"",-3.8,"",4.4,"",93.5,"",906.6,"",698.3,"",6.7,"",.0,""
"349190625","ZAKOPANE","2013","02","04",6.4,"",1.6,"",-2.9,"",4.0,"",79.9,"",907.7,"",707.9,"",.0,"",.2,""
"349190625","ZAKOPANE","2013","02","05",7.1,"",2.1,"",1.3,"",5.3,"",79.3,"",905.1,"",682.8,"",5.0,"",.4,""
"349190625","ZAKOPANE","2013","02","06",7.1,"",.1,"",-2.5,"",5.0,"",97.6,"",899.9,"",638.7,"",6.5,"",14.6,""
"349190625","ZAKOPANE","2013","02","07",7.6,"",.3,"",-4.0,"",4.4,"",95.8,"",901.9,"",657.9,"",10.2,"",.4,""
"349190625","ZAKOPANE","2013","02","08",7.3,"",.5,"",-5.5,"",3.6,"",87.6,"",908.0,"",712.1,"",.0,"",.0,""
"349190625","ZAKOPANE","2013","02","09",7.9,"",1.5,"",-6.8,"",3.3,"",88.8,"",911.6,"",743.4,"",1.8,"",1.9,""
"349190625","ZAKOPANE","2013","02","10",7.8,"",.9,"",-8.2,"",3.0,"",92.0,"",910.9,"",738.2,"",1.1,"",.2,""
"349190625","ZAKOPANE","2013","02","11",4.1,"",1.0,"",-9.5,"",2.6,"",85.6,"",909.5,"",726.5,"",.0,"",.0,""
"349190625","ZAKOPANE","2013","02","12",7.4,"",1.1,"",-5.6,"",3.5,"",84.8,"",909.7,"",727.0,"",.1,"",1.1,""
"349190625","ZAKOPANE","2013","02","13",8.0,"",1.3,"",-.3,"",5.7,"",95.1,"",915.5,"",774.9,"",.7,"",.0,""
"349190625","ZAKOPANE","2013","02","14",8.0,"",1.4,"",-3.4,"",4.7,"",97.6,"",919.4,"",809.2,"",.3,"",.0,""
"349190625","ZAKOPANE","2013","02","15",6.4,"",.8,"",-1.8,"",5.0,"",92.6,"",916.8,"",786.6,"",.0,"",.0,""
"349190625","ZAKOPANE","2013","02","16",7.8,"",1.1,"",-1.8,"",5.2,"",96.0,"",919.1,"",806.7,"",.0,"",.0,""
"349190625","ZAKOPANE","2013","02","17",7.9,"",1.5,"",-4.4,"",3.9,"",89.1,"",920.3,"",817.1,"",.0,"",.0,""
"349190625","ZAKOPANE","2013","02","18",8.0,"",1.6,"",-5.5,"",3.6,"",87.3,"",917.7,"",795.1,"",.0,"",.0,""
"349190625","ZAKOPANE","2013","02","19",7.3,"",1.4,"",-4.4,"",3.5,"",77.6,"",909.7,"",725.7,"",1.0,"",1.7,""
"349190625","ZAKOPANE","2013","02","20",6.6,"",2.1,"",-5.5,"",3.5,"",85.6,"",910.8,"",735.7,"",1.1,"",.0,""
"349190625","ZAKOPANE","2013","02","21",5.8,"",1.3,"",-8.5,"",2.5,"",76.9,"",914.7,"",770.8,"",.1,"",.0,""
"349190625","ZAKOPANE","2013","02","22",7.8,"",1.4,"",-7.0,"",3.1,"",84.8,"",910.2,"",731.4,"",.7,"",.1,""
"349190625","ZAKOPANE","2013","02","23",7.8,"",1.5,"",-1.0,"",4.9,"",86.9,"",908.3,"",711.6,"",.0,"",1.9,""
"349190625","ZAKOPANE","2013","02","24",7.8,"",1.1,"",2.0,"",6.7,"",95.3,"",912.4,"",747.2,"",.8,"",1.6,""
"349190625","ZAKOPANE","2013","02","25",6.3,"",1.5,"",3.0,"",6.8,"",90.5,"",918.6,"",801.0,"",.0,"",.0,""
"349190625","ZAKOPANE","2013","02","26",7.8,"",1.4,"",-.8,"",5.8,"",99.8,"",922.8,"",838.1,"",.0,"",.0,""
"349190625","ZAKOPANE","2013","02","27",6.5,"",1.9,"",-1.4,"",5.2,"",94.8,"",924.7,"",854.3,"",.0,"",.0,""
"349190625","ZAKOPANE","2013","02","28",1.1,"",.9,"",-1.4,"",4.5,"",82.8,"",923.1,"",840.9,"",.0,"",.0,""
"349190625","ZAKOPANE","2013","03","01",5.5,"",2.4,"",-1.6,"",4.6,"",83.5,"",916.1,"",780.7,"",.0,"",.4,""
"349190625","ZAKOPANE","2013","03","02",5.0,"",1.9,"",-2.7,"",3.5,"",69.9,"",918.1,"",798.3,"",.0,"",.0,""
"349190625","ZAKOPANE","2013","03","03",4.6,"",2.8,"",-2.6,"",3.1,"",60.8,"",915.9,"",778.6,"",.0,"",.0,""
"349190625","ZAKOPANE","2013","03","04",2.1,"",1.3,"",-2.8,"",2.6,"",55.8,"",921.9,"",831.1,"",.0,"",.0,""
"349190625","ZAKOPANE","2013","03","05",.1,"",1.6,"",-.7,"",2.5,"",48.6,"",920.9,"",821.3,"",.0,"",.0,""
"349190625","ZAKOPANE","2013","03","06",4.5,"",2.6,"",6.7,"",4.1,"",42.6,"",911.9,"",740.6,"",.0,"",.0,""
"349190625","ZAKOPANE","2013","03","07",7.8,"",1.0,"",5.0,"",6.9,"",79.3,"",907.0,"",697.5,"",.0,"",.0,""
"349190625","ZAKOPANE","2013","03","08",7.4,"",1.0,"",4.4,"",7.3,"",87.0,"",905.8,"",686.4,"",.0,"",.9,""
"349190625","ZAKOPANE","2013","03","09",7.8,"",.8,"",2.9,"",7.2,"",95.5,"",904.1,"",672.6,"",.0,"",.0,""
"349190625","ZAKOPANE","2013","03","10",7.5,"",.6,"",3.0,"",6.9,"",90.8,"",900.9,"",644.0,"",.0,"",.0,""
"349190625","ZAKOPANE","2013","03","11",7.3,"",2.0,"",1.8,"",6.3,"",91.4,"",900.2,"",638.5,"",.4,"",.0,""
"349190625","ZAKOPANE","2013","03","12",7.6,"",1.3,"",-1.1,"",5.2,"",92.5,"",900.8,"",645.5,"",.0,"",9.0,""
"349190625","ZAKOPANE","2013","03","13",8.0,"",.5,"",-.2,"",6.0,"",98.9,"",899.2,"",630.6,"",1.9,"",1.2,""
"349190625","ZAKOPANE","2013","03","14",8.0,"",1.9,"",-6.5,"",3.6,"",95.6,"",901.0,"",651.5,"",8.5,"",10.3,""
"349190625","ZAKOPANE","2013","03","15",7.8,"",1.4,"",-9.2,"",2.5,"",83.0,"",903.2,"",672.5,"",3.6,"",.3,""
"349190625","ZAKOPANE","2013","03","16",4.6,"",1.3,"",-9.6,"",2.0,"",70.0,"",915.0,"",773.7,"",.0,"",.0,""
"349190625","ZAKOPANE","2013","03","17",1.1,"",1.3,"",-9.8,"",2.1,"",72.8,"",915.3,"",776.0,"",.0,"",.0,""
"349190625","ZAKOPANE","2013","03","18",6.8,"",3.1,"",-2.4,"",3.5,"",69.0,"",904.3,"",677.2,"",.3,"",1.0,""
"349190625","ZAKOPANE","2013","03","19",7.3,"",4.5,"",1.7,"",4.8,"",68.5,"",895.2,"",593.4,"",.5,"",.1,""
"349190625","ZAKOPANE","2013","03","20",4.4,"",2.8,"",2.6,"",3.9,"",55.1,"",906.4,"",693.1,"",.0,"",.0,""
"349190625","ZAKOPANE","2013","03","21",7.8,"",.8,"",-.3,"",5.6,"",93.0,"",909.4,"",721.0,"",14.2,"",17.4,""
"349190625","ZAKOPANE","2013","03","22",8.0,"",1.4,"",-5.4,"",3.8,"",92.4,"",912.4,"",749.7,"",2.9,"",1.7,""
"349190625","ZAKOPANE","2013","03","23",6.1,"",1.5,"",-9.8,"",2.4,"",80.8,"",916.6,"",786.9,"",.0,"",.0,""
"349190625","ZAKOPANE","2013","03","24",2.0,"",1.0,"",-12.8,"",1.8,"",75.6,"",918.6,"",804.7,"",.0,"",.0,""
"349190625","ZAKOPANE","2013","03","25",7.5,"",2.1,"",-9.4,"",2.2,"",75.5,"",914.0,"",764.5,"",.0,"",.7,""
"349190625","ZAKOPANE","2013","03","26",8.0,"",2.8,"",-9.1,"",2.6,"",83.9,"",907.8,"",712.2,"",1.3,"",1.8,""
"349190625","ZAKOPANE","2013","03","27",7.8,"",2.0,"",-7.2,"",3.2,"",88.3,"",909.5,"",725.6,"",1.2,"",.1,""
"349190625","ZAKOPANE","2013","03","28",5.3,"",1.0,"",-3.9,"",3.7,"",80.9,"",912.5,"",750.1,"",.0,"",.1,""
"349190625","ZAKOPANE","2013","03","29",7.3,"",2.0,"",-.9,"",5.0,"",86.9,"",907.2,"",702.4,"",1.4,"",.0,""
"349190625","ZAKOPANE","2013","03","30",6.9,"",.8,"",.1,"",5.1,"",82.8,"",905.6,"",687.7,"",.0,"",1.6,""
"349190625","ZAKOPANE","2013","03","31",8.0,"",1.4,"",-1.5,"",5.4,"",97.4,"",900.9,"",647.0,"",11.1,"",1.9,""
"349190625","ZAKOPANE","2013","04","01",7.4,"",2.1,"",-4.1,"",3.9,"",85.9,"",906.3,"",696.1,"",.1,"",.0,""
"349190625","ZAKOPANE","2013","04","02",5.6,"",1.9,"",-4.1,"",3.7,"",81.6,"",910.8,"",735.4,"",.0,"",2.8,""
"349190625","ZAKOPANE","2013","04","03",7.9,"",1.5,"",-2.6,"",4.8,"",94.5,"",908.5,"",714.3,"",.9,"",2.9,""
"349190625","ZAKOPANE","2013","04","04",8.0,"",.8,"",-.9,"",5.2,"",90.9,"",908.6,"",714.8,"",.0,"",.0,""
"349190625","ZAKOPANE","2013","04","05",8.0,"",1.1,"",.5,"",6.1,"",96.6,"",907.1,"",700.9,"",.0,"",1.8,""
"349190625","ZAKOPANE","2013","04","06",8.0,"",1.6,"",-1.4,"",5.4,"",96.4,"",911.7,"",742.0,"",.5,"",.5,""
"349190625","ZAKOPANE","2013","04","07",7.9,"",1.3,"",-2.2,"",4.4,"",85.5,"",915.9,"",778.4,"",.0,"",.0,""
"349190625","ZAKOPANE","2013","04","08",5.0,"",1.3,"",-1.2,"",3.9,"",71.4,"",911.4,"",739.3,"",.0,"",.0,""
"349190625","ZAKOPANE","2013","04","09",6.8,"",.8,"",1.1,"",5.4,"",82.6,"",908.6,"",713.4,"",.0,"",.0,""
"349190625","ZAKOPANE","2013","04","10",6.0,"",1.1,"",2.5,"",6.1,"",84.5,"",910.0,"",725.3,"",1.6,"",.0,""
"349190625","ZAKOPANE","2013","04","11",4.0,"",1.5,"",5.8,"",5.9,"",67.9,"",912.0,"",741.3,"",.0,"",.0,""
"349190625","ZAKOPANE","2013","04","12",6.8,"",3.4,"",8.5,"",7.4,"",67.4,"",908.7,"",710.4,"",2.0,"",8.3,""
"349190625","ZAKOPANE","2013","04","13",6.8,"",2.5,"",5.5,"",7.1,"",78.9,"",917.5,"",790.9,"",.2,"",.0,""
"349190625","ZAKOPANE","2013","04","14",4.9,"",1.8,"",4.8,"",5.6,"",67.6,"",926.8,"",872.6,"",.0,"",.0,""
"349190625","ZAKOPANE","2013","04","15",.8,"",1.5,"",5.1,"",5.3,"",65.4,"",926.8,"",872.6,"",.0,"",.0,""
"349190625","ZAKOPANE","2013","04","16",.5,"",1.5,"",7.2,"",4.8,"",53.6,"",925.3,"",859.8,"",.0,"",.0,""
"349190625","ZAKOPANE","2013","04","17",3.1,"",1.4,"",7.7,"",5.9,"",59.4,"",925.1,"",858.4,"",.0,"",.0,""
"349190625","ZAKOPANE","2013","04","18",2.3,"",1.5,"",10.6,"",6.9,"",60.0,"",922.4,"",833.6,"",.0,"",.0,""
"349190625","ZAKOPANE","2013","04","19",5.9,"",1.4,"",11.9,"",8.2,"",61.5,"",920.6,"",817.5,"",.0,"",.0,""
"349190625","ZAKOPANE","2013","04","20",7.6,"",1.8,"",8.6,"",9.2,"",83.0,"",923.6,"",844.6,"",.0,"",.0,""
"349190625","ZAKOPANE","2013","04","21",2.8,"",1.8,"",8.2,"",7.0,"",67.9,"",921.6,"",827.2,"",.0,"",.0,""
"349190625","ZAKOPANE","2013","04","22",1.4,"",1.9,"",10.3,"",6.5,"",56.9,"",917.7,"",791.1,"",.0,"",.0,""
"349190625","ZAKOPANE","2013","04","23",3.8,"",1.9,"",12.0,"",7.9,"",59.5,"",921.1,"",822.3,"",.0,"",.0,""
"349190625","ZAKOPANE","2013","04","24",6.5,"",2.0,"",13.0,"",8.2,"",57.5,"",926.3,"",868.7,"",.0,"",.0,""
"349190625","ZAKOPANE","2013","04","25",3.5,"",2.1,"",13.1,"",8.4,"",58.1,"",925.6,"",862.5,"",.0,"",.0,""
"349190625","ZAKOPANE","2013","04","26",1.3,"",2.5,"",15.4,"",8.0,"",50.6,"",917.3,"",785.7,"",.0,"",.0,""
"349190625","ZAKOPANE","2013","04","27",4.6,"",4.0,"",19.0,"",8.4,"",38.8,"",908.6,"",703.7,"",.0,"",.0,""
"349190625","ZAKOPANE","2013","04","28",7.3,"",1.8,"",13.2,"",10.2,"",68.8,"",913.4,"",751.2,"",.1,"",.0,""
"349190625","ZAKOPANE","2013","04","29",6.9,"",2.8,"",14.8,"",10.2,"",64.4,"",919.1,"",803.2,"",.0,"",.0,""
"349190625","ZAKOPANE","2013","04","30",5.4,"",2.1,"",16.1,"",11.3,"",67.3,"",921.1,"",820.9,"",.0,"",.0,""
"349190625","ZAKOPANE","2013","05","01",5.3,"",1.6,"",11.4,"",11.6,"",86.5,"",922.7,"",836.8,"",.0,"",.0,""
"349190625","ZAKOPANE","2013","05","02",5.8,"",1.4,"",12.2,"",12.8,"",89.4,"",920.5,"",816.4,"",10.2,"",20.1,""
"349190625","ZAKOPANE","2013","05","03",7.4,"",1.5,"",12.6,"",13.4,"",92.1,"",914.5,"",761.4,"",9.2,"",4.9,""
"349190625","ZAKOPANE","2013","05","04",7.9,"",1.0,"",10.0,"",11.4,"",93.1,"",917.9,"",793.4,"",.6,"",.0,""
"349190625","ZAKOPANE","2013","05","05",4.5,"",1.5,"",11.0,"",10.8,"",83.5,"",923.6,"",844.7,"",2.0,"",.1,""
"349190625","ZAKOPANE","2013","05","06",5.5,"",1.4,"",13.0,"",10.7,"",74.0,"",923.5,"",843.4,"",.1,"",.4,""
"349190625","ZAKOPANE","2013","05","07",5.9,"",1.6,"",15.0,"",13.4,"",79.5,"",920.9,"",819.8,"",6.2,"",.0,""
"349190625","ZAKOPANE","2013","05","08",3.6,"",1.4,"",15.6,"",11.7,"",71.5,"",920.1,"",811.9,"",.0,"",.0,""
"349190625","ZAKOPANE","2013","05","09",5.0,"",1.3,"",15.2,"",11.3,"",68.6,"",920.1,"",812.0,"",.0,"",.0,""
"349190625","ZAKOPANE","2013","05","10",2.8,"",2.1,"",15.8,"",9.2,"",56.1,"",916.7,"",780.4,"",.0,"",.0,""
"349190625","ZAKOPANE","2013","05","11",5.8,"",1.4,"",14.3,"",12.1,"",76.9,"",913.8,"",754.9,"",.0,"",.0,""
"349190625","ZAKOPANE","2013","05","12",7.9,"",1.3,"",9.5,"",11.3,"",95.4,"",912.4,"",743.6,"",14.9,"",9.1,""
"349190625","ZAKOPANE","2013","05","13",8.0,"",.8,"",6.5,"",9.2,"",94.5,"",915.5,"",772.3,"",8.8,"",1.8,""
"349190625","ZAKOPANE","2013","05","14",6.6,"",.8,"",7.8,"",8.7,"",83.1,"",915.6,"",773.0,"",.0,"",.0,""
"349190625","ZAKOPANE","2013","05","15",2.8,"",1.3,"",11.0,"",9.3,"",73.3,"",913.1,"",749.6,"",.0,"",.0,""
"349190625","ZAKOPANE","2013","05","16",2.9,"",1.8,"",14.3,"",9.3,"",61.5,"",911.1,"",729.5,"",.0,"",.0,""
"349190625","ZAKOPANE","2013","05","17",6.0,"",.9,"",14.0,"",11.1,"",69.8,"",909.8,"",717.7,"",.0,"",.3,""
"349190625","ZAKOPANE","2013","05","18",4.4,"",2.4,"",15.1,"",9.8,"",58.1,"",913.1,"",748.2,"",.0,"",.0,""
"349190625","ZAKOPANE","2013","05","19",1.6,"",2.4,"",16.3,"",9.3,"",54.1,"",914.5,"",760.7,"",.0,"",.0,""
"349190625","ZAKOPANE","2013","05","20",5.8,"",2.5,"",15.1,"",8.7,"",53.0,"",913.9,"",755.3,"",.0,"",.0,""
"349190625","ZAKOPANE","2013","05","21",5.4,"",1.1,"",9.5,"",8.5,"",73.4,"",914.5,"",762.7,"",1.3,"",.0,""
"349190625","ZAKOPANE","2013","05","22",4.8,"",1.5,"",8.5,"",8.5,"",77.9,"",909.0,"",713.3,"",.8,"",1.1,""
"349190625","ZAKOPANE","2013","05","23",7.8,"",1.1,"",4.9,"",7.8,"",90.4,"",908.2,"",708.4,"",.4,"",.3,""
"349190625","ZAKOPANE","2013","05","24",8.0,"",.9,"",5.8,"",8.7,"",94.0,"",907.9,"",704.4,"",1.4,"",3.1,""
"349190625","ZAKOPANE","2013","05","25",7.5,"",1.1,"",6.5,"",8.8,"",91.1,"",908.9,"",713.1,"",4.9,"",.0,""
"349190625","ZAKOPANE","2013","05","26",6.8,"",.9,"",6.4,"",8.5,"",88.9,"",908.9,"",713.3,"",5.1,"",.9,""
"349190625","ZAKOPANE","2013","05","27",6.9,"",1.8,"",6.4,"",7.7,"",80.6,"",908.2,"",707.0,"",.0,"",.2,""
"349190625","ZAKOPANE","2013","05","28",6.4,"",2.4,"",9.8,"",8.0,"",68.1,"",907.8,"",701.8,"",.0,"",2.3,""
"349190625","ZAKOPANE","2013","05","29",5.3,"",2.8,"",13.4,"",8.9,"",59.5,"",907.3,"",694.9,"",.0,"",9.0,""
"349190625","ZAKOPANE","2013","05","30",6.9,"",.9,"",11.5,"",12.2,"",89.8,"",904.0,"",665.8,"",10.6,"",2.9,""
"349190625","ZAKOPANE","2013","05","31",5.9,"",1.4,"",10.8,"",9.1,"",72.4,"",903.7,"",663.5,"",.1,"",3.5,""
"349190625","ZAKOPANE","2013","06","01",7.6,"",1.5,"",9.9,"",9.9,"",81.3,"",906.7,"",691.5,"",.2,"",.0,""
"349190625","ZAKOPANE","2013","06","02",6.5,"",1.0,"",9.5,"",10.5,"",88.6,"",911.1,"",732.2,"",3.5,"",6.2,""
"349190625","ZAKOPANE","2013","06","03",7.9,"",1.5,"",10.4,"",11.9,"",94.8,"",914.1,"",759.1,"",6.9,"",19.8,""
"349190625","ZAKOPANE","2013","06","04",7.9,"",.9,"",10.6,"",12.2,"",95.6,"",914.7,"",764.2,"",12.4,"",14.9,""
"349190625","ZAKOPANE","2013","06","05",8.0,"",1.1,"",10.6,"",12.3,"",96.1,"",918.1,"",794.9,"",3.5,"",.7,""
"349190625","ZAKOPANE","2013","06","06",7.8,"",.6,"",11.9,"",13.1,"",94.0,"",921.5,"",825.6,"",.7,"",.0,""
"349190625","ZAKOPANE","2013","06","07",6.1,"",.9,"",13.9,"",13.4,"",85.5,"",921.2,"",823.0,"",7.9,"",.0,""
"349190625","ZAKOPANE","2013","06","08",5.1,"",1.3,"",14.2,"",13.1,"",82.4,"",918.9,"",801.1,"",.4,"",.0,""
"349190625","ZAKOPANE","2013","06","09",4.6,"",1.1,"",16.2,"",12.7,"",71.1,"",914.6,"",761.5,"",.0,"",.0,""
"349190625","ZAKOPANE","2013","06","10",6.5,"",2.5,"",17.9,"",11.0,"",55.9,"",910.7,"",724.2,"",.0,"",5.8,""
"349190625","ZAKOPANE","2013","06","11",7.4,"",1.3,"",11.9,"",12.8,"",92.0,"",913.8,"",755.2,"",6.8,"",15.9,""
"349190625","ZAKOPANE","2013","06","12",7.0,"",.5,"",9.9,"",11.3,"",92.9,"",921.2,"",822.9,"",2.2,"",.0,""
"349190625","ZAKOPANE","2013","06","13",4.4,"",1.4,"",13.9,"",11.5,"",74.6,"",922.3,"",832.4,"",.0,"",.0,""
"349190625","ZAKOPANE","2013","06","14",5.3,"",1.3,"",15.9,"",12.8,"",73.5,"",920.5,"",816.2,"",.0,"",.2,""
"349190625","ZAKOPANE","2013","06","15",6.5,"",1.5,"",17.9,"",14.5,"",73.4,"",919.5,"",806.1,"",.0,"",.0,""
"349190625","ZAKOPANE","2013","06","16",4.6,"",1.9,"",18.3,"",12.3,"",61.6,"",920.8,"",818.2,"",.0,"",.0,""
"349190625","ZAKOPANE","2013","06","17",2.5,"",1.8,"",19.4,"",15.3,"",69.8,"",922.0,"",829.3,"",.0,"",.0,""
"349190625","ZAKOPANE","2013","06","18",2.6,"",1.5,"",22.2,"",15.1,"",60.3,"",921.7,"",826.3,"",.0,"",.0,""
"349190625","ZAKOPANE","2013","06","19",4.5,"",1.1,"",22.3,"",18.6,"",70.1,"",922.4,"",833.3,"",.0,"",.0,""
"349190625","ZAKOPANE","2013","06","20",2.9,"",.9,"",21.8,"",19.1,"",75.4,"",920.7,"",817.0,"",5.6,"",.0,""
"349190625","ZAKOPANE","2013","06","21",3.3,"",1.8,"",24.2,"",16.4,"",57.8,"",918.4,"",794.6,"",.0,"",.0,""
"349190625","ZAKOPANE","2013","06","22",4.8,"",1.3,"",19.8,"",19.5,"",84.8,"",918.8,"",799.5,"",11.7,"",.1,""
"349190625","ZAKOPANE","2013","06","23",6.6,"",.5,"",16.9,"",17.4,"",90.9,"",916.7,"",780.3,"",2.1,"",.5,""
"349190625","ZAKOPANE","2013","06","24",7.0,"",.9,"",15.9,"",16.4,"",91.0,"",915.4,"",769.1,"",2.3,"",18.8,""
"349190625","ZAKOPANE","2013","06","25",6.4,"",2.0,"",15.1,"",14.5,"",85.8,"",913.5,"",751.7,"",1.8,"",11.1,""
"349190625","ZAKOPANE","2013","06","26",7.9,"",1.6,"",9.3,"",10.6,"",90.9,"",921.0,"",821.7,"",4.8,"",12.0,""
"349190625","ZAKOPANE","2013","06","27",7.9,"",.8,"",8.0,"",10.0,"",93.3,"",924.2,"",849.9,"",.7,"",3.5,""
"349190625","ZAKOPANE","2013","06","28",7.5,"",.5,"",10.6,"",11.8,"",92.4,"",920.7,"",818.3,"",3.1,"",.0,""
"349190625","ZAKOPANE","2013","06","29",7.0,"",.6,"",11.6,"",11.8,"",87.3,"",919.1,"",803.9,"",3.0,"",.0,""
"349190625","ZAKOPANE","2013","06","30",7.0,"",1.4,"",10.9,"",10.9,"",84.9,"",920.0,"",812.1,"",1.4,"",.4,""
"349190625","ZAKOPANE","2013","07","01",4.8,"",1.6,"",10.9,"",9.1,"",72.0,"",921.5,"",825.4,"",.0,"",.0,""
"349190625","ZAKOPANE","2013","07","02",2.3,"",1.4,"",15.0,"",10.9,"",66.8,"",921.5,"",825.2,"",.0,"",.0,""
"349190625","ZAKOPANE","2013","07","03",3.4,"",1.4,"",16.2,"",13.2,"",73.5,"",920.1,"",812.6,"",9.7,"",.0,""
"349190625","ZAKOPANE","2013","07","04",1.9,"",1.0,"",17.8,"",13.3,"",68.5,"",922.2,"",831.1,"",.0,"",.0,""
"349190625","ZAKOPANE","2013","07","05",4.4,"",1.0,"",15.9,"",14.7,"",81.9,"",925.9,"",865.1,"",6.3,"",.0,""
"349190625","ZAKOPANE","2013","07","06",7.3,"",.6,"",16.0,"",16.5,"",91.0,"",928.9,"",893.1,"",23.8,"",.0,""
"349190625","ZAKOPANE","2013","07","07",7.1,"",.9,"",16.9,"",15.1,"",79.5,"",929.8,"",901.5,"",.0,"",.0,""
"349190625","ZAKOPANE","2013","07","08",2.4,"",1.3,"",15.6,"",12.5,"",72.8,"",929.5,"",898.4,"",.0,"",.0,""
"349190625","ZAKOPANE","2013","07","09",.8,"",1.3,"",16.6,"",12.7,"",70.0,"",925.7,"",863.0,"",.0,"",.0,""
"349190625","ZAKOPANE","2013","07","10",4.3,"",.8,"",17.3,"",13.8,"",71.9,"",918.6,"",797.7,"",.0,"",.0,""
"349190625","ZAKOPANE","2013","07","11",7.4,"",.9,"",12.4,"",12.7,"",88.1,"",916.7,"",781.7,"",23.4,"",1.1,""
"349190625","ZAKOPANE","2013","07","12",7.1,"",1.3,"",11.6,"",12.0,"",88.1,"",918.5,"",798.5,"",5.2,"",3.7,""
"349190625","ZAKOPANE","2013","07","13",7.9,"",1.3,"",10.5,"",11.6,"",91.6,"",920.0,"",812.5,"",5.7,"",3.3,""
"349190625","ZAKOPANE","2013","07","14",6.4,"",2.0,"",13.8,"",12.1,"",78.5,"",920.4,"",815.2,"",.0,"",.4,""
"349190625","ZAKOPANE","2013","07","15",7.9,"",.6,"",11.0,"",11.9,"",90.9,"",920.8,"",819.0,"",6.2,"",2.3,""
"349190625","ZAKOPANE","2013","07","16",5.8,"",1.0,"",13.4,"",12.1,"",80.8,"",925.0,"",857.0,"",.0,"",.0,""
"349190625","ZAKOPANE","2013","07","17",5.3,"",.9,"",16.2,"",12.9,"",72.1,"",925.4,"",860.8,"",.0,"",.0,""
"349190625","ZAKOPANE","2013","07","18",3.3,"",1.1,"",16.9,"",13.4,"",72.0,"",925.0,"",857.2,"",.0,"",.0,""
"349190625","ZAKOPANE","2013","07","19",3.3,"",1.6,"",17.8,"",14.1,"",71.5,"",922.0,"",829.2,"",.0,"",.0,""
"349190625","ZAKOPANE","2013","07","20",5.9,"",1.4,"",15.2,"",13.2,"",76.9,"",921.2,"",822.4,"",.6,"",.0,""
"349190625","ZAKOPANE","2013","07","21",1.8,"",1.5,"",13.5,"",10.4,"",69.4,"",923.8,"",846.5,"",.0,"",.0,""
"349190625","ZAKOPANE","2013","07","22",2.0,"",2.0,"",16.3,"",12.2,"",67.9,"",921.6,"",825.7,"",.0,"",.0,""
"349190625","ZAKOPANE","2013","07","23",4.0,"",1.8,"",16.1,"",12.3,"",69.0,"",918.2,"",794.4,"",.0,"",.0,""
"349190625","ZAKOPANE","2013","07","24",.3,"",1.6,"",15.5,"",9.5,"",57.6,"",918.9,"",801.7,"",.0,"",.0,""
"349190625","ZAKOPANE","2013","07","25",5.1,"",1.4,"",16.0,"",13.0,"",72.1,"",920.1,"",811.9,"",.0,"",.0,""
"349190625","ZAKOPANE","2013","07","26",1.3,"",1.1,"",17.5,"",12.0,"",62.6,"",920.7,"",817.3,"",.0,"",.0,""
"349190625","ZAKOPANE","2013","07","27",3.4,"",.8,"",19.3,"",15.2,"",69.6,"",919.5,"",805.8,"",.0,"",.0,""
"349190625","ZAKOPANE","2013","07","28",2.8,"",1.1,"",22.2,"",18.1,"",70.1,"",920.0,"",810.0,"",.9,"",.0,""
"349190625","ZAKOPANE","2013","07","29",.9,"",2.0,"",24.7,"",15.5,"",52.8,"",918.2,"",792.3,"",.0,"",.0,""
"349190625","ZAKOPANE","2013","07","30",6.1,"",1.5,"",16.9,"",14.9,"",78.4,"",918.7,"",798.8,"",1.4,"",.0,""
"349190625","ZAKOPANE","2013","07","31",5.8,"",1.3,"",17.1,"",13.2,"",70.0,"",921.4,"",823.8,"",.0,"",.0,""
"349190625","ZAKOPANE","2013","08","01",5.4,"",1.1,"",18.4,"",13.8,"",66.9,"",923.0,"",838.6,"",.0,"",.0,""
"349190625","ZAKOPANE","2013","08","02",1.5,"",1.3,"",19.3,"",13.9,"",65.6,"",922.6,"",835.0,"",.0,"",.0,""
"349190625","ZAKOPANE","2013","08","03",1.9,"",1.1,"",20.9,"",13.8,"",58.8,"",921.9,"",828.7,"",.0,"",.0,""
"349190625","ZAKOPANE","2013","08","04",3.1,"",1.1,"",20.9,"",13.9,"",59.6,"",924.1,"",848.7,"",.0,"",.4,""
"349190625","ZAKOPANE","2013","08","05",3.5,"",1.3,"",20.6,"",15.2,"",65.5,"",923.8,"",845.6,"",.0,"",.0,""
"349190625","ZAKOPANE","2013","08","06",.8,"",1.0,"",22.0,"",14.2,"",59.3,"",921.9,"",827.7,"",.0,"",.0,""
"349190625","ZAKOPANE","2013","08","07",2.1,"",1.1,"",23.7,"",16.0,"",57.8,"",920.3,"",812.9,"",.0,"",.0,""
"349190625","ZAKOPANE","2013","08","08",2.4,"",1.1,"",25.2,"",13.8,"",46.8,"",920.9,"",818.0,"",.0,"",.0,""
"349190625","ZAKOPANE","2013","08","09",3.9,"",.8,"",20.0,"",17.7,"",76.6,"",920.4,"",814.5,"",18.0,"",9.1,""
"349190625","ZAKOPANE","2013","08","10",7.8,"",.9,"",14.7,"",16.0,"",95.6,"",919.7,"",808.8,"",2.6,"",.3,""
"349190625","ZAKOPANE","2013","08","11",2.6,"",1.4,"",15.2,"",11.1,"",68.0,"",920.2,"",813.7,"",.0,"",.0,""
"349190625","ZAKOPANE","2013","08","12",4.8,"",.8,"",15.6,"",11.8,"",69.0,"",920.6,"",816.8,"",.0,"",.1,""
"349190625","ZAKOPANE","2013","08","13",6.9,"",1.5,"",17.0,"",12.6,"",66.3,"",918.7,"",799.5,"",.0,"",.0,""
"349190625","ZAKOPANE","2013","08","14",7.0,"",1.1,"",13.7,"",10.5,"",68.1,"",922.6,"",835.2,"",.0,"",.0,""
"349190625","ZAKOPANE","2013","08","15",4.1,"",1.0,"",12.4,"",9.0,"",65.4,"",925.8,"",864.5,"",.0,"",.0,""
"349190625","ZAKOPANE","2013","08","16",2.6,"",1.0,"",13.8,"",9.1,"",61.8,"",924.9,"",856.5,"",.0,"",.0,""
"349190625","ZAKOPANE","2013","08","17",1.6,"",1.3,"",16.2,"",10.6,"",61.9,"",922.2,"",831.2,"",.0,"",.0,""
"349190625","ZAKOPANE","2013","08","18",2.6,"",1.8,"",18.8,"",11.0,"",55.0,"",921.5,"",824.5,"",.0,"",.0,""
"349190625","ZAKOPANE","2013","08","19",3.9,"",1.3,"",19.5,"",12.3,"",57.4,"",920.4,"",814.3,"",.0,"",.0,""
"349190625","ZAKOPANE","2013","08","20",7.8,"",1.3,"",15.5,"",15.1,"",86.1,"",923.7,"",845.5,"",7.1,"",10.6,""
"349190625","ZAKOPANE","2013","08","21",7.8,"",.4,"",11.5,"",13.0,"",95.9,"",926.4,"",869.9,"",15.2,"",.0,""
"349190625","ZAKOPANE","2013","08","22",7.1,"",.8,"",12.2,"",11.6,"",83.1,"",923.7,"",845.6,"",.0,"",.0,""
"349190625","ZAKOPANE","2013","08","23",6.6,"",.9,"",13.1,"",11.5,"",77.6,"",921.9,"",829.5,"",.0,"",.0,""
"349190625","ZAKOPANE","2013","08","24",6.6,"",1.0,"",13.1,"",11.4,"",76.9,"",919.6,"",808.1,"",.0,"",.0,""
"349190625","ZAKOPANE","2013","08","25",3.8,"",1.3,"",12.8,"",10.9,"",75.6,"",917.0,"",784.5,"",.0,"",.2,""
"349190625","ZAKOPANE","2013","08","26",7.9,"",1.4,"",11.2,"",11.7,"",87.8,"",917.7,"",791.0,"",.0,"",.0,""
"349190625","ZAKOPANE","2013","08","27",7.4,"",1.0,"",10.5,"",11.4,"",90.3,"",918.0,"",793.9,"",.0,"",.0,""
"349190625","ZAKOPANE","2013","08","28",7.5,"",.4,"",12.1,"",12.5,"",89.1,"",917.1,"",785.7,"",.7,"",1.9,""
"349190625","ZAKOPANE","2013","08","29",6.9,"",.5,"",12.0,"",12.4,"",89.1,"",921.3,"",823.6,"",2.1,"",.0,""
"349190625","ZAKOPANE","2013","08","30",6.1,"",1.3,"",12.1,"",10.8,"",78.3,"",922.6,"",835.5,"",.1,"",.0,""
"349190625","ZAKOPANE","2013","08","31",4.5,"",1.8,"",12.4,"",10.4,"",74.1,"",921.7,"",827.6,"",.0,"",.2,""
"349190625","ZAKOPANE","2013","09","01",7.5,"",1.3,"",10.8,"",11.6,"",89.4,"",921.8,"",828.6,"",7.7,"",.0,""
"349190625","ZAKOPANE","2013","09","02",6.8,"",2.8,"",10.0,"",8.7,"",71.6,"",921.2,"",823.3,"",.0,"",3.0,""
"349190625","ZAKOPANE","2013","09","03",6.1,"",2.1,"",11.2,"",10.1,"",77.4,"",921.8,"",828.7,"",.9,"",.0,""
"349190625","ZAKOPANE","2013","09","04",3.4,"",1.5,"",11.0,"",9.2,"",73.9,"",926.7,"",872.5,"",.0,"",.0,""
"349190625","ZAKOPANE","2013","09","05",5.0,"",1.1,"",11.5,"",9.9,"",76.0,"",923.4,"",842.9,"",.0,"",.0,""
"349190625","ZAKOPANE","2013","09","06",.6,"",1.1,"",10.4,"",9.1,"",76.6,"",921.2,"",823.1,"",.0,"",.0,""
"349190625","ZAKOPANE","2013","09","07",.4,"",1.4,"",11.5,"",9.1,"",72.5,"",923.5,"",844.1,"",.0,"",.0,""
"349190625","ZAKOPANE","2013","09","08",2.0,"",1.3,"",12.6,"",9.4,"",67.8,"",925.0,"",856.9,"",.0,"",.0,""
"349190625","ZAKOPANE","2013","09","09",5.8,"",1.5,"",11.8,"",10.6,"",79.5,"",920.2,"",813.6,"",1.1,"",.0,""
"349190625","ZAKOPANE","2013","09","10",3.4,"",1.5,"",12.6,"",10.7,"",76.0,"",919.5,"",806.9,"",.0,"",.0,""
"349190625","ZAKOPANE","2013","09","11",7.6,"",1.0,"",10.6,"",11.1,"",89.0,"",916.4,"",780.0,"",6.0,"",2.5,""
"349190625","ZAKOPANE","2013","09","12",6.8,"",1.3,"",10.2,"",10.0,"",82.1,"",916.2,"",777.8,"",.1,"",.0,""
"349190625","ZAKOPANE","2013","09","13",6.9,"",.8,"",8.7,"",10.6,"",94.0,"",916.9,"",784.8,"",8.2,"",.0,""
"349190625","ZAKOPANE","2013","09","14",6.5,"",.9,"",9.2,"",10.0,"",87.0,"",914.1,"",758.9,"",.0,"",.1,""
"349190625","ZAKOPANE","2013","09","15",6.9,"",1.0,"",13.0,"",11.9,"",81.8,"",913.8,"",755.0,"",.3,"",.0,""
"349190625","ZAKOPANE","2013","09","16",7.3,"",.4,"",12.4,"",13.1,"",92.0,"",908.7,"",708.3,"",.6,"",19.4,""
"349190625","ZAKOPANE","2013","09","17",8.0,"",1.4,"",7.3,"",10.3,"",98.8,"",903.5,"",663.4,"",27.2,"",4.8,""
"349190625","ZAKOPANE","2013","09","18",6.4,"",1.3,"",7.3,"",7.9,"",79.6,"",904.0,"",668.7,"",.0,"",5.7,""
"349190625","ZAKOPANE","2013","09","19",7.3,"",1.9,"",6.5,"",9.1,"",93.6,"",908.7,"",711.9,"",3.2,"",.3,""
"349190625","ZAKOPANE","2013","09","20",7.3,"",1.9,"",8.0,"",8.6,"",81.1,"",915.9,"",776.1,"",.0,"",10.1,""
"349190625","ZAKOPANE","2013","09","21",7.3,"",.9,"",7.8,"",9.9,"",93.9,"",921.9,"",829.7,"",3.2,"",.0,""
"349190625","ZAKOPANE","2013","09","22",7.0,"",1.3,"",8.2,"",9.2,"",85.9,"",925.6,"",862.5,"",.0,"",.1,""
"349190625","ZAKOPANE","2013","09","23",7.9,"",2.4,"",10.0,"",11.7,"",95.0,"",917.9,"",793.0,"",4.5,"",12.7,""
"349190625","ZAKOPANE","2013","09","24",7.9,"",1.9,"",8.2,"",10.6,"",97.1,"",914.7,"",765.3,"",.6,"",12.4,""
"349190625","ZAKOPANE","2013","09","25",6.6,"",.6,"",7.1,"",8.4,"",84.6,"",916.0,"",776.8,"",.0,"",.0,""
"349190625","ZAKOPANE","2013","09","26",7.0,"",2.0,"",8.7,"",10.2,"",91.1,"",912.6,"",746.0,"",2.7,"",.4,""
"349190625","ZAKOPANE","2013","09","27",6.8,"",1.0,"",5.3,"",6.8,"",78.0,"",918.1,"",796.6,"",.0,"",.0,""
"349190625","ZAKOPANE","2013","09","28",5.6,"",1.3,"",5.9,"",6.9,"",76.4,"",917.3,"",788.7,"",.0,"",.0,""
"349190625","ZAKOPANE","2013","09","29",2.3,"",1.0,"",4.5,"",6.7,"",82.5,"",917.9,"",794.3,"",.0,"",.0,""
"349190625","ZAKOPANE","2013","09","30",4.0,"",1.1,"",2.7,"",6.4,"",86.4,"",915.2,"",770.8,"",.0,"",.0,""
"349190625","ZAKOPANE","2013","10","01",6.0,"",1.6,"",2.5,"",6.2,"",85.9,"",914.7,"",767.3,"",.0,"",.0,""
"349190625","ZAKOPANE","2013","10","02",7.5,"",1.5,"",2.0,"",5.4,"",76.3,"",922.2,"",833.1,"",.0,"",.0,""
"349190625","ZAKOPANE","2013","10","03",3.6,"",1.5,"",.2,"",4.2,"",69.4,"",929.4,"",895.0,"",.0,"",.0,""
"349190625","ZAKOPANE","2013","10","04",.0,"",1.3,"",1.0,"",4.5,"",73.6,"",929.5,"",896.2,"",.0,"",.0,""
"349190625","ZAKOPANE","2013","10","05",4.4,"",1.0,"",4.0,"",5.2,"",68.0,"",924.1,"",848.7,"",.0,"",.0,""
"349190625","ZAKOPANE","2013","10","06",4.8,"",1.0,"",6.7,"",6.2,"",66.9,"",924.6,"",853.8,"",.0,"",.0,""
"349190625","ZAKOPANE","2013","10","07",4.9,"",.9,"",6.7,"",8.6,"",88.0,"",928.1,"",884.9,"",.0,"",.0,""
"349190625","ZAKOPANE","2013","10","08",2.3,"",.9,"",8.1,"",9.2,"",86.4,"",927.5,"",879.7,"",.0,"",.0,""
"349190625","ZAKOPANE","2013","10","09",5.1,"",.9,"",7.3,"",8.4,"",82.6,"",921.5,"",825.4,"",.0,"",.0,""
"349190625","ZAKOPANE","2013","10","10",5.1,"",.9,"",9.0,"",9.2,"",81.6,"",914.3,"",760.7,"",.0,"",.0,""
"349190625","ZAKOPANE","2013","10","11",6.4,"",1.3,"",10.5,"",10.7,"",85.4,"",919.1,"",804.6,"",.0,"",.0,""
"349190625","ZAKOPANE","2013","10","12",6.1,"",1.5,"",13.4,"",12.0,"",80.9,"",922.9,"",838.6,"",.0,"",.0,""
"349190625","ZAKOPANE","2013","10","13",3.6,"",1.6,"",13.6,"",10.5,"",69.0,"",921.8,"",828.1,"",.0,"",.0,""
"349190625","ZAKOPANE","2013","10","14",6.4,"",.5,"",8.2,"",9.6,"",88.3,"",922.5,"",834.9,"",.0,"",.1,""
"349190625","ZAKOPANE","2013","10","15",6.8,"",.8,"",8.4,"",9.6,"",87.1,"",915.2,"",769.2,"",.0,"",.0,""
"349190625","ZAKOPANE","2013","10","16",7.0,"",.5,"",4.2,"",8.2,"",98.8,"",909.8,"",722.7,"",35.0,"",3.7,""
"349190625","ZAKOPANE","2013","10","17",7.5,"",1.8,"",6.6,"",9.0,"",92.1,"",914.6,"",765.0,"",.0,"",3.9,""
"349190625","ZAKOPANE","2013","10","18",7.0,"",2.3,"",5.7,"",8.3,"",90.4,"",916.1,"",778.1,"",4.8,"",.0,""
"349190625","ZAKOPANE","2013","10","19",3.6,"",1.0,"",3.7,"",6.7,"",85.8,"",922.7,"",837.3,"",.0,"",.0,""
"349190625","ZAKOPANE","2013","10","20",5.3,"",.9,"",7.2,"",8.5,"",85.0,"",921.4,"",825.3,"",.0,"",.1,""
"349190625","ZAKOPANE","2013","10","21",6.6,"",1.9,"",9.9,"",10.0,"",84.1,"",921.3,"",823.9,"",.0,"",.0,""
"349190625","ZAKOPANE","2013","10","22",4.5,"",1.1,"",10.4,"",10.3,"",83.9,"",922.0,"",830.3,"",.0,"",.0,""
"349190625","ZAKOPANE","2013","10","23",1.6,"",2.5,"",12.6,"",10.6,"",75.9,"",918.2,"",795.5,"",.0,"",.0,""
"349190625","ZAKOPANE","2013","10","24",6.0,"",.9,"",11.3,"",12.3,"",92.3,"",921.7,"",827.9,"",.0,"",.0,""
"349190625","ZAKOPANE","2013","10","25",4.8,"",.9,"",10.1,"",10.8,"",88.4,"",923.6,"",844.9,"",.0,"",.0,""
"349190625","ZAKOPANE","2013","10","26",3.8,"",.9,"",11.3,"",9.7,"",76.6,"",921.3,"",823.7,"",.0,"",.0,""
"349190625","ZAKOPANE","2013","10","27",4.9,"",2.4,"",12.8,"",10.2,"",73.6,"",917.8,"",791.8,"",.0,"",.8,""
"349190625","ZAKOPANE","2013","10","28",5.4,"",4.0,"",14.8,"",9.2,"",55.9,"",914.9,"",764.5,"",.0,"",.0,""
"349190625","ZAKOPANE","2013","10","29",5.0,"",1.1,"",11.2,"",10.9,"",82.9,"",917.1,"",786.0,"",.0,"",6.6,""
"349190625","ZAKOPANE","2013","10","30",7.1,"",1.1,"",6.7,"",9.2,"",93.0,"",923.2,"",841.5,"",2.1,"",.0,""
"349190625","ZAKOPANE","2013","10","31",1.5,"",.9,"",3.3,"",6.5,"",85.4,"",927.4,"",878.5,"",.0,"",.0,""
"349190625","ZAKOPANE","2013","11","01",3.8,"",1.1,"",4.8,"",7.4,"",86.5,"",921.9,"",830.0,"",.0,"",.0,""
"349190625","ZAKOPANE","2013","11","02",6.4,"",2.1,"",7.9,"",8.1,"",77.4,"",914.1,"",759.7,"",.0,"",.0,""
"349190625","ZAKOPANE","2013","11","03",6.8,"",2.5,"",8.9,"",9.3,"",82.6,"",908.4,"",707.9,"",12.4,"",.0,""
"349190625","ZAKOPANE","2013","11","04",5.3,"",2.4,"",5.8,"",6.6,"",72.8,"",906.4,"",690.8,"",.1,"",.2,""
"349190625","ZAKOPANE","2013","11","05",7.5,"",1.5,"",6.9,"",8.8,"",89.5,"",900.1,"",633.3,"",21.2,"",5.0,""
"349190625","ZAKOPANE","2013","11","06",6.9,"",2.3,"",2.3,"",6.2,"",87.0,"",902.8,"",660.8,"",.4,"",.3,""
"349190625","ZAKOPANE","2013","11","07",7.0,"",2.9,"",7.3,"",8.8,"",84.6,"",912.5,"",746.1,"",.0,"",.0,""
"349190625","ZAKOPANE","2013","11","08",1.9,"",1.0,"",7.0,"",8.4,"",85.6,"",916.1,"",777.5,"",.0,"",.0,""
"349190625","ZAKOPANE","2013","11","09",6.4,"",1.6,"",7.2,"",9.3,"",91.3,"",913.6,"",755.2,"",4.5,"",25.4,""
"349190625","ZAKOPANE","2013","11","10",6.4,"",1.3,"",2.7,"",7.1,"",95.8,"",909.8,"",723.2,"",.5,"",.1,""
"349190625","ZAKOPANE","2013","11","11",7.6,"",1.4,"",2.5,"",7.3,"",99.8,"",922.1,"",831.5,"",.1,"",.0,""
"349190625","ZAKOPANE","2013","11","12",6.6,"",1.1,"",1.3,"",6.3,"",94.6,"",927.1,"",875.4,"",.0,"",.0,""
"349190625","ZAKOPANE","2013","11","13",5.8,"",.9,"",2.1,"",7.1,"",99.6,"",925.0,"",857.4,"",4.3,"",.2,""
"349190625","ZAKOPANE","2013","11","14",5.6,"",1.1,"",-.6,"",5.3,"",90.4,"",922.6,"",836.9,"",.0,"",.1,""
"349190625","ZAKOPANE","2013","11","15",7.8,"",.5,"",3.3,"",7.4,"",95.1,"",924.9,"",856.2,"",.0,"",.0,""
"349190625","ZAKOPANE","2013","11","16",7.0,"",1.3,"",4.5,"",7.4,"",88.3,"",927.4,"",877.9,"",.0,"",.0,""
"349190625","ZAKOPANE","2013","11","17",5.1,"",1.1,"",2.7,"",6.2,"",85.1,"",924.6,"",854.1,"",.0,"",.0,""
"349190625","ZAKOPANE","2013","11","18",3.5,"",1.6,"",3.3,"",6.3,"",82.6,"",918.8,"",802.2,"",.0,"",.0,""
"349190625","ZAKOPANE","2013","11","19",4.9,"",1.5,"",2.5,"",6.5,"",88.9,"",912.3,"",745.9,"",.0,"",.4,""
"349190625","ZAKOPANE","2013","11","20",7.3,"",2.6,"",7.4,"",7.9,"",77.5,"",904.9,"",676.6,"",.2,"",4.3,""
"349190625","ZAKOPANE","2013","11","21",7.8,"",.9,"",5.1,"",8.7,"",98.5,"",904.8,"",677.2,"",.0,"",3.1,""
"349190625","ZAKOPANE","2013","11","22",5.9,"",1.0,"",3.8,"",7.9,"",98.3,"",907.6,"",703.3,"",.0,"",.0,""
"349190625","ZAKOPANE","2013","11","23",7.5,"",.8,"",1.5,"",6.9,"",99.9,"",912.1,"",744.5,"",.0,"",1.3,""
"349190625","ZAKOPANE","2013","11","24",8.0,"",1.3,"",3.3,"",7.8,"",99.9,"",909.1,"",716.5,"",18.6,"",11.3,""
"349190625","ZAKOPANE","2013","11","25",8.0,"",1.8,"",-3.2,"",4.4,"",91.4,"",912.8,"",752.4,"",4.0,"",5.1,""
"349190625","ZAKOPANE","2013","11","26",7.4,"",.9,"",-4.3,"",4.1,"",91.9,"",920.7,"",820.9,"",1.8,"",.3,""
"349190625","ZAKOPANE","2013","11","27",2.5,"",.9,"",-7.6,"",3.1,"",88.0,"",926.2,"",867.0,"",.0,"",.0,""
"349190625","ZAKOPANE","2013","11","28",5.4,"",2.4,"",-3.2,"",4.5,"",89.5,"",921.9,"",830.4,"",.2,"",1.4,""
"349190625","ZAKOPANE","2013","11","29",7.5,"",2.1,"",-1.6,"",4.7,"",86.8,"",917.8,"",795.2,"",.1,"",.0,""
"349190625","ZAKOPANE","2013","11","30",5.8,"",1.0,"",-2.3,"",4.6,"",89.0,"",915.0,"",771.5,"",.0,"",.0,""
"349190625","ZAKOPANE","2013","12","01",5.0,"",2.0,"",-.9,"",5.0,"",86.5,"",922.4,"",834.5,"",.0,"",.2,""
"349190625","ZAKOPANE","2013","12","02",5.3,"",1.3,"",-1.0,"",4.6,"",80.3,"",929.1,"",892.4,"",.0,"",.0,""
"349190625","ZAKOPANE","2013","12","03",3.3,"",.5,"",-5.2,"",3.6,"",86.9,"",930.1,"",900.1,"",.0,"",.0,""
"349190625","ZAKOPANE","2013","12","04",5.0,"",1.0,"",-4.5,"",3.9,"",88.4,"",920.9,"",821.7,"",.0,"",.7,""
"349190625","ZAKOPANE","2013","12","05",6.9,"",2.5,"",-1.3,"",4.3,"",79.5,"",916.4,"",783.0,"",.2,"",1.1,""
"349190625","ZAKOPANE","2013","12","06",7.4,"",5.3,"",-2.5,"",3.9,"",75.5,"",903.6,"",671.3,"",.3,"",2.8,""
"349190625","ZAKOPANE","2013","12","07",7.6,"",3.5,"",-5.8,"",3.5,"",88.1,"",911.7,"",744.1,"",3.5,"",1.6,""
"349190625","ZAKOPANE","2013","12","08",6.1,"",2.3,"",-4.2,"",3.6,"",79.8,"",920.8,"",821.6,"",.0,"",.4,""
"349190625","ZAKOPANE","2013","12","09",7.9,"",3.1,"",1.1,"",6.1,"",91.9,"",918.7,"",802.0,"",9.1,"",.9,""
"349190625","ZAKOPANE","2013","12","10",1.9,"",1.0,"",-4.8,"",3.7,"",87.0,"",932.0,"",915.7,"",.0,"",.0,""
"349190625","ZAKOPANE","2013","12","11",7.4,"",1.5,"",-.5,"",5.6,"",92.8,"",933.1,"",926.9,"",.0,"",.0,""
"349190625","ZAKOPANE","2013","12","12",1.1,"",1.4,"",-1.0,"",5.0,"",88.4,"",929.4,"",895.0,"",.0,"",.0,""
"349190625","ZAKOPANE","2013","12","13",1.0,"",1.6,"",-1.1,"",4.0,"",73.5,"",924.5,"",853.0,"",.0,"",.0,""
"349190625","ZAKOPANE","2013","12","14",1.4,"",1.0,"",-.8,"",4.9,"",86.3,"",923.9,"",847.6,"",.0,"",.0,""
"349190625","ZAKOPANE","2013","12","15",5.4,"",1.4,"",-2.7,"",4.7,"",91.4,"",928.3,"",885.8,"",.0,"",.1,""
"349190625","ZAKOPANE","2013","12","16",2.6,"",1.1,"",-1.4,"",4.7,"",85.3,"",931.4,"",912.1,"",.0,"",.0,""
"349190625","ZAKOPANE","2013","12","17",1.5,"",.3,"",-2.7,"",4.0,"",83.1,"",929.9,"",899.2,"",.0,"",.0,""
"349190625","ZAKOPANE","2013","12","18",3.8,"",.6,"",-4.5,"",3.9,"",89.5,"",924.3,"",851.0,"",.0,"",.0,""
"349190625","ZAKOPANE","2013","12","19",5.6,"",.4,"",-5.6,"",3.4,"",86.9,"",916.9,"",788.4,"",.0,"",.0,""
"349190625","ZAKOPANE","2013","12","20",6.6,"",.6,"",-4.7,"",3.9,"",89.4,"",922.3,"",834.7,"",.0,"",.0,""
"349190625","ZAKOPANE","2013","12","21",4.5,"",1.4,"",-1.1,"",4.1,"",74.5,"",930.8,"",907.1,"",.0,"",.0,""
"349190625","ZAKOPANE","2013","12","22",3.3,"",.9,"",-2.6,"",4.6,"",88.5,"",925.5,"",861.4,"",.0,"",.0,""
"349190625","ZAKOPANE","2013","12","23",4.5,"",1.8,"",3.4,"",5.6,"",73.4,"",922.2,"",832.8,"",.0,"",.0,""
"349190625","ZAKOPANE","2013","12","24",.9,"",3.6,"",7.0,"",4.7,"",49.0,"",915.5,"",772.5,"",.0,"",.0,""
"349190625","ZAKOPANE","2013","12","25",5.0,"",8.9,"",7.6,"",6.1,"",58.4,"",905.2,"",679.4,"",.0,"",.0,""
"349190625","ZAKOPANE","2013","12","26",7.0,"",4.3,"",8.1,"",6.8,"",63.6,"",904.3,"",670.6,"",.0,"",.5,""
"349190625","ZAKOPANE","2013","12","27",5.5,"",1.3,"",4.3,"",7.6,"",92.3,"",911.0,"",733.6,"",.1,"",.0,""
"349190625","ZAKOPANE","2013","12","28",2.0,"",4.9,"",9.6,"",7.1,"",59.4,"",912.5,"",744.9,"",.0,"",.0,""
"349190625","ZAKOPANE","2013","12","29",6.5,"",2.3,"",6.1,"",6.2,"",67.0,"",915.8,"",775.0,"",.0,"",.0,""
"349190625","ZAKOPANE","2013","12","30",7.1,"",1.3,"",.7,"",5.7,"",88.8,"",926.4,"",869.6,"",.0,"",.0,""
"349190625","ZAKOPANE","2013","12","31",6.9,"",.5,"",-1.0,"",5.0,"",87.8,"",923.3,"",842.5,"",.0,"",.0,""
