"352220385","SIEDLCE","2013","01","01",4.9,"",3.9,"",1.7,"",5.1,"",73.8,"",992.5,"",1011.8,"",.0,"",.0,""
"352220385","SIEDLCE","2013","01","02",6.6,"",3.8,"",1.5,"",5.7,"",83.4,"",997.0,"",1016.4,"",.0,"",.1,""
"352220385","SIEDLCE","2013","01","03",7.6,"",5.5,"",3.0,"",7.2,"",94.0,"",998.5,"",1017.9,"",1.4,"",1.0,""
"352220385","SIEDLCE","2013","01","04",6.8,"",4.4,"",4.8,"",7.2,"",83.8,"",994.8,"",1013.9,"",.0,"",.0,""
"352220385","SIEDLCE","2013","01","05",7.5,"",4.1,"",1.5,"",6.0,"",87.5,"",996.7,"",1016.1,"",.5,"",.0,""
"352220385","SIEDLCE","2013","01","06",7.4,"",3.4,"",-1.3,"",4.6,"",81.9,"",999.6,"",1019.2,"",.0,"",.0,""
"352220385","SIEDLCE","2013","01","07",7.8,"",3.4,"",-2.9,"",3.4,"",68.5,"",1007.1,"",1027.0,"",.0,"",.0,""
"352220385","SIEDLCE","2013","01","08",7.4,"",2.1,"",-4.3,"",3.1,"",69.6,"",1006.5,"",1026.6,"",.0,"",.0,""
"352220385","SIEDLCE","2013","01","09",6.9,"",2.5,"",-3.2,"",3.8,"",78.9,"",1000.8,"",1020.6,"",.0,"",.7,""
"352220385","SIEDLCE","2013","01","10",8.0,"",5.1,"",-.1,"",5.8,"",94.5,"",982.3,"",1001.5,"",2.4,"",.0,""
"352220385","SIEDLCE","2013","01","11",7.4,"",4.3,"",-1.1,"",4.9,"",86.0,"",984.2,"",1003.5,"",.1,"",.6,""
"352220385","SIEDLCE","2013","01","12",8.0,"",2.0,"",-5.3,"",3.8,"",91.5,"",991.9,"",1011.8,"",1.5,"",.9,""
"352220385","SIEDLCE","2013","01","13",6.6,"",1.5,"",-6.8,"",3.5,"",93.3,"",1002.5,"",1022.7,"",.1,"",.0,""
"352220385","SIEDLCE","2013","01","14",4.0,"",4.0,"",-6.6,"",3.3,"",88.1,"",1003.5,"",1023.6,"",.0,"",1.8,""
"352220385","SIEDLCE","2013","01","15",8.0,"",1.6,"",-2.9,"",4.7,"",94.4,"",994.2,"",1013.9,"",.9,"",.0,""
"352220385","SIEDLCE","2013","01","16",8.0,"",2.9,"",-1.4,"",5.5,"",99.4,"",987.9,"",1007.4,"",5.4,"",.1,""
"352220385","SIEDLCE","2013","01","17",8.0,"",4.4,"",-5.3,"",3.8,"",92.1,"",990.2,"",1010.0,"",.0,"",.0,""
"352220385","SIEDLCE","2013","01","18",7.9,"",2.8,"",-7.4,"",3.2,"",91.3,"",993.9,"",1013.9,"",.0,"",.1,""
"352220385","SIEDLCE","2013","01","19",8.0,"",2.8,"",-9.7,"",2.6,"",89.5,"",986.1,"",1006.1,"",2.8,"",.1,""
"352220385","SIEDLCE","2013","01","20",7.9,"",1.9,"",-8.4,"",2.9,"",88.3,"",984.3,"",1004.2,"",.0,"",.0,""
"352220385","SIEDLCE","2013","01","21",8.0,"",3.0,"",-9.8,"",2.5,"",87.3,"",986.3,"",1006.4,"",.9,"",3.6,""
"352220385","SIEDLCE","2013","01","22",7.9,"",3.6,"",-8.4,"",2.8,"",86.5,"",988.1,"",1008.1,"",.0,"",1.6,""
"352220385","SIEDLCE","2013","01","23",8.0,"",2.0,"",-9.1,"",2.7,"",88.4,"",991.2,"",1011.3,"",2.6,"",1.0,""
"352220385","SIEDLCE","2013","01","24",7.9,"",1.6,"",-7.9,"",3.1,"",91.4,"",994.1,"",1014.1,"",1.7,"",.3,""
"352220385","SIEDLCE","2013","01","25",6.3,"",1.6,"",-9.5,"",2.8,"",92.0,"",1001.2,"",1021.5,"",.0,"",.0,""
"352220385","SIEDLCE","2013","01","26",4.8,"",2.3,"",-14.6,"",1.8,"",87.3,"",1002.8,"",1023.6,"",.0,"",.0,""
"352220385","SIEDLCE","2013","01","27",1.1,"",2.5,"",-15.3,"",1.6,"",86.5,"",995.4,"",1016.0,"",.0,"",.0,""
"352220385","SIEDLCE","2013","01","28",5.9,"",1.9,"",-8.6,"",3.2,"",91.1,"",994.2,"",1014.3,"",1.0,"",.3,""
"352220385","SIEDLCE","2013","01","29",8.0,"",2.4,"",.0,"",6.0,"",98.5,"",992.5,"",1012.0,"",1.0,"",.4,""
"352220385","SIEDLCE","2013","01","30",8.0,"",3.8,"",2.8,"",7.5,"",100.0,"",986.5,"",1005.6,"",4.6,"",2.1,""
"352220385","SIEDLCE","2013","01","31",6.3,"",5.5,"",4.0,"",7.0,"",85.5,"",982.0,"",1000.9,"",1.2,"",3.0,""
"352220385","SIEDLCE","2013","02","01",7.8,"",3.5,"",2.2,"",7.1,"",99.1,"",980.6,"",999.6,"",1.6,"",.4,""
"352220385","SIEDLCE","2013","02","02",7.8,"",3.0,"",1.3,"",6.7,"",99.5,"",974.4,"",993.4,"",4.5,"",.0,""
"352220385","SIEDLCE","2013","02","03",7.6,"",3.3,"",.2,"",5.4,"",87.5,"",985.5,"",1004.8,"",.0,"",.0,""
"352220385","SIEDLCE","2013","02","04",7.0,"",3.6,"",-.3,"",5.5,"",90.8,"",985.9,"",1005.3,"",.0,"",1.5,""
"352220385","SIEDLCE","2013","02","05",4.8,"",4.5,"",2.6,"",6.7,"",90.4,"",982.1,"",1001.2,"",.0,"",.0,""
"352220385","SIEDLCE","2013","02","06",7.0,"",2.0,"",.5,"",6.0,"",94.6,"",981.5,"",1000.6,"",3.7,"",.0,""
"352220385","SIEDLCE","2013","02","07",8.0,"",2.0,"",-1.3,"",5.6,"",100.0,"",984.1,"",1003.4,"",8.1,"",5.1,""
"352220385","SIEDLCE","2013","02","08",7.6,"",2.3,"",-.6,"",5.4,"",93.4,"",989.0,"",1008.4,"",.0,"",.0,""
"352220385","SIEDLCE","2013","02","09",7.5,"",1.5,"",-3.5,"",4.5,"",94.5,"",996.1,"",1015.8,"",.0,"",.0,""
"352220385","SIEDLCE","2013","02","10",7.4,"",1.3,"",-2.8,"",4.6,"",91.8,"",997.1,"",1016.8,"",.0,"",1.1,""
"352220385","SIEDLCE","2013","02","11",7.8,"",2.8,"",-2.3,"",5.0,"",95.9,"",996.4,"",1016.1,"",.7,"",.0,""
"352220385","SIEDLCE","2013","02","12",5.8,"",3.1,"",-3.3,"",4.0,"",83.9,"",997.7,"",1017.5,"",.0,"",.0,""
"352220385","SIEDLCE","2013","02","13",8.0,"",4.4,"",-.4,"",5.1,"",84.9,"",1003.4,"",1023.0,"",.0,"",.0,""
"352220385","SIEDLCE","2013","02","14",6.4,"",3.0,"",.2,"",5.5,"",87.8,"",1006.5,"",1026.2,"",.0,"",.0,""
"352220385","SIEDLCE","2013","02","15",7.8,"",3.0,"",-.4,"",5.3,"",89.9,"",1003.5,"",1023.2,"",.0,"",.0,""
"352220385","SIEDLCE","2013","02","16",8.0,"",2.4,"",-2.7,"",4.2,"",84.5,"",1005.6,"",1025.5,"",.0,"",.0,""
"352220385","SIEDLCE","2013","02","17",7.8,"",1.5,"",-4.9,"",3.5,"",82.5,"",1006.9,"",1027.0,"",.0,"",.0,""
"352220385","SIEDLCE","2013","02","18",8.0,"",2.1,"",-4.1,"",3.7,"",83.1,"",1001.9,"",1021.8,"",.0,"",1.4,""
"352220385","SIEDLCE","2013","02","19",8.0,"",3.0,"",-2.0,"",5.1,"",95.5,"",989.3,"",1008.8,"",3.6,"",2.3,""
"352220385","SIEDLCE","2013","02","20",7.9,"",1.4,"",-1.5,"",5.3,"",97.1,"",991.6,"",1011.1,"",.1,"",.0,""
"352220385","SIEDLCE","2013","02","21",7.0,"",1.8,"",-3.7,"",4.0,"",87.5,"",1000.4,"",1020.3,"",.0,"",.0,""
"352220385","SIEDLCE","2013","02","22",7.6,"",3.4,"",-3.7,"",4.3,"",92.8,"",1000.9,"",1020.7,"",.3,"",2.9,""
"352220385","SIEDLCE","2013","02","23",8.0,"",5.6,"",.4,"",5.7,"",90.6,"",998.2,"",1017.7,"",.0,"",.0,""
"352220385","SIEDLCE","2013","02","24",7.9,"",6.1,"",1.2,"",5.3,"",80.3,"",1001.9,"",1021.4,"",.0,"",.0,""
"352220385","SIEDLCE","2013","02","25",8.0,"",3.8,"",1.6,"",6.2,"",90.5,"",1006.5,"",1026.1,"",.0,"",.0,""
"352220385","SIEDLCE","2013","02","26",7.9,"",2.8,"",1.8,"",5.9,"",85.3,"",1010.5,"",1030.1,"",.0,"",.0,""
"352220385","SIEDLCE","2013","02","27",7.0,"",.8,"",1.8,"",6.1,"",88.8,"",1010.3,"",1030.0,"",.0,"",.0,""
"352220385","SIEDLCE","2013","02","28",6.9,"",3.8,"",.4,"",6.0,"",96.1,"",1003.9,"",1023.5,"",.0,"",.4,""
"352220385","SIEDLCE","2013","03","01",7.1,"",4.0,"",2.3,"",5.8,"",80.9,"",993.3,"",1012.6,"",.1,"",.0,""
"352220385","SIEDLCE","2013","03","02",6.4,"",4.0,"",1.4,"",4.6,"",69.3,"",996.0,"",1015.4,"",.0,"",.0,""
"352220385","SIEDLCE","2013","03","03",5.3,"",5.8,"",2.3,"",5.0,"",69.8,"",991.2,"",1010.4,"",.0,"",.0,""
"352220385","SIEDLCE","2013","03","04",3.3,"",3.4,"",-.1,"",3.7,"",62.0,"",1003.3,"",1022.9,"",.0,"",.0,""
"352220385","SIEDLCE","2013","03","05",2.1,"",3.4,"",3.3,"",3.9,"",51.9,"",1002.9,"",1022.3,"",.0,"",.0,""
"352220385","SIEDLCE","2013","03","06",.6,"",3.1,"",6.0,"",4.7,"",51.0,"",992.6,"",1011.6,"",.0,"",.0,""
"352220385","SIEDLCE","2013","03","07",5.6,"",2.8,"",3.3,"",5.3,"",69.3,"",990.4,"",1009.5,"",.0,"",.0,""
"352220385","SIEDLCE","2013","03","08",8.0,"",7.3,"",-1.1,"",3.3,"",59.1,"",994.5,"",1014.0,"",.0,"",4.4,""
"352220385","SIEDLCE","2013","03","09",7.8,"",4.1,"",-3.2,"",4.2,"",87.1,"",990.5,"",1010.1,"",.4,"",.0,""
"352220385","SIEDLCE","2013","03","10",7.9,"",5.0,"",-4.1,"",3.8,"",83.4,"",986.8,"",1006.4,"",1.0,"",.0,""
"352220385","SIEDLCE","2013","03","11",8.0,"",3.9,"",-4.1,"",3.8,"",82.9,"",984.4,"",1003.9,"",.8,"",.6,""
"352220385","SIEDLCE","2013","03","12",7.9,"",1.5,"",-4.2,"",4.2,"",93.1,"",984.3,"",1003.9,"",.0,"",1.0,""
"352220385","SIEDLCE","2013","03","13",8.0,"",2.3,"",-5.5,"",3.7,"",90.9,"",984.1,"",1003.7,"",2.4,"",.0,""
"352220385","SIEDLCE","2013","03","14",6.6,"",3.3,"",-6.2,"",3.1,"",81.0,"",986.9,"",1006.7,"",.0,"",.0,""
"352220385","SIEDLCE","2013","03","15",7.3,"",6.6,"",-4.9,"",2.5,"",58.0,"",983.5,"",1003.1,"",.0,"",.0,""
"352220385","SIEDLCE","2013","03","16",2.8,"",3.5,"",-5.5,"",2.1,"",53.1,"",995.6,"",1015.5,"",.0,"",.0,""
"352220385","SIEDLCE","2013","03","17",.0,"",1.3,"",-6.0,"",2.1,"",58.5,"",1001.9,"",1021.9,"",.0,"",.0,""
"352220385","SIEDLCE","2013","03","18",3.0,"",5.0,"",-3.7,"",2.4,"",54.3,"",994.2,"",1013.9,"",.0,"",.0,""
"352220385","SIEDLCE","2013","03","19",7.9,"",5.1,"",-2.2,"",4.3,"",82.6,"",978.3,"",997.6,"",2.8,"",.8,""
"352220385","SIEDLCE","2013","03","20",6.4,"",2.5,"",-.9,"",4.9,"",85.0,"",986.6,"",1006.0,"",.0,"",.0,""
"352220385","SIEDLCE","2013","03","21",7.0,"",1.8,"",-4.3,"",4.3,"",94.8,"",994.5,"",1014.3,"",.1,"",1.6,""
"352220385","SIEDLCE","2013","03","22",7.5,"",4.8,"",-4.5,"",3.4,"",75.5,"",998.1,"",1018.0,"",.1,"",.0,""
"352220385","SIEDLCE","2013","03","23",.1,"",4.1,"",-10.6,"",1.6,"",56.8,"",1004.8,"",1025.3,"",.0,"",.0,""
"352220385","SIEDLCE","2013","03","24",3.0,"",2.4,"",-8.5,"",2.3,"",70.9,"",1005.8,"",1026.1,"",.0,"",.0,""
"352220385","SIEDLCE","2013","03","25",1.1,"",2.1,"",-6.5,"",2.6,"",69.8,"",1003.6,"",1023.7,"",.0,"",.0,""
"352220385","SIEDLCE","2013","03","26",5.5,"",2.5,"",-4.9,"",2.6,"",62.8,"",998.5,"",1018.4,"",.0,"",.0,""
"352220385","SIEDLCE","2013","03","27",6.5,"",3.8,"",-3.2,"",2.9,"",62.8,"",999.5,"",1019.3,"",.0,"",.0,""
"352220385","SIEDLCE","2013","03","28",4.6,"",5.0,"",-1.0,"",2.9,"",52.3,"",1001.5,"",1021.1,"",.0,"",.0,""
"352220385","SIEDLCE","2013","03","29",7.0,"",5.4,"",-.9,"",4.5,"",78.0,"",992.5,"",1012.0,"",2.5,"",.4,""
"352220385","SIEDLCE","2013","03","30",7.5,"",2.9,"",.3,"",5.2,"",84.4,"",987.7,"",1007.0,"",.0,"",.0,""
"352220385","SIEDLCE","2013","03","31",7.6,"",2.5,"",-1.3,"",5.3,"",95.4,"",987.0,"",1006.4,"",9.9,"",5.9,""
"352220385","SIEDLCE","2013","04","01",8.0,"",4.3,"",.2,"",5.9,"",95.5,"",983.4,"",1002.6,"",.0,"",.0,""
"352220385","SIEDLCE","2013","04","02",7.8,"",2.0,"",-.1,"",5.1,"",83.6,"",996.0,"",1015.5,"",.0,"",.0,""
"352220385","SIEDLCE","2013","04","03",7.9,"",3.8,"",-.5,"",5.5,"",92.6,"",998.5,"",1018.0,"",6.0,"",8.5,""
"352220385","SIEDLCE","2013","04","04",8.0,"",3.8,"",.3,"",6.2,"",99.3,"",992.6,"",1012.0,"",11.8,"",4.2,""
"352220385","SIEDLCE","2013","04","05",8.0,"",1.4,"",.9,"",6.4,"",97.1,"",989.2,"",1008.5,"",.0,"",.1,""
"352220385","SIEDLCE","2013","04","06",8.0,"",2.0,"",.3,"",5.6,"",89.9,"",993.9,"",1013.4,"",.0,"",.0,""
"352220385","SIEDLCE","2013","04","07",3.5,"",1.3,"",1.1,"",4.3,"",67.9,"",998.6,"",1018.1,"",.0,"",.0,""
"352220385","SIEDLCE","2013","04","08",2.4,"",2.5,"",1.8,"",4.2,"",63.0,"",995.0,"",1014.4,"",.0,"",.0,""
"352220385","SIEDLCE","2013","04","09",5.9,"",3.0,"",.8,"",5.6,"",87.3,"",993.9,"",1013.3,"",.0,"",.0,""
"352220385","SIEDLCE","2013","04","10",7.6,"",1.9,"",2.9,"",7.1,"",95.0,"",991.7,"",1010.9,"",.0,"",1.4,""
"352220385","SIEDLCE","2013","04","11",6.9,"",2.3,"",6.4,"",8.5,"",89.0,"",991.5,"",1010.5,"",1.0,"",.7,""
"352220385","SIEDLCE","2013","04","12",7.1,"",3.6,"",10.2,"",10.1,"",82.0,"",986.6,"",1005.2,"",3.8,"",1.0,""
"352220385","SIEDLCE","2013","04","13",6.4,"",2.9,"",10.0,"",9.8,"",82.1,"",994.8,"",1013.6,"",2.0,"",1.3,""
"352220385","SIEDLCE","2013","04","14",7.8,"",2.5,"",5.7,"",7.9,"",85.5,"",1007.4,"",1026.7,"",.0,"",.0,""
"352220385","SIEDLCE","2013","04","15",4.6,"",2.1,"",6.0,"",6.9,"",74.5,"",1011.6,"",1030.9,"",.0,"",.0,""
"352220385","SIEDLCE","2013","04","16",.6,"",3.6,"",10.2,"",8.1,"",67.8,"",1007.7,"",1026.7,"",.0,"",.0,""
"352220385","SIEDLCE","2013","04","17",3.3,"",2.6,"",12.8,"",8.7,"",60.9,"",1004.5,"",1023.3,"",.1,"",.0,""
"352220385","SIEDLCE","2013","04","18",4.0,"",3.1,"",14.8,"",8.1,"",53.4,"",1001.3,"",1019.8,"",.0,"",.0,""
"352220385","SIEDLCE","2013","04","19",6.9,"",2.3,"",11.2,"",9.1,"",69.3,"",999.9,"",1018.7,"",.4,"",.4,""
"352220385","SIEDLCE","2013","04","20",6.0,"",2.6,"",9.3,"",9.1,"",78.5,"",1006.5,"",1025.6,"",.0,"",.0,""
"352220385","SIEDLCE","2013","04","21",.6,"",2.6,"",7.0,"",5.3,"",57.5,"",1006.8,"",1026.0,"",.0,"",.0,""
"352220385","SIEDLCE","2013","04","22",.3,"",2.8,"",9.4,"",5.8,"",54.1,"",1000.3,"",1019.3,"",.0,"",.0,""
"352220385","SIEDLCE","2013","04","23",4.4,"",3.4,"",14.1,"",8.6,"",55.0,"",997.5,"",1016.0,"",.0,"",.0,""
"352220385","SIEDLCE","2013","04","24",4.4,"",3.4,"",12.4,"",8.4,"",59.8,"",1003.6,"",1022.4,"",.0,"",.0,""
"352220385","SIEDLCE","2013","04","25",4.9,"",3.3,"",13.2,"",10.7,"",70.9,"",1002.5,"",1021.2,"",.0,"",.0,""
"352220385","SIEDLCE","2013","04","26",2.9,"",2.6,"",16.5,"",11.1,"",63.6,"",994.0,"",1012.3,"",.0,"",.0,""
"352220385","SIEDLCE","2013","04","27",6.6,"",3.0,"",17.3,"",12.5,"",65.5,"",985.1,"",1003.2,"",.0,"",8.1,""
"352220385","SIEDLCE","2013","04","28",6.1,"",2.8,"",8.6,"",10.9,"",96.9,"",993.0,"",1011.8,"",2.0,"",.0,""
"352220385","SIEDLCE","2013","04","29",5.1,"",3.0,"",10.1,"",10.4,"",82.3,"",999.6,"",1018.4,"",.0,"",.0,""
"352220385","SIEDLCE","2013","04","30",7.4,"",1.6,"",12.7,"",10.0,"",69.6,"",1003.1,"",1021.9,"",.0,"",4.8,""
"352220385","SIEDLCE","2013","05","01",5.6,"",2.0,"",10.1,"",10.1,"",83.3,"",1006.5,"",1025.5,"",.0,"",.0,""
"352220385","SIEDLCE","2013","05","02",6.0,"",2.5,"",10.3,"",11.1,"",88.9,"",1003.3,"",1022.3,"",1.3,"",14.4,""
"352220385","SIEDLCE","2013","05","03",8.0,"",2.8,"",11.6,"",12.8,"",94.1,"",995.6,"",1014.3,"",1.8,"",.3,""
"352220385","SIEDLCE","2013","05","04",7.0,"",2.4,"",13.2,"",12.9,"",86.0,"",996.7,"",1015.3,"",.0,"",.0,""
"352220385","SIEDLCE","2013","05","05",2.6,"",1.9,"",15.7,"",11.8,"",69.4,"",1003.0,"",1021.5,"",.0,"",.0,""
"352220385","SIEDLCE","2013","05","06",2.8,"",2.0,"",14.7,"",10.1,"",63.4,"",1006.4,"",1025.1,"",.0,"",.0,""
"352220385","SIEDLCE","2013","05","07",6.0,"",3.6,"",18.7,"",12.0,"",56.3,"",1002.2,"",1020.5,"",.0,"",.0,""
"352220385","SIEDLCE","2013","05","08",2.4,"",3.4,"",20.7,"",12.7,"",53.9,"",1000.1,"",1018.3,"",.0,"",.0,""
"352220385","SIEDLCE","2013","05","09",4.0,"",2.8,"",20.4,"",13.7,"",57.8,"",997.8,"",1015.9,"",.0,"",.0,""
"352220385","SIEDLCE","2013","05","10",3.9,"",2.1,"",20.6,"",13.3,"",58.9,"",993.9,"",1012.0,"",.0,"",.0,""
"352220385","SIEDLCE","2013","05","11",2.9,"",2.0,"",17.7,"",16.7,"",82.5,"",992.5,"",1010.7,"",.0,"",5.9,""
"352220385","SIEDLCE","2013","05","12",7.3,"",2.4,"",14.5,"",15.2,"",92.3,"",990.7,"",1009.1,"",.0,"",9.2,""
"352220385","SIEDLCE","2013","05","13",6.8,"",2.6,"",12.9,"",12.6,"",86.0,"",992.2,"",1010.7,"",.0,"",.0,""
"352220385","SIEDLCE","2013","05","14",3.6,"",1.6,"",13.0,"",11.0,"",76.6,"",994.1,"",1012.7,"",.0,"",.0,""
"352220385","SIEDLCE","2013","05","15",4.1,"",1.9,"",15.3,"",11.6,"",70.1,"",993.4,"",1011.8,"",.0,"",.0,""
"352220385","SIEDLCE","2013","05","16",3.9,"",2.4,"",18.8,"",15.5,"",73.0,"",990.7,"",1008.9,"",.0,"",.0,""
"352220385","SIEDLCE","2013","05","17",.5,"",3.8,"",21.0,"",13.5,"",56.9,"",990.5,"",1008.4,"",.0,"",.0,""
"352220385","SIEDLCE","2013","05","18",1.9,"",3.8,"",20.0,"",14.1,"",61.0,"",991.5,"",1009.6,"",.0,"",.0,""
"352220385","SIEDLCE","2013","05","19",1.4,"",1.8,"",18.5,"",13.3,"",66.4,"",994.0,"",1012.2,"",.0,"",.0,""
"352220385","SIEDLCE","2013","05","20",2.0,"",2.3,"",18.8,"",14.5,"",70.9,"",990.7,"",1008.9,"",.0,"",.0,""
"352220385","SIEDLCE","2013","05","21",4.4,"",3.1,"",15.7,"",12.4,"",72.0,"",991.7,"",1010.0,"",.5,"",.0,""
"352220385","SIEDLCE","2013","05","22",4.9,"",2.3,"",14.3,"",11.2,"",70.8,"",987.1,"",1005.5,"",.0,"",.0,""
"352220385","SIEDLCE","2013","05","23",7.0,"",2.1,"",10.9,"",10.2,"",78.9,"",987.0,"",1005.6,"",.0,"",.0,""
"352220385","SIEDLCE","2013","05","24",7.9,"",3.8,"",10.2,"",12.0,"",96.3,"",985.5,"",1004.1,"",13.7,"",61.6,""
"352220385","SIEDLCE","2013","05","25",5.8,"",3.8,"",10.5,"",11.4,"",90.5,"",985.0,"",1003.6,"",2.3,"",.0,""
"352220385","SIEDLCE","2013","05","26",4.6,"",1.4,"",10.7,"",10.9,"",86.1,"",988.6,"",1007.2,"",5.2,"",.0,""
"352220385","SIEDLCE","2013","05","27",7.3,"",1.9,"",11.0,"",13.1,"",99.4,"",984.6,"",1003.1,"",14.3,"",1.4,""
"352220385","SIEDLCE","2013","05","28",7.6,"",4.0,"",11.5,"",11.7,"",86.8,"",987.1,"",1005.6,"",.2,"",.0,""
"352220385","SIEDLCE","2013","05","29",4.5,"",3.8,"",16.0,"",12.9,"",73.3,"",988.1,"",1006.4,"",.0,"",2.6,""
"352220385","SIEDLCE","2013","05","30",5.5,"",3.5,"",18.9,"",16.4,"",76.1,"",985.4,"",1003.4,"",.0,"",.0,""
"352220385","SIEDLCE","2013","05","31",6.3,"",2.9,"",17.5,"",15.8,"",79.6,"",983.5,"",1001.6,"",1.8,"",9.3,""
"352220385","SIEDLCE","2013","06","01",6.4,"",4.0,"",17.4,"",16.2,"",82.4,"",983.5,"",1001.5,"",.0,"",.0,""
"352220385","SIEDLCE","2013","06","02",7.0,"",1.3,"",14.4,"",14.5,"",88.9,"",990.9,"",1009.3,"",3.8,"",.2,""
"352220385","SIEDLCE","2013","06","03",5.0,"",2.9,"",16.7,"",16.6,"",88.1,"",991.1,"",1009.4,"",5.7,"",.0,""
"352220385","SIEDLCE","2013","06","04",6.8,"",2.3,"",16.2,"",16.7,"",91.6,"",992.9,"",1011.2,"",4.0,"",.0,""
"352220385","SIEDLCE","2013","06","05",6.8,"",2.5,"",16.7,"",17.9,"",94.6,"",997.4,"",1015.8,"",.8,"",.0,""
"352220385","SIEDLCE","2013","06","06",6.9,"",1.8,"",16.6,"",17.2,"",91.8,"",1000.6,"",1019.1,"",.1,"",.0,""
"352220385","SIEDLCE","2013","06","07",4.6,"",1.4,"",18.0,"",17.1,"",84.8,"",999.8,"",1018.2,"",.0,"",.0,""
"352220385","SIEDLCE","2013","06","08",4.8,"",.9,"",18.9,"",17.8,"",82.8,"",996.8,"",1015.0,"",45.1,"",.0,""
"352220385","SIEDLCE","2013","06","09",6.4,"",1.8,"",17.5,"",17.1,"",86.6,"",992.8,"",1011.0,"",1.8,"",4.3,""
"352220385","SIEDLCE","2013","06","10",6.8,"",1.8,"",16.8,"",17.1,"",90.0,"",988.4,"",1006.6,"",5.1,"",.0,""
"352220385","SIEDLCE","2013","06","11",7.4,"",2.0,"",14.9,"",15.2,"",90.1,"",994.0,"",1012.4,"",.3,"",.0,""
"352220385","SIEDLCE","2013","06","12",2.3,"",1.5,"",16.7,"",13.2,"",72.8,"",1000.3,"",1018.7,"",.0,"",.0,""
"352220385","SIEDLCE","2013","06","13",4.4,"",1.3,"",18.0,"",13.2,"",67.6,"",1001.3,"",1019.7,"",.0,"",.0,""
"352220385","SIEDLCE","2013","06","14",5.0,"",2.6,"",19.5,"",16.0,"",71.8,"",998.1,"",1016.4,"",.0,"",.0,""
"352220385","SIEDLCE","2013","06","15",5.8,"",1.6,"",17.1,"",14.5,"",76.0,"",999.5,"",1017.9,"",.0,"",.0,""
"352220385","SIEDLCE","2013","06","16",6.3,"",2.5,"",20.4,"",15.3,"",65.9,"",996.9,"",1015.0,"",.0,"",.0,""
"352220385","SIEDLCE","2013","06","17",2.6,"",1.8,"",18.1,"",13.4,"",67.8,"",999.9,"",1018.2,"",.0,"",.1,""
"352220385","SIEDLCE","2013","06","18",3.9,"",1.9,"",17.8,"",15.9,"",79.3,"",1000.1,"",1018.5,"",1.2,"",.0,""
"352220385","SIEDLCE","2013","06","19",1.0,"",1.9,"",19.2,"",14.6,"",69.3,"",1002.3,"",1020.7,"",.0,"",.0,""
"352220385","SIEDLCE","2013","06","20",.9,"",2.8,"",22.0,"",15.4,"",61.3,"",1000.0,"",1018.1,"",.0,"",.0,""
"352220385","SIEDLCE","2013","06","21",3.6,"",3.4,"",22.6,"",20.4,"",74.6,"",995.4,"",1013.4,"",3.9,"",1.2,""
"352220385","SIEDLCE","2013","06","22",4.8,"",1.8,"",22.0,"",20.2,"",78.3,"",995.9,"",1013.9,"",.0,"",.0,""
"352220385","SIEDLCE","2013","06","23",4.8,"",1.3,"",19.2,"",20.5,"",92.3,"",993.5,"",1011.7,"",17.5,"",.1,""
"352220385","SIEDLCE","2013","06","24",5.8,"",1.8,"",20.0,"",20.1,"",87.1,"",994.3,"",1012.5,"",.0,"",.4,""
"352220385","SIEDLCE","2013","06","25",7.0,"",3.4,"",21.2,"",21.7,"",87.5,"",992.2,"",1010.2,"",3.0,"",4.3,""
"352220385","SIEDLCE","2013","06","26",7.8,"",3.9,"",15.1,"",14.8,"",86.8,"",997.2,"",1015.7,"",.0,"",.0,""
"352220385","SIEDLCE","2013","06","27",7.0,"",1.9,"",14.3,"",13.0,"",80.8,"",1004.3,"",1023.0,"",.0,"",3.9,""
"352220385","SIEDLCE","2013","06","28",7.5,"",1.8,"",14.1,"",14.4,"",89.9,"",1001.5,"",1020.2,"",.0,"",.0,""
"352220385","SIEDLCE","2013","06","29",3.4,"",1.4,"",15.5,"",12.9,"",76.6,"",997.7,"",1016.2,"",.0,"",.0,""
"352220385","SIEDLCE","2013","06","30",3.6,"",2.4,"",14.6,"",13.2,"",80.8,"",997.3,"",1015.8,"",5.1,"",.0,""
"352220385","SIEDLCE","2013","07","01",2.8,"",2.1,"",14.0,"",11.9,"",75.9,"",998.5,"",1017.1,"",.0,"",.0,""
"352220385","SIEDLCE","2013","07","02",2.1,"",1.3,"",19.3,"",14.5,"",67.5,"",998.9,"",1017.2,"",.0,"",.0,""
"352220385","SIEDLCE","2013","07","03",1.1,"",2.1,"",21.3,"",15.4,"",64.4,"",998.5,"",1016.7,"",.0,"",.0,""
"352220385","SIEDLCE","2013","07","04",.9,"",1.5,"",21.0,"",15.4,"",66.5,"",1001.3,"",1019.5,"",.0,"",.0,""
"352220385","SIEDLCE","2013","07","05",1.9,"",1.3,"",22.5,"",17.5,"",68.5,"",1003.7,"",1021.8,"",.0,"",.0,""
"352220385","SIEDLCE","2013","07","06",2.9,"",3.0,"",20.1,"",16.1,"",70.0,"",1007.7,"",1026.1,"",.0,"",.0,""
"352220385","SIEDLCE","2013","07","07",3.0,"",2.6,"",16.9,"",13.7,"",73.4,"",1009.4,"",1028.0,"",.0,"",.0,""
"352220385","SIEDLCE","2013","07","08",1.0,"",1.9,"",18.4,"",13.8,"",69.3,"",1008.9,"",1027.4,"",.0,"",.0,""
"352220385","SIEDLCE","2013","07","09",2.5,"",1.5,"",18.2,"",16.7,"",82.0,"",1004.5,"",1022.9,"",.0,"",.0,""
"352220385","SIEDLCE","2013","07","10",2.3,"",2.0,"",20.2,"",15.3,"",68.6,"",995.0,"",1013.2,"",.0,"",2.5,""
"352220385","SIEDLCE","2013","07","11",6.4,"",1.4,"",16.9,"",15.3,"",80.9,"",993.8,"",1012.1,"",.0,"",3.4,""
"352220385","SIEDLCE","2013","07","12",6.1,"",1.9,"",15.3,"",15.9,"",91.6,"",994.4,"",1012.8,"",4.1,"",.0,""
"352220385","SIEDLCE","2013","07","13",7.1,"",1.5,"",17.5,"",16.7,"",84.8,"",993.8,"",1012.1,"",5.2,"",20.0,""
"352220385","SIEDLCE","2013","07","14",7.5,"",2.0,"",17.3,"",18.7,"",95.3,"",993.2,"",1011.5,"",10.5,"",3.0,""
"352220385","SIEDLCE","2013","07","15",5.8,"",2.6,"",17.2,"",14.7,"",76.8,"",996.6,"",1014.9,"",.0,"",.0,""
"352220385","SIEDLCE","2013","07","16",4.3,"",2.3,"",16.3,"",14.9,"",81.0,"",1001.2,"",1019.7,"",.0,"",.0,""
"352220385","SIEDLCE","2013","07","17",2.6,"",1.9,"",17.9,"",15.7,"",78.8,"",1002.5,"",1020.9,"",.0,"",.0,""
"352220385","SIEDLCE","2013","07","18",2.3,"",1.8,"",19.7,"",17.1,"",77.0,"",1002.0,"",1020.3,"",.0,"",.0,""
"352220385","SIEDLCE","2013","07","19",4.8,"",3.1,"",19.1,"",16.6,"",76.4,"",997.0,"",1015.2,"",.0,"",.1,""
"352220385","SIEDLCE","2013","07","20",3.6,"",2.6,"",15.8,"",12.1,"",69.1,"",998.9,"",1017.4,"",.0,"",.0,""
"352220385","SIEDLCE","2013","07","21",2.3,"",2.6,"",17.5,"",13.3,"",68.6,"",1000.1,"",1018.5,"",.0,"",.0,""
"352220385","SIEDLCE","2013","07","22",1.6,"",3.3,"",17.0,"",11.7,"",62.9,"",997.7,"",1016.1,"",.0,"",.0,""
"352220385","SIEDLCE","2013","07","23",5.4,"",3.6,"",15.3,"",13.0,"",75.1,"",994.1,"",1012.5,"",.0,"",.0,""
"352220385","SIEDLCE","2013","07","24",7.8,"",2.3,"",17.0,"",16.7,"",86.4,"",995.4,"",1013.7,"",.0,"",.0,""
"352220385","SIEDLCE","2013","07","25",7.5,"",1.8,"",16.8,"",16.9,"",89.1,"",997.2,"",1015.6,"",.0,"",.0,""
"352220385","SIEDLCE","2013","07","26",4.8,"",1.8,"",18.2,"",17.2,"",83.9,"",997.5,"",1015.8,"",.0,"",.0,""
"352220385","SIEDLCE","2013","07","27",2.1,"",1.8,"",21.8,"",18.2,"",73.0,"",995.3,"",1013.3,"",.0,"",.0,""
"352220385","SIEDLCE","2013","07","28",2.8,"",1.3,"",23.8,"",20.1,"",72.0,"",995.7,"",1013.6,"",.0,"",.0,""
"352220385","SIEDLCE","2013","07","29",4.5,"",3.1,"",27.4,"",22.8,"",64.3,"",994.6,"",1012.2,"",.0,"",.0,""
"352220385","SIEDLCE","2013","07","30",5.3,"",3.5,"",22.1,"",20.6,"",77.8,"",992.2,"",1010.1,"",.0,"",.3,""
"352220385","SIEDLCE","2013","07","31",4.0,"",2.1,"",20.6,"",16.0,"",69.4,"",996.5,"",1014.6,"",.0,"",.0,""
"352220385","SIEDLCE","2013","08","01",5.4,"",2.3,"",19.5,"",15.6,"",71.8,"",999.3,"",1017.5,"",.0,"",.0,""
"352220385","SIEDLCE","2013","08","02",3.8,"",2.1,"",19.6,"",16.4,"",73.1,"",998.5,"",1016.7,"",.0,"",.0,""
"352220385","SIEDLCE","2013","08","03",.4,"",1.8,"",18.5,"",14.2,"",71.0,"",999.8,"",1018.1,"",.0,"",.0,""
"352220385","SIEDLCE","2013","08","04",3.6,"",1.1,"",21.1,"",15.9,"",67.6,"",1002.2,"",1020.4,"",.0,"",.0,""
"352220385","SIEDLCE","2013","08","05",4.4,"",1.8,"",21.7,"",19.8,"",77.9,"",1001.9,"",1020.0,"",.0,"",.0,""
"352220385","SIEDLCE","2013","08","06",1.1,"",1.9,"",23.1,"",18.8,"",69.6,"",1000.6,"",1018.6,"",.0,"",.0,""
"352220385","SIEDLCE","2013","08","07",1.8,"",3.0,"",25.6,"",17.7,"",56.9,"",997.5,"",1015.4,"",.0,"",.0,""
"352220385","SIEDLCE","2013","08","08",.9,"",3.1,"",27.3,"",19.5,"",56.0,"",996.3,"",1014.0,"",.0,"",.0,""
"352220385","SIEDLCE","2013","08","09",3.4,"",3.5,"",24.7,"",20.2,"",66.4,"",998.0,"",1015.9,"",.0,"",3.8,""
"352220385","SIEDLCE","2013","08","10",7.3,"",2.8,"",19.4,"",19.6,"",87.4,"",996.0,"",1014.2,"",.0,"",.1,""
"352220385","SIEDLCE","2013","08","11",4.1,"",1.9,"",18.5,"",14.9,"",73.3,"",997.1,"",1015.3,"",.0,"",1.6,""
"352220385","SIEDLCE","2013","08","12",5.3,"",1.6,"",17.6,"",14.1,"",72.8,"",998.5,"",1016.8,"",.0,"",.0,""
"352220385","SIEDLCE","2013","08","13",4.5,"",2.9,"",18.0,"",14.2,"",69.6,"",994.8,"",1013.0,"",.0,"",.0,""
"352220385","SIEDLCE","2013","08","14",1.9,"",3.0,"",15.7,"",11.5,"",66.6,"",999.8,"",1018.2,"",.0,"",.0,""
"352220385","SIEDLCE","2013","08","15",2.9,"",1.9,"",15.3,"",11.4,"",69.1,"",1004.4,"",1023.0,"",.0,"",.0,""
"352220385","SIEDLCE","2013","08","16",3.4,"",.9,"",16.5,"",12.1,"",68.6,"",1005.2,"",1023.7,"",.0,"",.0,""
"352220385","SIEDLCE","2013","08","17",.8,"",2.6,"",18.1,"",11.4,"",60.0,"",1002.0,"",1020.4,"",.0,"",.0,""
"352220385","SIEDLCE","2013","08","18",3.8,"",2.6,"",21.5,"",14.4,"",58.4,"",998.1,"",1016.2,"",.0,"",.0,""
"352220385","SIEDLCE","2013","08","19",6.8,"",1.6,"",20.2,"",17.6,"",74.9,"",997.7,"",1015.8,"",.0,"",.0,""
"352220385","SIEDLCE","2013","08","20",4.1,"",1.9,"",20.8,"",19.0,"",79.0,"",1000.5,"",1018.7,"",.0,"",3.7,""
"352220385","SIEDLCE","2013","08","21",7.9,"",1.5,"",16.4,"",18.5,"",98.9,"",1004.3,"",1022.8,"",5.8,"",26.2,""
"352220385","SIEDLCE","2013","08","22",6.4,"",1.9,"",15.6,"",15.4,"",87.9,"",1001.8,"",1020.3,"",.7,"",.0,""
"352220385","SIEDLCE","2013","08","23",5.8,"",1.5,"",15.1,"",15.3,"",89.8,"",1001.3,"",1019.9,"",1.2,"",.0,""
"352220385","SIEDLCE","2013","08","24",1.3,"",1.6,"",14.6,"",12.5,"",78.6,"",1000.5,"",1019.0,"",.0,"",.0,""
"352220385","SIEDLCE","2013","08","25",2.4,"",2.0,"",13.4,"",10.9,"",74.0,"",999.8,"",1018.4,"",.0,"",.0,""
"352220385","SIEDLCE","2013","08","26",4.8,"",2.0,"",13.3,"",12.2,"",81.3,"",1001.3,"",1019.9,"",.0,"",.0,""
"352220385","SIEDLCE","2013","08","27",4.3,"",1.9,"",15.3,"",12.8,"",76.4,"",1000.1,"",1018.6,"",.0,"",.0,""
"352220385","SIEDLCE","2013","08","28",4.9,"",2.0,"",14.2,"",13.8,"",86.5,"",998.6,"",1017.2,"",.0,"",.0,""
"352220385","SIEDLCE","2013","08","29",5.4,"",.9,"",14.5,"",13.1,"",81.6,"",1000.6,"",1019.2,"",.0,"",.0,""
"352220385","SIEDLCE","2013","08","30",3.1,"",1.6,"",16.3,"",12.4,"",71.1,"",999.8,"",1018.2,"",.0,"",.0,""
"352220385","SIEDLCE","2013","08","31",5.3,"",1.5,"",16.1,"",13.7,"",77.3,"",997.2,"",1015.6,"",.0,"",1.0,""
"352220385","SIEDLCE","2013","09","01",5.6,"",2.4,"",14.3,"",13.5,"",82.9,"",997.1,"",1015.6,"",8.5,"",.0,""
"352220385","SIEDLCE","2013","09","02",6.4,"",4.8,"",12.0,"",11.9,"",85.3,"",993.7,"",1012.3,"",1.0,"",4.4,""
"352220385","SIEDLCE","2013","09","03",4.9,"",3.5,"",13.5,"",12.3,"",80.4,"",995.0,"",1013.6,"",.2,"",.0,""
"352220385","SIEDLCE","2013","09","04",2.9,"",2.0,"",13.2,"",11.7,"",80.6,"",1005.0,"",1023.8,"",.0,"",.0,""
"352220385","SIEDLCE","2013","09","05",2.8,"",1.9,"",12.9,"",11.3,"",80.0,"",1003.8,"",1022.5,"",.0,"",.0,""
"352220385","SIEDLCE","2013","09","06",.4,"",2.4,"",12.7,"",10.8,"",77.6,"",1001.6,"",1020.3,"",.0,"",.0,""
"352220385","SIEDLCE","2013","09","07",.0,"",2.3,"",12.2,"",9.6,"",73.1,"",1003.7,"",1022.5,"",.0,"",.0,""
"352220385","SIEDLCE","2013","09","08",.3,"",1.6,"",12.3,"",10.2,"",75.4,"",1006.6,"",1025.4,"",.0,"",.0,""
"352220385","SIEDLCE","2013","09","09",4.0,"",2.8,"",15.9,"",11.6,"",68.6,"",999.8,"",1018.3,"",.0,"",3.1,""
"352220385","SIEDLCE","2013","09","10",4.9,"",1.9,"",13.3,"",12.9,"",85.5,"",998.4,"",1017.0,"",.0,"",.0,""
"352220385","SIEDLCE","2013","09","11",6.1,"",1.9,"",13.6,"",13.9,"",89.8,"",996.3,"",1014.9,"",2.7,"",16.7,""
"352220385","SIEDLCE","2013","09","12",6.8,"",1.4,"",12.3,"",13.7,"",96.3,"",995.2,"",1013.8,"",1.6,"",1.0,""
"352220385","SIEDLCE","2013","09","13",6.8,"",2.0,"",9.7,"",12.0,"",99.8,"",994.9,"",1013.7,"",15.8,"",.0,""
"352220385","SIEDLCE","2013","09","14",6.4,"",1.9,"",12.2,"",12.7,"",90.3,"",992.7,"",1011.3,"",.0,"",.0,""
"352220385","SIEDLCE","2013","09","15",6.4,"",1.4,"",13.3,"",13.8,"",91.0,"",991.1,"",1009.6,"",.0,"",.1,""
"352220385","SIEDLCE","2013","09","16",7.3,"",1.5,"",14.2,"",15.8,"",97.3,"",985.9,"",1004.3,"",.3,"",1.7,""
"352220385","SIEDLCE","2013","09","17",7.9,"",1.9,"",13.9,"",15.6,"",98.4,"",980.0,"",998.2,"",7.1,"",8.1,""
"352220385","SIEDLCE","2013","09","18",7.8,"",2.0,"",11.0,"",13.0,"",99.0,"",980.7,"",999.1,"",.2,"",.6,""
"352220385","SIEDLCE","2013","09","19",7.5,"",2.0,"",10.2,"",12.0,"",97.0,"",983.8,"",1002.4,"",.3,"",.0,""
"352220385","SIEDLCE","2013","09","20",6.4,"",3.1,"",11.6,"",11.3,"",84.1,"",991.3,"",1009.9,"",.0,"",1.0,""
"352220385","SIEDLCE","2013","09","21",6.3,"",2.3,"",11.2,"",12.6,"",94.6,"",998.6,"",1017.4,"",.8,"",.0,""
"352220385","SIEDLCE","2013","09","22",5.6,"",2.8,"",11.0,"",12.0,"",91.0,"",1001.5,"",1020.3,"",.0,"",2.4,""
"352220385","SIEDLCE","2013","09","23",5.8,"",4.1,"",12.9,"",11.8,"",79.4,"",989.3,"",1007.8,"",.0,"",.0,""
"352220385","SIEDLCE","2013","09","24",4.4,"",3.6,"",10.7,"",9.3,"",74.0,"",988.7,"",1007.3,"",.0,"",.2,""
"352220385","SIEDLCE","2013","09","25",6.1,"",2.5,"",8.1,"",9.3,"",87.3,"",994.3,"",1013.2,"",.2,"",2.9,""
"352220385","SIEDLCE","2013","09","26",5.9,"",1.6,"",6.2,"",9.1,"",95.5,"",992.4,"",1011.4,"",4.4,"",.0,""
"352220385","SIEDLCE","2013","09","27",2.6,"",2.4,"",6.3,"",7.6,"",81.4,"",996.1,"",1015.1,"",.0,"",.0,""
"352220385","SIEDLCE","2013","09","28",6.3,"",2.0,"",7.3,"",9.0,"",89.0,"",995.6,"",1014.6,"",1.3,"",.0,""
"352220385","SIEDLCE","2013","09","29",5.9,"",.8,"",7.6,"",8.7,"",85.1,"",1000.5,"",1019.5,"",.0,"",.0,""
"352220385","SIEDLCE","2013","09","30",2.4,"",1.1,"",5.5,"",7.4,"",84.3,"",1000.7,"",1019.9,"",.0,"",.0,""
"352220385","SIEDLCE","2013","10","01",6.8,"",1.5,"",6.0,"",8.0,"",86.6,"",1000.3,"",1019.4,"",.0,"",.0,""
"352220385","SIEDLCE","2013","10","02",6.5,"",1.9,"",5.1,"",6.5,"",75.1,"",1008.0,"",1027.3,"",.0,"",.0,""
"352220385","SIEDLCE","2013","10","03",7.0,"",1.1,"",4.5,"",6.4,"",77.3,"",1014.8,"",1034.4,"",.0,"",.0,""
"352220385","SIEDLCE","2013","10","04",1.4,"",1.3,"",3.4,"",5.8,"",78.9,"",1014.6,"",1034.2,"",.0,"",.0,""
"352220385","SIEDLCE","2013","10","05",3.6,"",2.8,"",6.0,"",6.8,"",74.9,"",1007.3,"",1026.6,"",.0,"",.0,""
"352220385","SIEDLCE","2013","10","06",4.8,"",2.4,"",8.6,"",8.2,"",76.5,"",1004.3,"",1023.4,"",.0,"",.0,""
"352220385","SIEDLCE","2013","10","07",7.1,"",1.6,"",10.5,"",11.0,"",87.1,"",1008.5,"",1027.5,"",.0,"",.0,""
"352220385","SIEDLCE","2013","10","08",5.6,"",1.5,"",10.3,"",10.3,"",84.4,"",1009.2,"",1028.2,"",.0,"",.0,""
"352220385","SIEDLCE","2013","10","09",4.4,"",1.8,"",10.2,"",9.9,"",81.5,"",1000.4,"",1019.3,"",.0,"",.0,""
"352220385","SIEDLCE","2013","10","10",6.3,"",1.9,"",11.3,"",11.5,"",86.8,"",994.3,"",1012.9,"",.0,"",.0,""
"352220385","SIEDLCE","2013","10","11",4.0,"",1.8,"",9.0,"",10.8,"",94.3,"",1002.5,"",1021.5,"",.0,"",.0,""
"352220385","SIEDLCE","2013","10","12",8.0,"",3.0,"",10.3,"",12.0,"",95.4,"",1007.8,"",1026.8,"",.0,"",.0,""
"352220385","SIEDLCE","2013","10","13",7.5,"",3.1,"",12.3,"",12.9,"",90.0,"",1002.9,"",1021.6,"",.0,"",.0,""
"352220385","SIEDLCE","2013","10","14",5.9,"",1.4,"",9.7,"",11.3,"",93.1,"",1003.6,"",1022.5,"",.0,"",.0,""
"352220385","SIEDLCE","2013","10","15",7.5,"",1.1,"",8.6,"",10.9,"",97.0,"",995.6,"",1014.5,"",.0,"",.1,""
"352220385","SIEDLCE","2013","10","16",6.6,"",1.3,"",8.8,"",11.0,"",96.8,"",990.3,"",1009.1,"",.0,"",.0,""
"352220385","SIEDLCE","2013","10","17",5.0,"",1.9,"",6.1,"",8.5,"",90.5,"",993.6,"",1012.6,"",.0,"",1.3,""
"352220385","SIEDLCE","2013","10","18",5.4,"",3.3,"",8.5,"",10.5,"",94.4,"",990.2,"",1009.0,"",3.1,"",.0,""
"352220385","SIEDLCE","2013","10","19",2.3,"",2.3,"",3.8,"",5.7,"",73.6,"",1004.7,"",1024.1,"",.0,"",.0,""
"352220385","SIEDLCE","2013","10","20",6.3,"",3.3,"",10.3,"",10.4,"",80.5,"",997.9,"",1016.7,"",.0,"",11.6,""
"352220385","SIEDLCE","2013","10","21",6.5,"",3.1,"",12.7,"",14.1,"",96.3,"",996.9,"",1015.5,"",.1,"",.0,""
"352220385","SIEDLCE","2013","10","22",1.6,"",2.1,"",10.2,"",11.9,"",95.8,"",1001.7,"",1020.6,"",.0,"",.0,""
"352220385","SIEDLCE","2013","10","23",.8,"",3.9,"",13.1,"",13.0,"",86.6,"",997.9,"",1016.5,"",.0,"",.0,""
"352220385","SIEDLCE","2013","10","24",4.5,"",2.8,"",13.0,"",14.8,"",98.8,"",998.5,"",1017.1,"",1.7,"",.0,""
"352220385","SIEDLCE","2013","10","25",4.8,"",2.1,"",11.0,"",12.7,"",97.1,"",1003.4,"",1022.2,"",.0,"",.0,""
"352220385","SIEDLCE","2013","10","26",7.3,"",2.9,"",14.4,"",14.7,"",90.8,"",997.2,"",1015.7,"",.0,"",.0,""
"352220385","SIEDLCE","2013","10","27",5.4,"",3.4,"",16.3,"",14.8,"",80.1,"",991.9,"",1010.2,"",.0,"",.1,""
"352220385","SIEDLCE","2013","10","28",4.4,"",4.6,"",14.6,"",11.8,"",71.0,"",988.1,"",1006.4,"",.0,"",.0,""
"352220385","SIEDLCE","2013","10","29",5.0,"",3.3,"",14.5,"",11.3,"",68.8,"",993.2,"",1011.6,"",.0,"",.0,""
"352220385","SIEDLCE","2013","10","30",4.5,"",2.9,"",9.2,"",9.6,"",83.8,"",1001.5,"",1020.5,"",.0,"",.0,""
"352220385","SIEDLCE","2013","10","31",.5,"",2.4,"",6.4,"",8.3,"",87.3,"",1008.7,"",1028.0,"",.0,"",.0,""
"352220385","SIEDLCE","2013","11","01",5.0,"",2.0,"",6.0,"",8.0,"",86.0,"",1001.4,"",1020.6,"",.0,"",.0,""
"352220385","SIEDLCE","2013","11","02",5.4,"",2.8,"",8.4,"",10.2,"",91.6,"",992.3,"",1011.2,"",.0,"",.1,""
"352220385","SIEDLCE","2013","11","03",7.8,"",3.6,"",12.1,"",12.9,"",91.5,"",983.6,"",1002.1,"",3.5,"",4.2,""
"352220385","SIEDLCE","2013","11","04",5.9,"",4.8,"",7.8,"",8.6,"",81.5,"",983.7,"",1002.4,"",.0,"",.0,""
"352220385","SIEDLCE","2013","11","05",7.6,"",2.5,"",8.6,"",10.4,"",93.1,"",978.4,"",996.9,"",2.9,"",7.4,""
"352220385","SIEDLCE","2013","11","06",7.5,"",2.3,"",5.8,"",8.8,"",95.9,"",979.6,"",998.3,"",.1,"",.0,""
"352220385","SIEDLCE","2013","11","07",7.3,"",3.6,"",7.7,"",10.1,"",95.0,"",987.5,"",1006.3,"",1.0,"",.0,""
"352220385","SIEDLCE","2013","11","08",7.9,"",1.9,"",8.9,"",11.3,"",99.5,"",992.8,"",1011.7,"",2.3,"",.3,""
"352220385","SIEDLCE","2013","11","09",6.9,"",2.8,"",10.5,"",11.8,"",93.5,"",991.7,"",1010.4,"",.8,"",.0,""
"352220385","SIEDLCE","2013","11","10",6.4,"",1.8,"",5.9,"",8.9,"",95.4,"",991.0,"",1010.0,"",.2,"",.0,""
"352220385","SIEDLCE","2013","11","11",6.0,"",1.0,"",2.7,"",7.3,"",97.8,"",1004.6,"",1024.1,"",.0,"",.0,""
"352220385","SIEDLCE","2013","11","12",7.0,"",2.0,"",4.6,"",7.7,"",91.4,"",1011.2,"",1030.7,"",.0,"",.0,""
"352220385","SIEDLCE","2013","11","13",7.8,"",2.0,"",4.5,"",8.0,"",95.5,"",1005.3,"",1024.6,"",.3,"",.0,""
"352220385","SIEDLCE","2013","11","14",7.0,"",2.0,"",2.7,"",7.3,"",98.8,"",1006.0,"",1025.5,"",.0,"",.0,""
"352220385","SIEDLCE","2013","11","15",5.5,"",1.4,"",1.8,"",6.1,"",88.4,"",1008.9,"",1028.5,"",.0,"",.0,""
"352220385","SIEDLCE","2013","11","16",7.9,"",3.8,"",3.0,"",7.2,"",94.8,"",1005.9,"",1025.4,"",.0,"",.0,""
"352220385","SIEDLCE","2013","11","17",8.0,"",3.1,"",4.5,"",8.4,"",99.9,"",1004.5,"",1023.8,"",.0,"",.0,""
"352220385","SIEDLCE","2013","11","18",7.3,"",3.9,"",5.2,"",8.0,"",90.9,"",1003.3,"",1022.6,"",.0,"",.0,""
"352220385","SIEDLCE","2013","11","19",3.9,"",3.6,"",4.7,"",7.8,"",90.9,"",993.9,"",1013.0,"",.0,"",.0,""
"352220385","SIEDLCE","2013","11","20",6.0,"",3.5,"",5.9,"",8.5,"",91.5,"",986.4,"",1005.3,"",.1,"",1.2,""
"352220385","SIEDLCE","2013","11","21",7.8,"",1.3,"",7.0,"",9.8,"",98.5,"",986.8,"",1005.6,"",.9,"",.0,""
"352220385","SIEDLCE","2013","11","22",8.0,"",1.9,"",7.5,"",10.4,"",100.0,"",990.5,"",1009.4,"",.0,"",.1,""
"352220385","SIEDLCE","2013","11","23",8.0,"",1.5,"",8.7,"",11.2,"",100.0,"",994.5,"",1013.4,"",.1,"",.0,""
"352220385","SIEDLCE","2013","11","24",8.0,"",1.4,"",6.2,"",9.5,"",100.0,"",991.2,"",1010.2,"",.2,"",4.0,""
"352220385","SIEDLCE","2013","11","25",4.0,"",4.8,"",1.1,"",5.7,"",85.8,"",992.4,"",1011.7,"",.0,"",.0,""
"352220385","SIEDLCE","2013","11","26",4.6,"",3.4,"",-.9,"",5.0,"",87.3,"",1003.6,"",1023.3,"",.0,"",.0,""
"352220385","SIEDLCE","2013","11","27",5.5,"",3.9,"",-3.5,"",4.6,"",96.0,"",1008.3,"",1028.3,"",.0,"",.0,""
"352220385","SIEDLCE","2013","11","28",6.6,"",5.8,"",2.9,"",7.0,"",92.5,"",994.9,"",1014.1,"",.2,"",.1,""
"352220385","SIEDLCE","2013","11","29",7.0,"",3.3,"",2.7,"",6.6,"",89.4,"",994.2,"",1013.5,"",.1,"",1.2,""
"352220385","SIEDLCE","2013","11","30",8.0,"",3.5,"",1.9,"",7.0,"",99.1,"",993.9,"",1013.2,"",4.2,"",.0,""
"352220385","SIEDLCE","2013","12","01",7.5,"",5.9,"",3.6,"",7.5,"",94.1,"",997.4,"",1016.7,"",.1,"",.1,""
"352220385","SIEDLCE","2013","12","02",4.6,"",3.1,"",1.7,"",5.6,"",80.8,"",1009.1,"",1028.8,"",.0,"",.0,""
"352220385","SIEDLCE","2013","12","03",4.9,"",2.9,"",-.8,"",5.1,"",89.3,"",1011.7,"",1031.6,"",.0,"",.0,""
"352220385","SIEDLCE","2013","12","04",6.1,"",4.6,"",-.4,"",5.2,"",88.1,"",998.5,"",1018.0,"",.0,"",.8,""
"352220385","SIEDLCE","2013","12","05",7.9,"",5.6,"",1.9,"",6.3,"",90.4,"",991.7,"",1011.0,"",.0,"",4.3,""
"352220385","SIEDLCE","2013","12","06",7.6,"",8.4,"",-.1,"",5.5,"",91.0,"",971.7,"",990.7,"",.4,"",.1,""
"352220385","SIEDLCE","2013","12","07",7.8,"",6.1,"",-.2,"",5.0,"",83.3,"",982.6,"",1001.8,"",.4,"",.0,""
"352220385","SIEDLCE","2013","12","08",4.4,"",4.0,"",-2.5,"",4.0,"",79.0,"",998.6,"",1018.3,"",.0,"",3.6,""
"352220385","SIEDLCE","2013","12","09",7.9,"",5.5,"",.6,"",5.9,"",90.0,"",995.1,"",1014.5,"",.3,"",.0,""
"352220385","SIEDLCE","2013","12","10",6.5,"",1.9,"",-2.7,"",4.1,"",82.5,"",1016.6,"",1036.6,"",.0,"",.0,""
"352220385","SIEDLCE","2013","12","11",8.0,"",2.6,"",1.2,"",6.2,"",92.3,"",1013.1,"",1032.8,"",.0,"",.0,""
"352220385","SIEDLCE","2013","12","12",8.0,"",1.8,"",1.8,"",6.9,"",99.0,"",1009.8,"",1029.4,"",.1,"",.0,""
"352220385","SIEDLCE","2013","12","13",8.0,"",3.1,"",.8,"",6.5,"",100.0,"",1003.5,"",1023.1,"",.4,"",.1,""
"352220385","SIEDLCE","2013","12","14",8.0,"",1.6,"",1.5,"",6.8,"",100.0,"",1005.5,"",1025.0,"",.0,"",.3,""
"352220385","SIEDLCE","2013","12","15",8.0,"",3.1,"",1.3,"",6.7,"",100.0,"",1008.3,"",1028.0,"",.5,"",.9,""
"352220385","SIEDLCE","2013","12","16",6.6,"",3.4,"",3.3,"",7.8,"",99.4,"",1011.3,"",1030.8,"",.0,"",.0,""
"352220385","SIEDLCE","2013","12","17",4.0,"",3.3,"",1.4,"",5.9,"",86.8,"",1008.3,"",1027.9,"",.0,"",.0,""
"352220385","SIEDLCE","2013","12","18",7.3,"",1.9,"",.4,"",5.9,"",93.8,"",1006.7,"",1026.4,"",.0,"",.0,""
"352220385","SIEDLCE","2013","12","19",6.5,"",2.9,"",-1.5,"",5.1,"",93.3,"",999.3,"",1019.0,"",.0,"",.0,""
"352220385","SIEDLCE","2013","12","20",7.6,"",2.4,"",-.5,"",5.3,"",90.4,"",1003.2,"",1022.9,"",.0,"",2.7,""
"352220385","SIEDLCE","2013","12","21",6.5,"",4.3,"",2.6,"",6.7,"",91.6,"",1008.9,"",1028.4,"",.0,"",.0,""
"352220385","SIEDLCE","2013","12","22",5.8,"",3.8,"",2.7,"",6.3,"",84.6,"",1003.0,"",1022.4,"",.0,"",.0,""
"352220385","SIEDLCE","2013","12","23",5.4,"",4.3,"",4.6,"",7.8,"",91.8,"",999.0,"",1018.2,"",.0,"",.0,""
"352220385","SIEDLCE","2013","12","24",3.6,"",4.3,"",4.0,"",7.2,"",89.0,"",996.3,"",1015.5,"",.0,"",.0,""
"352220385","SIEDLCE","2013","12","25",1.4,"",4.9,"",6.2,"",6.4,"",68.0,"",987.4,"",1006.3,"",.0,"",.0,""
"352220385","SIEDLCE","2013","12","26",4.5,"",4.8,"",5.8,"",6.8,"",74.1,"",986.6,"",1005.5,"",.0,"",.0,""
"352220385","SIEDLCE","2013","12","27",5.1,"",3.1,"",3.4,"",7.2,"",92.6,"",991.8,"",1011.0,"",.0,"",.0,""
"352220385","SIEDLCE","2013","12","28",1.3,"",3.1,"",4.1,"",7.5,"",91.4,"",993.5,"",1012.6,"",.0,"",.0,""
"352220385","SIEDLCE","2013","12","29",6.3,"",3.4,"",5.4,"",8.1,"",91.0,"",995.0,"",1014.1,"",.0,"",.0,""
"352220385","SIEDLCE","2013","12","30",6.1,"",2.1,"",3.0,"",6.9,"",91.8,"",1008.4,"",1027.9,"",.0,"",.0,""
"352220385","SIEDLCE","2013","12","31",3.6,"",2.8,"",-1.1,"",5.7,"",99.1,"",1009.3,"",1029.1,"",.0,"",.4,""
