"354160115","USTKA","2013","01","01",7.4,"",5.9,"",5.7,"",8.0,"",87.6,"",1000.5,"",1001.9,"",.7,"",1.9,""
"354160115","USTKA","2013","01","02",7.8,"",5.9,"",4.3,"",7.8,"",93.6,"",1010.0,"",1011.5,"",.5,"",1.0,""
"354160115","USTKA","2013","01","03",7.0,"",9.4,"",5.3,"",8.5,"",95.3,"",1012.2,"",1013.6,"",3.6,"",.0,""
"354160115","USTKA","2013","01","04",5.1,"",8.3,"",4.6,"",8.1,"",95.5,"",1015.7,"",1017.2,"",.3,"",.0,""
"354160115","USTKA","2013","01","05",5.5,"",5.6,"",3.2,"",6.8,"",88.8,"",1022.4,"",1023.9,"",.0,"",.0,""
"354160115","USTKA","2013","01","06",7.3,"",2.9,"",2.1,"",6.9,"",96.8,"",1020.4,"",1021.9,"",1.2,"",.0,""
"354160115","USTKA","2013","01","07",5.0,"",2.1,"",-.7,"",5.2,"",89.5,"",1026.9,"",1028.4,"",.0,"",.0,""
"354160115","USTKA","2013","01","08",6.4,"",4.4,"",-1.5,"",5.2,"",94.4,"",1020.1,"",1021.6,"",1.6,"",.0,""
"354160115","USTKA","2013","01","09",7.8,"",3.5,"",1.8,"",6.9,"",99.3,"",1014.1,"",1015.6,"",.4,"",10.5,""
"354160115","USTKA","2013","01","10",7.9,"",8.6,"",2.2,"",7.0,"",97.4,"",998.8,"",1000.2,"",6.5,"",2.5,""
"354160115","USTKA","2013","01","11",7.1,"",8.6,"",.4,"",5.7,"",90.4,"",1004.8,"",1006.3,"",6.4,"",5.1,""
"354160115","USTKA","2013","01","12",7.8,"",4.6,"",-1.9,"",4.9,"",92.6,"",1014.1,"",1015.6,"",.9,"",.0,""
"354160115","USTKA","2013","01","13",6.4,"",3.3,"",-2.4,"",4.1,"",79.3,"",1021.5,"",1023.0,"",.0,"",.0,""
"354160115","USTKA","2013","01","14",7.0,"",3.6,"",-4.1,"",3.8,"",83.1,"",1019.2,"",1020.7,"",.3,"",3.6,""
"354160115","USTKA","2013","01","15",7.9,"",3.1,"",-5.4,"",3.8,"",93.9,"",1011.1,"",1012.6,"",.0,"",.0,""
"354160115","USTKA","2013","01","16",7.9,"",3.0,"",-3.0,"",4.7,"",94.9,"",1010.6,"",1012.1,"",1.0,"",.0,""
"354160115","USTKA","2013","01","17",7.3,"",7.0,"",-.6,"",5.1,"",86.1,"",1015.0,"",1016.5,"",.1,"",.0,""
"354160115","USTKA","2013","01","18",7.8,"",4.6,"",-1.9,"",4.4,"",82.5,"",1014.8,"",1016.3,"",.0,"",.0,""
"354160115","USTKA","2013","01","19",7.5,"",2.5,"",-4.6,"",3.7,"",84.6,"",1007.4,"",1008.9,"",.1,"",.0,""
"354160115","USTKA","2013","01","20",7.3,"",4.1,"",-2.5,"",4.4,"",86.8,"",1003.6,"",1005.1,"",.3,"",.0,""
"354160115","USTKA","2013","01","21",5.9,"",4.9,"",-5.5,"",3.4,"",83.1,"",1008.1,"",1009.6,"",.0,"",.0,""
"354160115","USTKA","2013","01","22",5.4,"",5.5,"",-5.9,"",3.3,"",84.5,"",1010.6,"",1012.1,"",.0,"",.0,""
"354160115","USTKA","2013","01","23",7.0,"",4.0,"",-4.1,"",3.7,"",81.0,"",1010.2,"",1011.7,"",.0,"",.0,""
"354160115","USTKA","2013","01","24",6.3,"",1.8,"",-3.3,"",4.0,"",83.5,"",1013.5,"",1015.0,"",.0,"",.0,""
"354160115","USTKA","2013","01","25",4.9,"",2.8,"",-4.2,"",3.7,"",82.3,"",1020.4,"",1021.9,"",.0,"",.0,""
"354160115","USTKA","2013","01","26",6.0,"",5.1,"",-8.8,"",2.8,"",87.1,"",1016.1,"",1017.6,"",.0,"",.0,""
"354160115","USTKA","2013","01","27",6.6,"",5.0,"",-5.7,"",3.6,"",88.1,"",1005.9,"",1007.4,"",.0,"",.1,""
"354160115","USTKA","2013","01","28",8.0,"",5.1,"",.2,"",6.1,"",97.6,"",1006.8,"",1008.3,"",.0,"",.0,""
"354160115","USTKA","2013","01","29",7.9,"",5.3,"",2.9,"",7.2,"",96.1,"",1003.3,"",1004.7,"",1.7,"",3.1,""
"354160115","USTKA","2013","01","30",7.6,"",7.0,"",5.1,"",8.6,"",97.8,"",995.8,"",997.2,"",3.3,"",2.4,""
"354160115","USTKA","2013","01","31",7.4,"",10.5,"",4.2,"",7.3,"",89.4,"",993.4,"",994.8,"",.9,"",2.8,""
"354160115","USTKA","2013","02","01",7.8,"",4.4,"",2.9,"",7.4,"",98.4,"",994.8,"",996.2,"",.2,"",.5,""
"354160115","USTKA","2013","02","02",7.3,"",5.0,"",1.9,"",6.8,"",96.5,"",993.8,"",995.2,"",.1,"",.0,""
"354160115","USTKA","2013","02","03",6.8,"",5.5,"",.6,"",5.7,"",90.3,"",1004.3,"",1005.8,"",.1,"",.0,""
"354160115","USTKA","2013","02","04",7.0,"",5.9,"",1.8,"",6.6,"",95.0,"",996.2,"",997.7,"",1.5,"",.3,""
"354160115","USTKA","2013","02","05",6.9,"",6.3,"",2.7,"",6.8,"",91.1,"",991.0,"",992.4,"",2.9,"",1.9,""
"354160115","USTKA","2013","02","06",7.5,"",5.8,"",1.0,"",6.1,"",93.0,"",993.6,"",995.0,"",.7,"",.2,""
"354160115","USTKA","2013","02","07",7.3,"",2.9,"",.4,"",6.2,"",98.5,"",1002.1,"",1003.6,"",.0,"",.0,""
"354160115","USTKA","2013","02","08",7.8,"",2.5,"",.1,"",6.1,"",99.6,"",1007.5,"",1009.0,"",3.7,"",.8,""
"354160115","USTKA","2013","02","09",7.1,"",2.3,"",-.8,"",5.6,"",96.9,"",1013.7,"",1015.2,"",.0,"",.0,""
"354160115","USTKA","2013","02","10",4.5,"",2.5,"",-2.9,"",4.6,"",92.4,"",1015.9,"",1017.4,"",.0,"",.0,""
"354160115","USTKA","2013","02","11",7.5,"",4.3,"",-1.7,"",4.7,"",87.1,"",1015.4,"",1016.9,"",.0,"",.2,""
"354160115","USTKA","2013","02","12",6.8,"",2.4,"",-1.2,"",5.2,"",92.8,"",1014.7,"",1016.2,"",.1,"",.0,""
"354160115","USTKA","2013","02","13",7.8,"",2.0,"",-1.1,"",5.4,"",94.9,"",1021.6,"",1023.1,"",1.1,"",.0,""
"354160115","USTKA","2013","02","14",8.0,"",1.9,"",.0,"",5.7,"",93.3,"",1024.2,"",1025.7,"",.0,"",.0,""
"354160115","USTKA","2013","02","15",8.0,"",2.4,"",1.0,"",6.0,"",92.0,"",1021.0,"",1022.5,"",.0,"",.0,""
"354160115","USTKA","2013","02","16",8.0,"",2.6,"",.4,"",5.6,"",89.1,"",1024.0,"",1025.5,"",.0,"",.0,""
"354160115","USTKA","2013","02","17",8.0,"",2.6,"",-.8,"",5.0,"",86.6,"",1025.0,"",1026.5,"",.0,"",.0,""
"354160115","USTKA","2013","02","18",8.0,"",4.9,"",.4,"",6.1,"",96.3,"",1016.9,"",1018.4,"",1.4,"",7.1,""
"354160115","USTKA","2013","02","19",7.6,"",11.0,"",.6,"",6.1,"",95.4,"",1007.9,"",1009.4,"",1.2,"",2.7,""
"354160115","USTKA","2013","02","20",7.8,"",13.0,"",-1.0,"",5.4,"",95.0,"",1018.0,"",1019.5,"",2.5,"",.3,""
"354160115","USTKA","2013","02","21",7.0,"",6.5,"",-2.3,"",4.2,"",81.6,"",1022.3,"",1023.8,"",.1,"",.0,""
"354160115","USTKA","2013","02","22",5.9,"",3.5,"",-2.2,"",4.0,"",77.3,"",1022.1,"",1023.6,"",.0,"",.0,""
"354160115","USTKA","2013","02","23",7.6,"",7.0,"",-1.0,"",5.0,"",86.8,"",1018.9,"",1020.4,"",.0,"",.7,""
"354160115","USTKA","2013","02","24",7.9,"",4.0,"",1.2,"",6.0,"",89.5,"",1018.4,"",1019.9,"",.0,"",.0,""
"354160115","USTKA","2013","02","25",7.5,"",4.9,"",1.2,"",6.0,"",89.8,"",1025.0,"",1026.5,"",.0,"",.0,""
"354160115","USTKA","2013","02","26",8.0,"",3.0,"",1.2,"",6.6,"",98.6,"",1030.8,"",1032.3,"",.0,"",.0,""
"354160115","USTKA","2013","02","27",7.0,"",3.6,"",1.0,"",6.4,"",97.0,"",1030.3,"",1031.8,"",.0,"",.0,""
"354160115","USTKA","2013","02","28",7.8,"",6.5,"",.8,"",6.2,"",95.5,"",1020.8,"",1022.3,"",.0,"",.0,""
"354160115","USTKA","2013","03","01",3.5,"",7.6,"",2.7,"",6.4,"",86.9,"",1014.1,"",1015.6,"",.0,"",.0,""
"354160115","USTKA","2013","03","02",4.9,"",6.4,"",1.8,"",6.1,"",87.3,"",1014.6,"",1016.1,"",.0,"",.2,""
"354160115","USTKA","2013","03","03",1.9,"",8.5,"",2.5,"",6.3,"",85.6,"",1011.4,"",1012.9,"",.0,"",.0,""
"354160115","USTKA","2013","03","04",2.0,"",3.9,"",2.0,"",5.6,"",81.3,"",1020.5,"",1022.0,"",.0,"",.0,""
"354160115","USTKA","2013","03","05",2.5,"",4.6,"",5.4,"",4.7,"",56.3,"",1014.8,"",1016.2,"",.0,"",.0,""
"354160115","USTKA","2013","03","06",1.4,"",4.0,"",3.3,"",6.2,"",80.8,"",1007.6,"",1009.1,"",.0,"",.0,""
"354160115","USTKA","2013","03","07",4.9,"",9.5,"",1.7,"",5.2,"",75.3,"",1011.7,"",1013.2,"",.0,"",.0,""
"354160115","USTKA","2013","03","08",6.5,"",5.4,"",.2,"",3.0,"",49.6,"",1014.1,"",1015.6,"",.0,"",.0,""
"354160115","USTKA","2013","03","09",4.9,"",7.1,"",-1.4,"",3.4,"",61.9,"",1011.0,"",1012.5,"",.0,"",.0,""
"354160115","USTKA","2013","03","10",7.5,"",9.3,"",-3.5,"",3.5,"",74.6,"",1007.7,"",1009.2,"",.2,"",.1,""
"354160115","USTKA","2013","03","11",7.3,"",7.5,"",-3.8,"",3.6,"",78.1,"",1007.3,"",1008.8,"",.1,"",.0,""
"354160115","USTKA","2013","03","12",4.4,"",3.0,"",-3.5,"",3.4,"",72.9,"",1005.3,"",1006.8,"",.0,"",.0,""
"354160115","USTKA","2013","03","13",1.0,"",3.0,"",-4.6,"",3.2,"",74.3,"",1004.4,"",1005.9,"",.0,"",.0,""
"354160115","USTKA","2013","03","14",4.0,"",2.6,"",-2.8,"",4.0,"",80.0,"",1008.4,"",1009.9,"",.0,"",.1,""
"354160115","USTKA","2013","03","15",3.9,"",5.6,"",-1.7,"",4.2,"",78.5,"",1012.3,"",1013.8,"",.1,"",.0,""
"354160115","USTKA","2013","03","16",1.1,"",3.3,"",-1.3,"",3.2,"",57.4,"",1018.0,"",1019.5,"",.0,"",.0,""
"354160115","USTKA","2013","03","17",.6,"",4.4,"",-1.5,"",2.4,"",45.6,"",1017.8,"",1019.3,"",.0,"",.0,""
"354160115","USTKA","2013","03","18",4.9,"",6.1,"",-.7,"",1.9,"",33.0,"",1009.0,"",1010.5,"",.0,"",2.5,""
"354160115","USTKA","2013","03","19",8.0,"",6.9,"",-2.7,"",4.8,"",95.6,"",997.6,"",999.1,"",6.8,"",2.7,""
"354160115","USTKA","2013","03","20",8.0,"",3.9,"",-1.9,"",5.0,"",93.4,"",1005.2,"",1006.7,"",.4,"",.0,""
"354160115","USTKA","2013","03","21",7.9,"",5.1,"",-1.8,"",4.8,"",89.1,"",1015.0,"",1016.5,"",.1,"",1.1,""
"354160115","USTKA","2013","03","22",6.9,"",9.4,"",-2.9,"",3.8,"",77.4,"",1023.2,"",1024.7,"",.0,"",.0,""
"354160115","USTKA","2013","03","23",4.1,"",4.1,"",-4.2,"",3.3,"",72.6,"",1028.8,"",1030.3,"",.0,"",.2,""
"354160115","USTKA","2013","03","24",4.6,"",4.4,"",-3.3,"",4.0,"",84.0,"",1027.2,"",1028.7,"",.1,"",.0,""
"354160115","USTKA","2013","03","25",4.8,"",5.5,"",-.8,"",4.4,"",76.5,"",1025.1,"",1026.6,"",.0,"",.0,""
"354160115","USTKA","2013","03","26",2.3,"",6.5,"",-.5,"",4.6,"",77.4,"",1020.1,"",1021.6,"",.0,"",.0,""
"354160115","USTKA","2013","03","27",4.5,"",4.6,"",-.1,"",4.7,"",77.8,"",1019.4,"",1020.9,"",.0,"",.0,""
"354160115","USTKA","2013","03","28",7.3,"",4.5,"",.8,"",3.6,"",57.4,"",1017.7,"",1019.2,"",.0,"",.0,""
"354160115","USTKA","2013","03","29",7.4,"",3.6,"",.3,"",5.1,"",83.1,"",1007.1,"",1008.6,"",3.0,"",1.9,""
"354160115","USTKA","2013","03","30",8.0,"",4.4,"",.1,"",5.9,"",96.5,"",1003.8,"",1005.3,"",.1,"",.5,""
"354160115","USTKA","2013","03","31",7.4,"",6.1,"",.1,"",5.5,"",89.6,"",1009.6,"",1011.1,"",.0,"",.0,""
"354160115","USTKA","2013","04","01",7.8,"",10.3,"",.7,"",5.8,"",89.4,"",1007.6,"",1009.1,"",.3,"",.0,""
"354160115","USTKA","2013","04","02",3.0,"",5.5,"",1.0,"",5.2,"",79.5,"",1016.0,"",1017.5,"",.0,"",.0,""
"354160115","USTKA","2013","04","03",1.3,"",6.4,"",.4,"",5.7,"",89.9,"",1021.1,"",1022.6,"",.0,"",.0,""
"354160115","USTKA","2013","04","04",6.1,"",7.8,"",1.2,"",6.1,"",91.8,"",1015.2,"",1016.7,"",.0,"",.4,""
"354160115","USTKA","2013","04","05",7.8,"",8.9,"",1.5,"",6.5,"",94.9,"",1010.9,"",1012.4,"",.0,"",.0,""
"354160115","USTKA","2013","04","06",5.0,"",5.5,"",1.8,"",6.1,"",88.1,"",1015.8,"",1017.3,"",.0,"",.0,""
"354160115","USTKA","2013","04","07",3.0,"",5.9,"",1.5,"",6.1,"",89.4,"",1015.7,"",1017.2,"",.0,"",2.2,""
"354160115","USTKA","2013","04","08",4.0,"",4.0,"",1.7,"",6.1,"",87.8,"",1011.8,"",1013.3,"",.0,"",.0,""
"354160115","USTKA","2013","04","09",3.3,"",4.1,"",2.0,"",3.6,"",54.1,"",1012.2,"",1013.6,"",.0,"",.0,""
"354160115","USTKA","2013","04","10",5.4,"",3.9,"",3.0,"",5.6,"",74.3,"",1009.4,"",1010.9,"",.0,"",.0,""
"354160115","USTKA","2013","04","11",7.9,"",3.6,"",5.9,"",7.6,"",81.1,"",1005.7,"",1007.2,"",.1,"",2.7,""
"354160115","USTKA","2013","04","12",7.9,"",4.0,"",6.4,"",9.4,"",97.6,"",998.9,"",1000.3,"",10.1,"",.0,""
"354160115","USTKA","2013","04","13",7.0,"",4.3,"",5.4,"",8.6,"",95.3,"",1009.4,"",1010.8,"",.1,"",.0,""
"354160115","USTKA","2013","04","14",5.5,"",3.5,"",5.8,"",7.4,"",80.8,"",1025.5,"",1027.0,"",.0,"",.0,""
"354160115","USTKA","2013","04","15",4.3,"",6.0,"",11.8,"",7.4,"",56.9,"",1023.1,"",1024.5,"",.0,"",.0,""
"354160115","USTKA","2013","04","16",6.9,"",5.3,"",12.0,"",9.5,"",68.8,"",1018.2,"",1019.6,"",.1,"",.7,""
"354160115","USTKA","2013","04","17",5.3,"",3.8,"",10.4,"",10.3,"",81.3,"",1019.1,"",1020.5,"",.0,"",.0,""
"354160115","USTKA","2013","04","18",5.3,"",5.4,"",14.0,"",10.4,"",67.5,"",1012.1,"",1013.5,"",.2,"",.0,""
"354160115","USTKA","2013","04","19",4.8,"",6.5,"",9.2,"",8.2,"",71.0,"",1017.0,"",1018.4,"",.0,"",.0,""
"354160115","USTKA","2013","04","20",2.0,"",4.3,"",5.2,"",7.7,"",87.1,"",1027.2,"",1028.7,"",.0,"",.0,""
"354160115","USTKA","2013","04","21",1.0,"",4.1,"",6.7,"",6.2,"",67.6,"",1024.7,"",1026.2,"",.0,"",.0,""
"354160115","USTKA","2013","04","22",4.3,"",4.1,"",10.4,"",6.3,"",51.0,"",1014.4,"",1015.8,"",.0,"",.0,""
"354160115","USTKA","2013","04","23",5.6,"",7.5,"",9.8,"",8.0,"",68.1,"",1012.7,"",1014.1,"",.0,"",.0,""
"354160115","USTKA","2013","04","24",5.0,"",7.6,"",9.6,"",8.3,"",72.1,"",1019.4,"",1020.9,"",.0,"",.0,""
"354160115","USTKA","2013","04","25",4.5,"",4.4,"",7.9,"",8.4,"",79.1,"",1020.2,"",1021.7,"",.0,"",.8,""
"354160115","USTKA","2013","04","26",7.4,"",5.5,"",9.9,"",10.4,"",85.5,"",1007.5,"",1008.9,"",.0,"",10.9,""
"354160115","USTKA","2013","04","27",7.6,"",5.6,"",5.4,"",8.7,"",96.0,"",1005.7,"",1007.1,"",.0,"",.0,""
"354160115","USTKA","2013","04","28",5.4,"",3.1,"",5.0,"",8.0,"",92.3,"",1013.0,"",1014.4,"",.0,"",.0,""
"354160115","USTKA","2013","04","29",5.6,"",4.4,"",8.7,"",8.3,"",74.3,"",1013.5,"",1014.9,"",.0,"",.0,""
"354160115","USTKA","2013","04","30",4.8,"",5.9,"",8.2,"",8.0,"",74.0,"",1019.6,"",1021.0,"",.0,"",.0,""
"354160115","USTKA","2013","05","01",2.5,"",2.5,"",6.8,"",7.3,"",74.5,"",1025.0,"",1026.5,"",.0,"",.0,""
"354160115","USTKA","2013","05","02",3.9,"",3.4,"",6.0,"",7.0,"",75.3,"",1022.2,"",1023.7,"",.0,"",.0,""
"354160115","USTKA","2013","05","03",3.3,"",4.8,"",6.1,"",7.7,"",82.1,"",1017.9,"",1019.3,"",.0,"",.0,""
"354160115","USTKA","2013","05","04",1.5,"",2.1,"",8.3,"",8.2,"",75.3,"",1015.6,"",1017.1,"",.0,"",.0,""
"354160115","USTKA","2013","05","05",.8,"",5.1,"",10.4,"",9.2,"",72.6,"",1021.0,"",1022.4,"",.0,"",.0,""
"354160115","USTKA","2013","05","06",2.3,"",3.8,"",10.2,"",9.9,"",80.1,"",1023.5,"",1024.9,"",.0,"",.0,""
"354160115","USTKA","2013","05","07",5.1,"",4.8,"",11.8,"",10.1,"",73.8,"",1019.0,"",1020.4,"",.0,"",.0,""
"354160115","USTKA","2013","05","08",6.4,"",3.9,"",18.6,"",13.2,"",65.5,"",1013.6,"",1015.0,"",.0,"",.7,""
"354160115","USTKA","2013","05","09",5.0,"",3.1,"",16.8,"",15.3,"",80.1,"",1010.7,"",1012.1,"",.1,"",.2,""
"354160115","USTKA","2013","05","10",7.6,"",2.1,"",12.3,"",13.9,"",97.3,"",1010.2,"",1011.6,"",3.6,"",.0,""
"354160115","USTKA","2013","05","11",5.4,"",3.4,"",12.0,"",10.9,"",77.9,"",1012.9,"",1014.3,"",.0,"",.0,""
"354160115","USTKA","2013","05","12",7.4,"",2.9,"",11.4,"",12.1,"",90.3,"",1010.7,"",1012.1,"",.0,"",.0,""
"354160115","USTKA","2013","05","13",4.9,"",3.3,"",11.1,"",10.6,"",81.0,"",1011.0,"",1012.4,"",.0,"",.0,""
"354160115","USTKA","2013","05","14",5.9,"",3.9,"",11.9,"",9.4,"",68.0,"",1009.6,"",1011.0,"",.0,"",.0,""
"354160115","USTKA","2013","05","15",2.8,"",4.8,"",17.5,"",10.0,"",52.0,"",1008.8,"",1010.2,"",.0,"",.0,""
"354160115","USTKA","2013","05","16",1.1,"",4.5,"",20.3,"",12.1,"",53.6,"",1004.8,"",1006.1,"",.0,"",.0,""
"354160115","USTKA","2013","05","17",1.1,"",3.6,"",23.2,"",13.0,"",49.5,"",1003.8,"",1005.2,"",.0,"",.0,""
"354160115","USTKA","2013","05","18",3.6,"",4.0,"",21.7,"",13.5,"",55.9,"",1005.4,"",1006.7,"",.0,"",6.0,""
"354160115","USTKA","2013","05","19",5.3,"",3.6,"",13.6,"",13.5,"",87.3,"",1008.3,"",1009.7,"",.0,"",.0,""
"354160115","USTKA","2013","05","20",4.5,"",2.9,"",16.8,"",14.9,"",80.0,"",1006.2,"",1007.6,"",8.1,"",5.2,""
"354160115","USTKA","2013","05","21",6.1,"",3.3,"",13.8,"",14.1,"",89.4,"",1006.1,"",1007.5,"",.7,"",.0,""
"354160115","USTKA","2013","05","22",5.0,"",4.4,"",14.5,"",11.4,"",71.8,"",1000.8,"",1002.2,"",.0,"",.4,""
"354160115","USTKA","2013","05","23",4.9,"",5.8,"",9.9,"",8.8,"",72.5,"",1005.4,"",1006.8,"",.0,"",.0,""
"354160115","USTKA","2013","05","24",6.1,"",3.0,"",8.8,"",10.2,"",89.6,"",1008.0,"",1009.4,"",.0,"",12.8,""
"354160115","USTKA","2013","05","25",8.0,"",7.5,"",10.6,"",12.6,"",98.4,"",1002.4,"",1003.8,"",.0,"",7.8,""
"354160115","USTKA","2013","05","26",6.0,"",3.8,"",12.1,"",11.9,"",84.9,"",1001.4,"",1002.8,"",.0,"",.0,""
"354160115","USTKA","2013","05","27",6.3,"",4.0,"",11.5,"",12.5,"",92.1,"",1005.3,"",1006.7,"",.0,"",.1,""
"354160115","USTKA","2013","05","28",6.5,"",5.0,"",14.1,"",12.6,"",80.0,"",1001.8,"",1003.2,"",.0,"",.0,""
"354160115","USTKA","2013","05","29",5.8,"",3.5,"",16.2,"",12.8,"",70.6,"",1001.9,"",1003.3,"",.0,"",.0,""
"354160115","USTKA","2013","05","30",3.6,"",5.8,"",11.2,"",11.9,"",89.6,"",1004.5,"",1005.9,"",.0,"",.0,""
"354160115","USTKA","2013","05","31",6.1,"",5.8,"",10.0,"",11.7,"",95.0,"",1002.2,"",1003.6,"",.0,"",.0,""
"354160115","USTKA","2013","06","01",7.9,"",4.0,"",10.1,"",12.3,"",99.6,"",1004.3,"",1005.7,"",1.8,"",.0,""
"354160115","USTKA","2013","06","02",7.1,"",3.5,"",11.3,"",12.8,"",95.9,"",1009.9,"",1011.3,"",.0,"",.0,""
"354160115","USTKA","2013","06","03",7.3,"",3.8,"",11.9,"",12.8,"",92.3,"",1015.2,"",1016.6,"",.0,"",.9,""
"354160115","USTKA","2013","06","04",5.5,"",6.9,"",10.7,"",12.0,"",93.6,"",1017.5,"",1018.9,"",.5,"",.0,""
"354160115","USTKA","2013","06","05",3.4,"",3.8,"",10.9,"",11.9,"",91.6,"",1020.9,"",1022.3,"",.0,"",.0,""
"354160115","USTKA","2013","06","06",5.1,"",2.5,"",12.4,"",12.7,"",88.8,"",1021.6,"",1023.0,"",.0,"",.0,""
"354160115","USTKA","2013","06","07",.9,"",2.0,"",14.2,"",12.7,"",79.6,"",1020.0,"",1021.4,"",.0,"",.0,""
"354160115","USTKA","2013","06","08",1.0,"",2.6,"",14.7,"",13.4,"",80.4,"",1015.4,"",1016.8,"",.0,"",.0,""
"354160115","USTKA","2013","06","09",1.5,"",3.1,"",13.9,"",13.4,"",84.9,"",1010.4,"",1011.8,"",.0,"",.0,""
"354160115","USTKA","2013","06","10",4.3,"",3.1,"",13.4,"",13.1,"",85.4,"",1008.1,"",1009.5,"",.0,"",.0,""
"354160115","USTKA","2013","06","11",1.8,"",3.5,"",14.5,"",14.0,"",84.3,"",1013.0,"",1014.4,"",.0,"",.0,""
"354160115","USTKA","2013","06","12",3.3,"",3.3,"",15.7,"",14.2,"",81.0,"",1017.7,"",1019.1,"",.0,"",.0,""
"354160115","USTKA","2013","06","13",7.0,"",4.3,"",20.9,"",15.0,"",61.3,"",1012.8,"",1014.2,"",.0,"",.3,""
"354160115","USTKA","2013","06","14",5.9,"",6.8,"",16.2,"",14.5,"",79.1,"",1013.1,"",1014.5,"",1.3,"",.0,""
"354160115","USTKA","2013","06","15",5.4,"",4.8,"",17.1,"",13.2,"",70.4,"",1014.1,"",1015.5,"",.0,"",.5,""
"354160115","USTKA","2013","06","16",5.5,"",4.6,"",15.7,"",12.6,"",71.9,"",1012.2,"",1013.6,"",.0,"",.0,""
"354160115","USTKA","2013","06","17",3.3,"",4.4,"",14.9,"",12.5,"",74.5,"",1017.0,"",1018.4,"",.0,"",.1,""
"354160115","USTKA","2013","06","18",4.0,"",3.0,"",16.4,"",13.8,"",74.5,"",1017.1,"",1018.5,"",.0,"",.0,""
"354160115","USTKA","2013","06","19",5.0,"",3.5,"",18.1,"",15.9,"",75.6,"",1017.2,"",1018.6,"",.0,"",.0,""
"354160115","USTKA","2013","06","20",4.9,"",2.4,"",21.4,"",18.8,"",74.6,"",1012.2,"",1013.6,"",.0,"",.0,""
"354160115","USTKA","2013","06","21",4.9,"",3.9,"",20.8,"",19.8,"",81.1,"",1008.5,"",1009.9,"",.0,"",.0,""
"354160115","USTKA","2013","06","22",2.8,"",3.8,"",19.6,"",15.6,"",68.9,"",1012.4,"",1013.8,"",.0,"",.0,""
"354160115","USTKA","2013","06","23",5.1,"",3.5,"",19.8,"",16.7,"",73.4,"",1010.1,"",1011.5,"",.0,"",.2,""
"354160115","USTKA","2013","06","24",3.9,"",3.3,"",18.8,"",16.1,"",75.0,"",1014.6,"",1016.0,"",.0,"",.0,""
"354160115","USTKA","2013","06","25",7.3,"",9.1,"",16.8,"",16.4,"",85.8,"",1013.5,"",1014.9,"",14.3,"",2.6,""
"354160115","USTKA","2013","06","26",7.9,"",7.8,"",14.9,"",15.5,"",91.4,"",1012.2,"",1013.6,"",2.1,"",.9,""
"354160115","USTKA","2013","06","27",5.3,"",4.4,"",13.8,"",12.4,"",79.1,"",1018.8,"",1020.2,"",.0,"",.0,""
"354160115","USTKA","2013","06","28",2.8,"",4.1,"",15.4,"",12.2,"",70.8,"",1018.6,"",1020.0,"",.0,"",.0,""
"354160115","USTKA","2013","06","29",5.6,"",3.9,"",15.4,"",13.3,"",76.9,"",1012.7,"",1014.1,"",.0,"",1.8,""
"354160115","USTKA","2013","06","30",6.6,"",6.8,"",13.1,"",11.7,"",78.6,"",1013.6,"",1015.0,"",6.7,"",4.3,""
"354160115","USTKA","2013","07","01",5.8,"",5.0,"",15.4,"",13.9,"",80.3,"",1012.1,"",1013.5,"",.0,"",2.4,""
"354160115","USTKA","2013","07","02",5.6,"",3.3,"",15.6,"",15.5,"",87.6,"",1013.7,"",1015.1,"",3.0,"",.0,""
"354160115","USTKA","2013","07","03",4.1,"",3.3,"",18.8,"",15.9,"",74.9,"",1012.9,"",1014.3,"",.0,"",.0,""
"354160115","USTKA","2013","07","04",5.6,"",3.8,"",20.6,"",18.5,"",77.3,"",1015.9,"",1017.3,"",.9,"",.0,""
"354160115","USTKA","2013","07","05",5.1,"",4.0,"",17.9,"",17.8,"",86.9,"",1023.4,"",1024.8,"",.0,"",.0,""
"354160115","USTKA","2013","07","06",2.5,"",4.4,"",17.7,"",15.8,"",78.8,"",1027.7,"",1029.1,"",.0,"",.0,""
"354160115","USTKA","2013","07","07",2.6,"",2.9,"",17.3,"",16.5,"",84.8,"",1029.0,"",1030.4,"",.0,"",.0,""
"354160115","USTKA","2013","07","08",1.9,"",3.8,"",17.9,"",16.9,"",83.1,"",1027.7,"",1029.1,"",.0,"",.0,""
"354160115","USTKA","2013","07","09",4.0,"",2.9,"",17.5,"",16.7,"",83.9,"",1022.7,"",1024.1,"",.0,"",.0,""
"354160115","USTKA","2013","07","10",5.8,"",7.0,"",16.8,"",16.1,"",84.4,"",1012.1,"",1013.5,"",.4,"",1.8,""
"354160115","USTKA","2013","07","11",4.9,"",7.8,"",18.1,"",17.6,"",85.4,"",1011.0,"",1012.4,"",.0,"",.1,""
"354160115","USTKA","2013","07","12",5.6,"",8.8,"",18.3,"",16.3,"",78.1,"",1015.9,"",1017.3,"",.0,"",.0,""
"354160115","USTKA","2013","07","13",3.8,"",5.1,"",17.9,"",15.6,"",76.4,"",1015.7,"",1017.1,"",.0,"",.0,""
"354160115","USTKA","2013","07","14",5.9,"",8.3,"",17.5,"",16.3,"",81.6,"",1013.9,"",1015.3,"",.0,"",.0,""
"354160115","USTKA","2013","07","15",4.6,"",7.3,"",17.7,"",16.1,"",79.4,"",1015.5,"",1016.9,"",.0,"",.0,""
"354160115","USTKA","2013","07","16",6.1,"",7.9,"",17.7,"",17.2,"",85.0,"",1018.4,"",1019.8,"",.0,"",.0,""
"354160115","USTKA","2013","07","17",2.9,"",5.1,"",18.1,"",17.6,"",85.3,"",1019.8,"",1021.2,"",.0,"",.0,""
"354160115","USTKA","2013","07","18",1.8,"",6.8,"",18.9,"",17.4,"",80.4,"",1019.4,"",1020.8,"",.0,"",.0,""
"354160115","USTKA","2013","07","19",6.6,"",6.9,"",18.5,"",18.0,"",84.8,"",1015.0,"",1016.4,"",.0,"",.0,""
"354160115","USTKA","2013","07","20",2.6,"",3.8,"",18.2,"",13.8,"",67.3,"",1019.4,"",1020.8,"",.0,"",.0,""
"354160115","USTKA","2013","07","21",.3,"",4.8,"",18.4,"",16.4,"",77.3,"",1018.8,"",1020.2,"",.0,"",.0,""
"354160115","USTKA","2013","07","22",1.8,"",4.9,"",18.3,"",16.3,"",78.9,"",1017.2,"",1018.6,"",.0,"",.0,""
"354160115","USTKA","2013","07","23",2.8,"",5.3,"",17.7,"",14.4,"",71.6,"",1015.9,"",1017.3,"",.0,"",.0,""
"354160115","USTKA","2013","07","24",2.3,"",3.6,"",19.5,"",16.6,"",74.0,"",1014.8,"",1016.2,"",.0,"",.0,""
"354160115","USTKA","2013","07","25",7.3,"",2.3,"",18.5,"",17.4,"",82.0,"",1015.2,"",1016.6,"",.0,"",.0,""
"354160115","USTKA","2013","07","26",3.4,"",3.1,"",19.4,"",18.4,"",82.4,"",1014.2,"",1015.6,"",.0,"",.0,""
"354160115","USTKA","2013","07","27",4.3,"",3.8,"",20.4,"",18.9,"",78.9,"",1011.4,"",1012.8,"",.0,"",.0,""
"354160115","USTKA","2013","07","28",5.9,"",3.3,"",25.5,"",19.9,"",62.4,"",1009.6,"",1011.0,"",.0,"",.1,""
"354160115","USTKA","2013","07","29",6.6,"",3.3,"",21.4,"",22.8,"",89.8,"",1011.5,"",1012.8,"",4.7,"",9.6,""
"354160115","USTKA","2013","07","30",5.5,"",5.5,"",19.1,"",19.8,"",89.5,"",1009.9,"",1011.3,"",2.5,"",.0,""
"354160115","USTKA","2013","07","31",3.4,"",5.6,"",18.7,"",17.3,"",80.6,"",1011.7,"",1013.1,"",.4,"",.0,""
"354160115","USTKA","2013","08","01",4.1,"",3.6,"",18.4,"",16.5,"",78.9,"",1016.0,"",1017.4,"",.0,"",.0,""
"354160115","USTKA","2013","08","02",3.5,"",3.1,"",20.1,"",18.5,"",79.0,"",1016.3,"",1017.7,"",.0,"",.0,""
"354160115","USTKA","2013","08","03",1.0,"",3.4,"",24.4,"",17.9,"",60.1,"",1015.3,"",1016.7,"",.0,"",21.2,""
"354160115","USTKA","2013","08","04",5.8,"",3.1,"",20.6,"",20.3,"",83.6,"",1019.8,"",1021.2,"",.0,"",.0,""
"354160115","USTKA","2013","08","05",2.6,"",3.4,"",20.2,"",17.9,"",76.6,"",1019.8,"",1021.2,"",.0,"",.0,""
"354160115","USTKA","2013","08","06",4.9,"",3.3,"",23.6,"",19.2,"",67.1,"",1014.2,"",1015.6,"",.0,"",.0,""
"354160115","USTKA","2013","08","07",4.3,"",4.3,"",20.9,"",21.2,"",86.0,"",1013.1,"",1014.4,"",1.8,"",.0,""
"354160115","USTKA","2013","08","08",5.4,"",3.1,"",20.9,"",21.2,"",86.0,"",1011.7,"",1013.1,"",3.2,"",.1,""
"354160115","USTKA","2013","08","09",5.5,"",4.8,"",19.3,"",17.1,"",76.4,"",1016.5,"",1017.9,"",.0,"",.0,""
"354160115","USTKA","2013","08","10",5.0,"",2.3,"",18.6,"",16.2,"",76.8,"",1015.2,"",1016.6,"",.0,"",.7,""
"354160115","USTKA","2013","08","11",6.0,"",5.3,"",16.5,"",15.7,"",84.0,"",1012.0,"",1013.4,"",4.1,"",9.2,""
"354160115","USTKA","2013","08","12",5.6,"",5.6,"",16.9,"",14.0,"",74.1,"",1011.5,"",1012.9,"",.0,"",4.3,""
"354160115","USTKA","2013","08","13",6.6,"",4.8,"",14.7,"",14.2,"",85.4,"",1009.6,"",1011.0,"",6.9,"",32.8,""
"354160115","USTKA","2013","08","14",6.1,"",7.6,"",14.7,"",14.2,"",85.5,"",1012.7,"",1014.1,"",12.7,"",3.9,""
"354160115","USTKA","2013","08","15",4.4,"",5.9,"",16.8,"",13.7,"",72.1,"",1020.0,"",1021.4,"",.0,"",.0,""
"354160115","USTKA","2013","08","16",4.0,"",3.4,"",18.3,"",13.3,"",65.0,"",1019.2,"",1020.6,"",.0,"",.0,""
"354160115","USTKA","2013","08","17",4.6,"",3.8,"",20.9,"",13.3,"",55.6,"",1014.6,"",1015.9,"",.0,"",.0,""
"354160115","USTKA","2013","08","18",5.6,"",4.0,"",20.5,"",17.1,"",73.9,"",1011.2,"",1012.6,"",.0,"",.8,""
"354160115","USTKA","2013","08","19",6.8,"",3.5,"",18.9,"",19.2,"",88.4,"",1013.6,"",1014.9,"",2.0,"",1.6,""
"354160115","USTKA","2013","08","20",6.6,"",5.6,"",18.8,"",17.0,"",79.0,"",1020.4,"",1021.8,"",.0,"",.0,""
"354160115","USTKA","2013","08","21",4.9,"",4.8,"",18.2,"",13.9,"",66.8,"",1023.7,"",1025.1,"",.0,"",.0,""
"354160115","USTKA","2013","08","22",5.8,"",4.1,"",17.1,"",15.5,"",79.4,"",1020.9,"",1022.3,"",.0,"",.0,""
"354160115","USTKA","2013","08","23",2.4,"",7.8,"",17.8,"",14.7,"",72.0,"",1021.9,"",1023.3,"",.0,"",.0,""
"354160115","USTKA","2013","08","24",2.6,"",5.3,"",15.6,"",13.9,"",78.9,"",1019.6,"",1021.0,"",.0,"",.0,""
"354160115","USTKA","2013","08","25",1.8,"",4.8,"",16.3,"",11.5,"",63.3,"",1018.6,"",1020.0,"",.0,"",.0,""
"354160115","USTKA","2013","08","26",2.0,"",5.5,"",15.8,"",13.4,"",74.3,"",1020.7,"",1022.1,"",.0,"",.0,""
"354160115","USTKA","2013","08","27",4.3,"",5.0,"",16.7,"",16.6,"",87.1,"",1018.8,"",1020.2,"",.0,"",.0,""
"354160115","USTKA","2013","08","28",1.8,"",2.5,"",17.7,"",17.0,"",84.5,"",1017.0,"",1018.4,"",.0,"",.0,""
"354160115","USTKA","2013","08","29",3.3,"",3.6,"",16.3,"",16.0,"",86.9,"",1018.5,"",1019.9,"",.0,"",.0,""
"354160115","USTKA","2013","08","30",3.6,"",3.4,"",17.3,"",15.2,"",78.6,"",1016.8,"",1018.2,"",.0,"",.0,""
"354160115","USTKA","2013","08","31",7.1,"",5.3,"",17.8,"",16.4,"",80.4,"",1012.9,"",1014.3,"",.1,"",1.7,""
"354160115","USTKA","2013","09","01",5.9,"",9.3,"",16.1,"",12.3,"",67.4,"",1014.0,"",1015.4,"",.8,"",11.7,""
"354160115","USTKA","2013","09","02",6.1,"",10.8,"",15.7,"",14.9,"",83.9,"",1006.8,"",1008.2,"",10.7,"",.0,""
"354160115","USTKA","2013","09","03",1.3,"",4.5,"",15.9,"",13.1,"",72.6,"",1018.5,"",1019.9,"",.0,"",.0,""
"354160115","USTKA","2013","09","04",3.6,"",2.6,"",14.4,"",14.6,"",88.1,"",1023.2,"",1024.6,"",.0,"",.0,""
"354160115","USTKA","2013","09","05",1.3,"",2.5,"",16.6,"",13.5,"",74.9,"",1021.5,"",1022.9,"",.0,"",.0,""
"354160115","USTKA","2013","09","06",.1,"",3.5,"",17.7,"",12.3,"",64.4,"",1019.0,"",1020.4,"",.0,"",.0,""
"354160115","USTKA","2013","09","07",.3,"",4.3,"",16.4,"",14.0,"",75.4,"",1021.8,"",1023.2,"",.0,"",.0,""
"354160115","USTKA","2013","09","08",2.1,"",3.5,"",17.0,"",9.8,"",55.8,"",1022.0,"",1023.4,"",.0,"",.0,""
"354160115","USTKA","2013","09","09",5.9,"",4.0,"",16.0,"",13.2,"",73.4,"",1013.1,"",1014.5,"",2.2,"",1.9,""
"354160115","USTKA","2013","09","10",3.5,"",3.5,"",14.7,"",12.3,"",75.4,"",1013.2,"",1014.6,"",.0,"",8.6,""
"354160115","USTKA","2013","09","11",7.3,"",1.9,"",13.7,"",14.1,"",90.5,"",1011.5,"",1012.9,"",2.3,"",.0,""
"354160115","USTKA","2013","09","12",6.3,"",2.8,"",12.9,"",13.4,"",90.1,"",1013.0,"",1014.4,"",3.5,"",14.8,""
"354160115","USTKA","2013","09","13",7.1,"",6.8,"",16.3,"",17.0,"",92.0,"",1012.7,"",1014.1,"",.4,"",.0,""
"354160115","USTKA","2013","09","14",6.0,"",5.1,"",16.8,"",17.6,"",92.4,"",1010.7,"",1012.1,"",.0,"",.0,""
"354160115","USTKA","2013","09","15",7.0,"",3.4,"",15.7,"",16.1,"",91.1,"",1006.1,"",1007.5,"",6.5,"",.0,""
"354160115","USTKA","2013","09","16",6.5,"",4.4,"",13.8,"",13.9,"",88.8,"",999.3,"",1000.7,"",.1,"",.0,""
"354160115","USTKA","2013","09","17",6.6,"",5.3,"",11.7,"",11.7,"",85.6,"",998.1,"",999.5,"",4.8,"",.0,""
"354160115","USTKA","2013","09","18",6.3,"",3.5,"",11.8,"",10.4,"",77.0,"",997.3,"",998.7,"",.0,"",2.1,""
"354160115","USTKA","2013","09","19",5.9,"",4.3,"",13.0,"",11.6,"",77.8,"",1002.8,"",1004.2,"",1.2,"",1.1,""
"354160115","USTKA","2013","09","20",3.9,"",3.6,"",13.3,"",12.3,"",81.1,"",1010.0,"",1011.4,"",.0,"",.0,""
"354160115","USTKA","2013","09","21",3.5,"",5.6,"",15.1,"",12.7,"",74.5,"",1018.8,"",1020.2,"",.0,"",.1,""
"354160115","USTKA","2013","09","22",7.1,"",8.1,"",15.3,"",14.7,"",84.9,"",1016.9,"",1018.3,"",1.6,"",2.5,""
"354160115","USTKA","2013","09","23",4.5,"",7.6,"",15.2,"",12.8,"",73.9,"",1010.9,"",1012.3,"",.0,"",.0,""
"354160115","USTKA","2013","09","24",4.0,"",8.5,"",13.3,"",10.2,"",67.0,"",1010.5,"",1011.9,"",2.4,"",.0,""
"354160115","USTKA","2013","09","25",5.1,"",3.8,"",10.7,"",9.4,"",73.5,"",1012.9,"",1014.3,"",1.0,"",.2,""
"354160115","USTKA","2013","09","26",5.8,"",4.3,"",9.5,"",8.7,"",74.9,"",1011.7,"",1013.1,"",.0,"",.0,""
"354160115","USTKA","2013","09","27",5.1,"",7.1,"",11.3,"",7.4,"",55.0,"",1013.5,"",1014.9,"",.0,"",.0,""
"354160115","USTKA","2013","09","28",5.0,"",6.5,"",11.5,"",9.7,"",71.9,"",1014.1,"",1015.5,"",.9,"",.1,""
"354160115","USTKA","2013","09","29",1.9,"",4.0,"",9.5,"",9.2,"",79.4,"",1019.8,"",1021.2,"",.0,"",.0,""
"354160115","USTKA","2013","09","30",4.1,"",2.8,"",8.1,"",9.0,"",83.6,"",1019.6,"",1021.1,"",.0,"",.1,""
"354160115","USTKA","2013","10","01",5.4,"",3.9,"",8.2,"",8.9,"",82.3,"",1020.1,"",1021.5,"",.6,"",.0,""
"354160115","USTKA","2013","10","02",3.5,"",3.1,"",6.7,"",6.7,"",69.6,"",1027.9,"",1029.3,"",.0,"",.0,""
"354160115","USTKA","2013","10","03",.1,"",2.9,"",5.8,"",6.0,"",68.0,"",1032.1,"",1033.6,"",.0,"",.0,""
"354160115","USTKA","2013","10","04",2.1,"",4.8,"",6.6,"",5.8,"",62.6,"",1027.0,"",1028.5,"",.0,"",.0,""
"354160115","USTKA","2013","10","05",6.4,"",4.3,"",8.6,"",7.2,"",64.8,"",1018.2,"",1019.6,"",.0,"",3.2,""
"354160115","USTKA","2013","10","06",6.8,"",3.9,"",11.4,"",12.0,"",89.5,"",1020.2,"",1021.6,"",.0,"",.0,""
"354160115","USTKA","2013","10","07",3.5,"",4.6,"",11.6,"",12.4,"",90.9,"",1024.3,"",1025.7,"",.0,"",.0,""
"354160115","USTKA","2013","10","08",6.1,"",3.9,"",12.3,"",11.4,"",80.6,"",1023.8,"",1025.2,"",.0,"",.0,""
"354160115","USTKA","2013","10","09",5.8,"",4.8,"",12.4,"",12.4,"",86.0,"",1013.2,"",1014.6,"",.0,"",.0,""
"354160115","USTKA","2013","10","10",7.1,"",3.3,"",12.8,"",12.7,"",85.8,"",1007.4,"",1008.8,"",.0,"",.0,""
"354160115","USTKA","2013","10","11",5.5,"",5.6,"",12.8,"",13.8,"",93.8,"",1020.4,"",1021.8,"",.0,"",.0,""
"354160115","USTKA","2013","10","12",7.3,"",5.1,"",11.9,"",12.2,"",87.5,"",1024.4,"",1025.8,"",.0,"",.0,""
"354160115","USTKA","2013","10","13",8.0,"",2.3,"",10.9,"",12.2,"",93.3,"",1019.1,"",1020.5,"",9.1,"",.0,""
"354160115","USTKA","2013","10","14",4.5,"",3.1,"",9.0,"",10.1,"",88.3,"",1020.2,"",1021.7,"",.0,"",.0,""
"354160115","USTKA","2013","10","15",5.1,"",4.0,"",10.6,"",10.1,"",80.1,"",1010.4,"",1011.8,"",.0,"",.0,""
"354160115","USTKA","2013","10","16",6.3,"",2.4,"",11.0,"",12.1,"",92.5,"",1008.6,"",1010.0,"",.0,"",.0,""
"354160115","USTKA","2013","10","17",7.3,"",4.5,"",9.8,"",11.1,"",92.0,"",1005.0,"",1006.4,"",.3,"",2.5,""
"354160115","USTKA","2013","10","18",5.8,"",8.0,"",9.6,"",9.6,"",79.0,"",1009.4,"",1010.8,"",1.9,"",.0,""
"354160115","USTKA","2013","10","19",4.9,"",3.9,"",4.9,"",7.2,"",83.5,"",1018.6,"",1020.1,"",.0,"",1.4,""
"354160115","USTKA","2013","10","20",7.8,"",4.0,"",9.8,"",11.7,"",94.8,"",1010.4,"",1011.8,"",.2,"",5.0,""
"354160115","USTKA","2013","10","21",7.6,"",4.4,"",12.3,"",13.7,"",95.8,"",1010.8,"",1012.2,"",9.3,"",1.9,""
"354160115","USTKA","2013","10","22",5.6,"",4.4,"",14.2,"",13.6,"",84.9,"",1013.4,"",1014.8,"",.0,"",.0,""
"354160115","USTKA","2013","10","23",6.3,"",5.8,"",16.7,"",14.6,"",77.1,"",1005.9,"",1007.3,"",.0,"",.0,""
"354160115","USTKA","2013","10","24",3.4,"",6.3,"",13.5,"",12.1,"",77.9,"",1011.8,"",1013.2,"",.0,"",.0,""
"354160115","USTKA","2013","10","25",4.5,"",4.0,"",10.1,"",10.1,"",81.8,"",1017.0,"",1018.4,"",.0,"",.0,""
"354160115","USTKA","2013","10","26",5.8,"",5.4,"",14.9,"",14.6,"",86.1,"",1008.5,"",1009.9,"",.0,"",.0,""
"354160115","USTKA","2013","10","27",5.3,"",4.6,"",14.1,"",14.8,"",92.0,"",1002.0,"",1003.4,"",12.2,"",1.1,""
"354160115","USTKA","2013","10","28",5.1,"",7.5,"",13.7,"",12.2,"",78.0,"",995.2,"",996.6,"",.5,"",.0,""
"354160115","USTKA","2013","10","29",3.3,"",7.8,"",12.4,"",9.7,"",67.6,"",1003.8,"",1005.2,"",.0,"",.0,""
"354160115","USTKA","2013","10","30",4.4,"",6.5,"",9.7,"",9.6,"",80.0,"",1014.0,"",1015.4,"",.1,"",2.8,""
"354160115","USTKA","2013","10","31",5.9,"",4.9,"",9.3,"",9.1,"",78.1,"",1021.5,"",1022.9,"",.0,"",.0,""
"354160115","USTKA","2013","11","01",5.3,"",5.1,"",7.0,"",8.6,"",85.8,"",1012.9,"",1014.3,"",.2,"",.0,""
"354160115","USTKA","2013","11","02",7.4,"",3.9,"",7.9,"",10.1,"",95.0,"",1002.7,"",1004.1,"",9.0,"",1.6,""
"354160115","USTKA","2013","11","03",6.8,"",4.4,"",9.0,"",10.8,"",94.6,"",996.6,"",998.0,"",4.0,"",.0,""
"354160115","USTKA","2013","11","04",6.1,"",6.6,"",7.8,"",8.6,"",81.0,"",990.4,"",991.8,"",.1,"",3.4,""
"354160115","USTKA","2013","11","05",5.9,"",6.0,"",8.3,"",9.6,"",87.8,"",989.9,"",991.3,"",.0,"",.0,""
"354160115","USTKA","2013","11","06",7.0,"",4.0,"",6.2,"",8.7,"",92.0,"",993.4,"",994.8,"",1.6,"",3.7,""
"354160115","USTKA","2013","11","07",7.1,"",3.1,"",6.9,"",9.6,"",96.3,"",1000.6,"",1002.0,"",.5,"",.0,""
"354160115","USTKA","2013","11","08",5.3,"",3.6,"",7.2,"",9.7,"",95.5,"",1008.3,"",1009.7,"",.0,"",1.7,""
"354160115","USTKA","2013","11","09",6.4,"",5.6,"",7.8,"",9.0,"",85.3,"",1003.6,"",1005.0,"",2.7,"",.0,""
"354160115","USTKA","2013","11","10",4.9,"",4.8,"",5.6,"",7.8,"",85.6,"",1002.5,"",1003.9,"",.1,"",3.2,""
"354160115","USTKA","2013","11","11",7.0,"",6.4,"",7.8,"",8.8,"",83.1,"",1021.4,"",1022.8,"",.5,"",.0,""
"354160115","USTKA","2013","11","12",6.6,"",5.4,"",5.8,"",7.3,"",78.9,"",1024.5,"",1026.0,"",.0,"",.5,""
"354160115","USTKA","2013","11","13",5.3,"",8.1,"",8.1,"",9.1,"",84.8,"",1021.0,"",1022.5,"",.0,"",.5,""
"354160115","USTKA","2013","11","14",5.9,"",4.4,"",5.9,"",8.6,"",92.6,"",1020.8,"",1022.3,"",.0,"",.0,""
"354160115","USTKA","2013","11","15",8.0,"",3.9,"",3.6,"",7.6,"",96.5,"",1025.9,"",1027.4,"",.0,"",.0,""
"354160115","USTKA","2013","11","16",8.0,"",8.5,"",7.1,"",9.8,"",96.6,"",1021.6,"",1023.0,"",.0,"",.2,""
"354160115","USTKA","2013","11","17",6.1,"",6.3,"",8.1,"",10.1,"",94.0,"",1020.7,"",1022.1,"",.0,"",.0,""
"354160115","USTKA","2013","11","18",7.5,"",3.9,"",5.6,"",8.4,"",92.6,"",1014.5,"",1015.9,"",.1,"",.0,""
"354160115","USTKA","2013","11","19",7.6,"",3.1,"",6.2,"",7.9,"",83.1,"",1005.9,"",1007.3,"",.0,"",.0,""
"354160115","USTKA","2013","11","20",7.8,"",2.9,"",5.9,"",9.0,"",96.9,"",1000.0,"",1001.4,"",8.3,"",2.5,""
"354160115","USTKA","2013","11","21",7.8,"",4.0,"",5.3,"",8.4,"",94.6,"",1002.5,"",1003.9,"",.0,"",.0,""
"354160115","USTKA","2013","11","22",7.0,"",2.6,"",6.2,"",8.6,"",90.0,"",1010.8,"",1012.2,"",.0,"",.0,""
"354160115","USTKA","2013","11","23",7.5,"",5.0,"",8.1,"",9.9,"",92.3,"",1014.6,"",1016.0,"",.0,"",.0,""
"354160115","USTKA","2013","11","24",6.1,"",9.1,"",5.8,"",7.3,"",78.9,"",1012.2,"",1013.6,"",2.1,"",.0,""
"354160115","USTKA","2013","11","25",5.1,"",8.4,"",4.5,"",6.4,"",76.4,"",1018.9,"",1020.4,"",.1,"",.6,""
"354160115","USTKA","2013","11","26",4.6,"",5.8,"",2.8,"",6.5,"",86.3,"",1026.4,"",1027.9,"",1.3,"",.0,""
"354160115","USTKA","2013","11","27",6.8,"",7.0,"",2.8,"",7.1,"",92.8,"",1021.5,"",1023.0,"",.4,"",.1,""
"354160115","USTKA","2013","11","28",4.0,"",11.9,"",7.8,"",8.5,"",80.6,"",1013.1,"",1014.5,"",.0,"",.0,""
"354160115","USTKA","2013","11","29",4.8,"",5.9,"",5.4,"",7.1,"",80.3,"",1010.6,"",1012.0,"",.0,"",3.5,""
"354160115","USTKA","2013","11","30",6.8,"",3.4,"",4.4,"",7.8,"",93.8,"",1008.7,"",1010.1,"",.2,"",.4,""
"354160115","USTKA","2013","12","01",4.9,"",9.3,"",6.6,"",8.4,"",86.3,"",1013.3,"",1014.7,"",.3,"",.0,""
"354160115","USTKA","2013","12","02",1.4,"",6.1,"",4.7,"",6.0,"",70.8,"",1030.4,"",1031.9,"",.0,"",.0,""
"354160115","USTKA","2013","12","03",5.5,"",5.0,"",1.3,"",6.2,"",92.0,"",1025.0,"",1026.5,"",.0,"",.0,""
"354160115","USTKA","2013","12","04",7.4,"",7.4,"",4.0,"",7.5,"",92.5,"",1012.9,"",1014.3,"",1.6,"",.0,""
"354160115","USTKA","2013","12","05",6.9,"",10.3,"",4.2,"",7.3,"",88.4,"",1000.8,"",1002.2,"",1.8,"",2.5,""
"354160115","USTKA","2013","12","06",7.8,"",20.3,"",3.4,"",5.6,"",72.3,"",983.2,"",984.6,"",.5,"",1.2,""
"354160115","USTKA","2013","12","07",5.9,"",16.1,"",2.5,"",5.3,"",72.6,"",1005.3,"",1006.8,"",.1,"",.0,""
"354160115","USTKA","2013","12","08",5.6,"",8.1,"",1.8,"",5.7,"",79.6,"",1013.3,"",1014.8,"",2.5,"",3.9,""
"354160115","USTKA","2013","12","09",5.9,"",5.4,"",3.0,"",6.9,"",88.9,"",1016.2,"",1017.7,"",.1,"",.0,""
"354160115","USTKA","2013","12","10",8.0,"",4.5,"",2.6,"",6.6,"",88.3,"",1031.2,"",1032.7,"",.1,"",.0,""
"354160115","USTKA","2013","12","11",7.9,"",5.1,"",5.4,"",8.4,"",93.9,"",1029.6,"",1031.1,"",.0,"",.0,""
"354160115","USTKA","2013","12","12",5.9,"",4.9,"",3.1,"",7.3,"",95.3,"",1025.6,"",1027.1,"",.0,"",.0,""
"354160115","USTKA","2013","12","13",8.0,"",3.6,"",3.4,"",7.8,"",99.3,"",1020.7,"",1022.2,"",7.8,"",4.1,""
"354160115","USTKA","2013","12","14",8.0,"",2.9,"",3.0,"",7.6,"",100.0,"",1021.0,"",1022.5,"",.2,"",.0,""
"354160115","USTKA","2013","12","15",7.8,"",5.9,"",4.8,"",8.2,"",95.1,"",1021.9,"",1023.4,"",.4,"",.0,""
"354160115","USTKA","2013","12","16",6.6,"",5.8,"",6.6,"",8.0,"",82.4,"",1022.5,"",1024.0,"",.0,"",.0,""
"354160115","USTKA","2013","12","17",7.3,"",5.1,"",6.9,"",7.5,"",76.3,"",1020.9,"",1022.3,"",.0,"",.0,""
"354160115","USTKA","2013","12","18",6.8,"",3.3,"",4.4,"",7.5,"",90.1,"",1020.8,"",1022.3,"",.0,"",.0,""
"354160115","USTKA","2013","12","19",6.8,"",6.1,"",3.4,"",6.1,"",79.0,"",1009.4,"",1010.8,"",.0,"",.0,""
"354160115","USTKA","2013","12","20",7.9,"",4.3,"",5.6,"",8.2,"",90.8,"",1017.0,"",1018.4,"",.3,"",1.0,""
"354160115","USTKA","2013","12","21",7.0,"",6.5,"",5.3,"",7.1,"",80.0,"",1020.1,"",1021.5,"",.1,"",.1,""
"354160115","USTKA","2013","12","22",6.6,"",6.4,"",6.0,"",7.2,"",76.3,"",1011.4,"",1012.8,"",.0,"",2.1,""
"354160115","USTKA","2013","12","23",4.8,"",6.6,"",5.4,"",7.7,"",85.8,"",1009.8,"",1011.2,"",.1,"",.0,""
"354160115","USTKA","2013","12","24",5.8,"",7.1,"",8.2,"",7.3,"",68.0,"",1000.3,"",1001.7,"",.0,"",.0,""
"354160115","USTKA","2013","12","25",7.1,"",5.1,"",7.5,"",8.0,"",77.0,"",993.8,"",995.2,"",.0,"",.5,""
"354160115","USTKA","2013","12","26",7.3,"",2.4,"",5.5,"",8.7,"",96.8,"",997.0,"",998.4,"",.2,"",.0,""
"354160115","USTKA","2013","12","27",5.8,"",5.3,"",5.7,"",8.2,"",89.5,"",1001.2,"",1002.6,"",.0,"",.0,""
"354160115","USTKA","2013","12","28",6.9,"",5.1,"",7.3,"",7.8,"",76.8,"",1000.8,"",1002.2,"",.0,"",2.1,""
"354160115","USTKA","2013","12","29",8.0,"",3.9,"",5.8,"",8.7,"",94.5,"",1008.2,"",1009.6,"",7.4,"",.8,""
"354160115","USTKA","2013","12","30",5.3,"",5.4,"",4.4,"",7.6,"",90.6,"",1021.5,"",1023.0,"",.0,"",.0,""
"354160115","USTKA","2013","12","31",2.4,"",4.4,"",1.2,"",5.9,"",88.6,"",1021.0,"",1022.5,"",.0,"",.0,""
