"349210670","KROSNO","2011","01","01",7.4,"",6.1,"",-6.8,"",3.3,"",88.5,"",973.4,"",1015.6,"",.0,"",.2,""
"349210670","KROSNO","2011","01","02",6.4,"",3.8,"",-2.6,"",4.1,"",81.6,"",973.5,"",1015.1,"",.0,"",.9,""
"349210670","KROSNO","2011","01","03",7.4,"",3.0,"",-3.2,"",4.2,"",86.8,"",978.5,"",1020.4,"",.1,"",1.5,""
"349210670","KROSNO","2011","01","04",5.5,"",4.1,"",-5.8,"",3.4,"",86.3,"",982.1,"",1024.5,"",.0,"",.0,""
"349210670","KROSNO","2011","01","05",3.4,"",5.0,"",-6.4,"",2.9,"",76.9,"",981.9,"",1024.5,"",.0,"",.0,""
"349210670","KROSNO","2011","01","06",4.9,"",6.8,"",-3.3,"",3.3,"",69.4,"",978.2,"",1020.1,"",.0,"",.8,""
"349210670","KROSNO","2011","01","07",7.1,"",5.3,"",.7,"",5.5,"",85.8,"",978.2,"",1019.5,"",.1,"",.0,""
"349210670","KROSNO","2011","01","08",7.9,"",4.4,"",3.4,"",7.1,"",91.3,"",977.9,"",1018.7,"",1.2,"",6.8,""
"349210670","KROSNO","2011","01","09",5.6,"",4.5,"",4.5,"",7.7,"",91.9,"",978.3,"",1019.0,"",.0,"",.0,""
"349210670","KROSNO","2011","01","10",7.8,"",2.3,"",3.8,"",7.6,"",95.1,"",981.5,"",1022.4,"",.0,"",.0,""
"349210670","KROSNO","2011","01","11",7.4,"",3.5,"",4.7,"",7.5,"",88.0,"",978.0,"",1018.6,"",.0,"",.3,""
"349210670","KROSNO","2011","01","12",7.8,"",3.1,"",4.5,"",7.5,"",89.1,"",975.2,"",1015.7,"",.0,"",.9,""
"349210670","KROSNO","2011","01","13",7.6,"",3.0,"",1.9,"",6.5,"",93.0,"",972.8,"",1013.7,"",4.2,"",1.9,""
"349210670","KROSNO","2011","01","14",8.0,"",4.1,"",2.8,"",7.2,"",95.8,"",973.0,"",1013.7,"",7.0,"",6.6,""
"349210670","KROSNO","2011","01","15",7.9,"",4.3,"",5.3,"",8.4,"",94.0,"",975.9,"",1016.4,"",7.8,"",.5,""
"349210670","KROSNO","2011","01","16",6.5,"",2.3,"",4.9,"",7.5,"",87.3,"",986.6,"",1027.5,"",.0,"",.0,""
"349210670","KROSNO","2011","01","17",2.4,"",2.6,"",2.9,"",6.7,"",89.3,"",986.9,"",1028.2,"",.0,"",.0,""
"349210670","KROSNO","2011","01","18",5.3,"",2.5,"",4.0,"",7.0,"",85.6,"",983.4,"",1024.4,"",.0,"",.3,""
"349210670","KROSNO","2011","01","19",7.5,"",2.4,"",2.6,"",6.7,"",90.8,"",980.9,"",1022.0,"",.0,"",2.9,""
"349210670","KROSNO","2011","01","20",7.5,"",3.5,"",-.9,"",5.5,"",95.6,"",980.5,"",1022.1,"",.6,"",.1,""
"349210670","KROSNO","2011","01","21",7.6,"",3.0,"",-2.1,"",4.8,"",90.6,"",985.5,"",1027.5,"",.4,"",.1,""
"349210670","KROSNO","2011","01","22",8.0,"",3.1,"",-2.7,"",4.2,"",83.9,"",986.5,"",1028.6,"",.2,"",.0,""
"349210670","KROSNO","2011","01","23",7.6,"",4.1,"",-3.1,"",4.4,"",90.0,"",977.5,"",1019.4,"",1.6,"",1.2,""
"349210670","KROSNO","2011","01","24",7.4,"",2.3,"",-4.8,"",3.9,"",91.0,"",978.0,"",1020.1,"",.6,"",.0,""
"349210670","KROSNO","2011","01","25",6.3,"",4.8,"",-5.2,"",3.4,"",81.8,"",973.0,"",1015.0,"",.0,"",.0,""
"349210670","KROSNO","2011","01","26",6.8,"",5.5,"",-4.3,"",3.7,"",82.1,"",969.5,"",1011.1,"",.0,"",.0,""
"349210670","KROSNO","2011","01","27",6.9,"",1.9,"",-3.6,"",4.0,"",84.6,"",977.3,"",1019.2,"",.0,"",.0,""
"349210670","KROSNO","2011","01","28",6.5,"",1.4,"",-3.2,"",4.2,"",87.3,"",986.3,"",1028.5,"",.0,"",.0,""
"349210670","KROSNO","2011","01","29",4.3,"",1.6,"",-5.8,"",3.5,"",88.9,"",984.3,"",1026.9,"",.0,"",.0,""
"349210670","KROSNO","2011","01","30",2.5,"",2.8,"",-4.7,"",3.4,"",80.1,"",980.7,"",1022.9,"",.0,"",.0,""
"349210670","KROSNO","2011","01","31",4.8,"",1.3,"",-4.7,"",3.7,"",86.8,"",984.5,"",1026.8,"",.0,"",.0,""
"349210670","KROSNO","2011","02","01",.5,"",4.4,"",-8.7,"",2.7,"",85.0,"",984.2,"",1027.3,"",.0,"",.0,""
"349210670","KROSNO","2011","02","02",4.9,"",3.1,"",-6.5,"",3.3,"",85.5,"",984.1,"",1026.8,"",.7,"",.0,""
"349210670","KROSNO","2011","02","03",7.0,"",4.8,"",-6.1,"",3.4,"",87.9,"",984.4,"",1027.0,"",.0,"",1.9,""
"349210670","KROSNO","2011","02","04",7.6,"",6.3,"",-4.6,"",3.8,"",88.0,"",983.4,"",1025.7,"",.0,"",.2,""
"349210670","KROSNO","2011","02","05",8.0,"",6.4,"",-1.5,"",4.8,"",87.1,"",976.8,"",1018.4,"",.0,"",3.1,""
"349210670","KROSNO","2011","02","06",8.0,"",2.6,"",2.2,"",6.7,"",93.4,"",978.6,"",1019.7,"",1.8,"",.7,""
"349210670","KROSNO","2011","02","07",6.4,"",4.0,"",2.7,"",6.6,"",89.6,"",980.4,"",1021.4,"",.0,"",.0,""
"349210670","KROSNO","2011","02","08",2.5,"",5.6,"",3.7,"",5.9,"",74.6,"",976.5,"",1017.2,"",.0,"",.0,""
"349210670","KROSNO","2011","02","09",6.9,"",5.6,"",1.8,"",4.7,"",67.8,"",980.7,"",1021.9,"",.0,"",.0,""
"349210670","KROSNO","2011","02","10",4.6,"",3.3,"",.5,"",4.2,"",66.9,"",982.9,"",1024.4,"",.0,"",.0,""
"349210670","KROSNO","2011","02","11",7.1,"",6.0,"",-.6,"",5.2,"",88.1,"",970.0,"",1011.1,"",4.5,"",8.1,""
"349210670","KROSNO","2011","02","12",6.4,"",7.8,"",-2.4,"",4.0,"",77.5,"",971.6,"",1013.0,"",.1,"",.0,""
"349210670","KROSNO","2011","02","13",4.1,"",2.0,"",-4.8,"",2.7,"",64.1,"",979.4,"",1021.5,"",.0,"",.0,""
"349210670","KROSNO","2011","02","14",.5,"",2.1,"",-8.4,"",2.3,"",71.6,"",978.2,"",1020.9,"",.0,"",.0,""
"349210670","KROSNO","2011","02","15",1.8,"",3.1,"",-9.5,"",2.2,"",72.8,"",975.5,"",1018.3,"",.0,"",.0,""
"349210670","KROSNO","2011","02","16",7.1,"",4.3,"",-5.6,"",3.4,"",81.4,"",972.2,"",1014.2,"",.0,"",.0,""
"349210670","KROSNO","2011","02","17",6.6,"",3.6,"",-1.1,"",4.2,"",74.8,"",970.5,"",1011.7,"",.0,"",.0,""
"349210670","KROSNO","2011","02","18",7.8,"",2.5,"",-.3,"",5.4,"",89.9,"",972.5,"",1013.7,"",.0,"",.0,""
"349210670","KROSNO","2011","02","19",8.0,"",2.5,"",-2.1,"",5.0,"",94.0,"",975.0,"",1016.5,"",.7,"",.7,""
"349210670","KROSNO","2011","02","20",8.0,"",3.1,"",-5.1,"",3.8,"",89.3,"",977.5,"",1019.7,"",.4,"",.3,""
"349210670","KROSNO","2011","02","21",7.9,"",2.6,"",-9.8,"",2.4,"",83.5,"",980.3,"",1023.3,"",.0,"",.0,""
"349210670","KROSNO","2011","02","22",7.4,"",2.0,"",-10.0,"",2.4,"",82.6,"",978.4,"",1021.4,"",.1,"",.5,""
"349210670","KROSNO","2011","02","23",8.0,"",3.1,"",-10.1,"",2.5,"",87.1,"",983.6,"",1026.9,"",.9,"",.9,""
"349210670","KROSNO","2011","02","24",8.0,"",2.6,"",-9.1,"",2.8,"",88.9,"",988.3,"",1031.6,"",1.6,"",2.5,""
"349210670","KROSNO","2011","02","25",8.0,"",2.4,"",-7.7,"",2.9,"",83.6,"",990.1,"",1033.2,"",1.0,"",.1,""
"349210670","KROSNO","2011","02","26",6.3,"",1.8,"",-6.6,"",3.2,"",84.6,"",986.5,"",1029.3,"",.0,"",.0,""
"349210670","KROSNO","2011","02","27",.4,"",3.8,"",-5.7,"",3.2,"",79.3,"",979.5,"",1021.9,"",.0,"",.0,""
"349210670","KROSNO","2011","02","28",3.0,"",2.9,"",-6.4,"",2.8,"",75.4,"",986.5,"",1029.3,"",.0,"",.0,""
"349210670","KROSNO","2011","03","01",1.5,"",2.6,"",-5.4,"",2.7,"",67.3,"",994.3,"",1037.2,"",.0,"",.0,""
"349210670","KROSNO","2011","03","02",.3,"",2.3,"",-6.0,"",2.5,"",66.6,"",996.0,"",1039.1,"",.0,"",.0,""
"349210670","KROSNO","2011","03","03",3.0,"",1.8,"",-3.1,"",2.9,"",61.4,"",992.4,"",1034.9,"",.0,"",.0,""
"349210670","KROSNO","2011","03","04",.1,"",1.9,"",-2.8,"",3.1,"",66.3,"",990.4,"",1032.7,"",.0,"",.0,""
"349210670","KROSNO","2011","03","05",4.9,"",4.0,"",-.3,"",5.0,"",84.4,"",979.7,"",1021.1,"",.0,"",.9,""
"349210670","KROSNO","2011","03","06",6.6,"",5.1,"",-1.6,"",4.5,"",83.4,"",978.3,"",1019.9,"",.4,"",.2,""
"349210670","KROSNO","2011","03","07",5.0,"",3.8,"",-3.4,"",3.2,"",67.8,"",992.6,"",1035.1,"",.0,"",.0,""
"349210670","KROSNO","2011","03","08",1.3,"",2.9,"",-5.5,"",2.6,"",65.4,"",993.6,"",1036.5,"",.0,"",.0,""
"349210670","KROSNO","2011","03","09",1.4,"",4.9,"",-1.6,"",2.6,"",51.6,"",983.4,"",1025.2,"",.0,"",.0,""
"349210670","KROSNO","2011","03","10",6.6,"",3.6,"",.6,"",3.5,"",55.5,"",978.7,"",1020.0,"",.0,"",.0,""
"349210670","KROSNO","2011","03","11",7.5,"",4.9,"",3.0,"",4.8,"",64.0,"",977.2,"",1018.1,"",.0,"",.0,""
"349210670","KROSNO","2011","03","12",4.9,"",4.5,"",7.1,"",5.6,"",55.3,"",979.7,"",1020.1,"",.0,"",.0,""
"349210670","KROSNO","2011","03","13",5.1,"",6.1,"",9.8,"",5.6,"",46.9,"",974.7,"",1014.5,"",.0,"",.0,""
"349210670","KROSNO","2011","03","14",6.0,"",5.4,"",9.8,"",7.0,"",58.6,"",978.0,"",1017.9,"",.0,"",1.1,""
"349210670","KROSNO","2011","03","15",7.4,"",2.9,"",9.3,"",10.1,"",86.1,"",980.7,"",1020.7,"",.8,"",.0,""
"349210670","KROSNO","2011","03","16",6.1,"",4.6,"",7.9,"",9.2,"",86.8,"",980.3,"",1020.6,"",.0,"",.1,""
"349210670","KROSNO","2011","03","17",7.4,"",5.5,"",4.3,"",7.6,"",91.0,"",971.8,"",1012.3,"",7.0,"",1.4,""
"349210670","KROSNO","2011","03","18",7.5,"",3.8,"",6.9,"",8.9,"",88.9,"",971.7,"",1011.8,"",4.5,"",.3,""
"349210670","KROSNO","2011","03","19",8.0,"",4.6,"",1.3,"",6.1,"",91.3,"",981.7,"",1023.1,"",.5,"",.0,""
"349210670","KROSNO","2011","03","20",6.8,"",3.5,"",.9,"",4.9,"",76.3,"",989.9,"",1031.6,"",.0,"",.0,""
"349210670","KROSNO","2011","03","21",4.3,"",2.1,"",2.0,"",4.8,"",69.8,"",993.8,"",1035.5,"",.0,"",.0,""
"349210670","KROSNO","2011","03","22",3.6,"",2.8,"",5.0,"",5.7,"",66.9,"",992.9,"",1034.2,"",.0,"",.0,""
"349210670","KROSNO","2011","03","23",5.3,"",4.4,"",7.3,"",6.7,"",66.4,"",990.7,"",1031.5,"",.0,"",.0,""
"349210670","KROSNO","2011","03","24",4.4,"",6.4,"",8.0,"",6.4,"",60.5,"",986.4,"",1026.9,"",.0,"",.0,""
"349210670","KROSNO","2011","03","25",5.4,"",5.3,"",8.9,"",6.8,"",60.0,"",977.0,"",1017.0,"",.0,"",.0,""
"349210670","KROSNO","2011","03","26",7.5,"",2.9,"",3.3,"",6.3,"",81.1,"",972.0,"",1012.6,"",1.9,"",.0,""
"349210670","KROSNO","2011","03","27",1.3,"",3.1,"",.1,"",3.8,"",64.3,"",978.7,"",1020.1,"",.0,"",.0,""
"349210670","KROSNO","2011","03","28",5.4,"",2.3,"",5.8,"",5.0,"",55.1,"",973.0,"",1013.3,"",.0,"",.0,""
"349210670","KROSNO","2011","03","29",3.4,"",2.5,"",7.0,"",6.0,"",63.0,"",976.4,"",1016.6,"",.0,"",.0,""
"349210670","KROSNO","2011","03","30",.4,"",2.8,"",9.7,"",6.3,"",57.1,"",977.9,"",1017.9,"",.0,"",.0,""
"349210670","KROSNO","2011","03","31",2.3,"",3.0,"",11.8,"",6.2,"",48.4,"",980.4,"",1020.1,"",.0,"",.0,""
"349210670","KROSNO","2011","04","01",6.8,"",3.4,"",10.6,"",8.2,"",64.6,"",980.7,"",1020.6,"",.3,"",.2,""
"349210670","KROSNO","2011","04","02",6.9,"",1.8,"",10.2,"",8.9,"",73.6,"",981.7,"",1021.7,"",.0,"",.0,""
"349210670","KROSNO","2011","04","03",1.5,"",3.8,"",10.8,"",7.0,"",57.3,"",978.9,"",1018.6,"",.0,"",.0,""
"349210670","KROSNO","2011","04","04",4.4,"",3.1,"",10.9,"",6.1,"",50.4,"",974.4,"",1014.1,"",.0,"",7.0,""
"349210670","KROSNO","2011","04","05",6.8,"",4.8,"",8.5,"",8.4,"",77.3,"",982.2,"",1022.4,"",.0,"",.0,""
"349210670","KROSNO","2011","04","06",5.5,"",3.8,"",9.8,"",8.4,"",71.8,"",983.7,"",1023.9,"",.0,"",.1,""
"349210670","KROSNO","2011","04","07",7.0,"",6.6,"",13.9,"",12.6,"",79.3,"",974.7,"",1013.9,"",9.3,"",.0,""
"349210670","KROSNO","2011","04","08",7.3,"",9.1,"",7.1,"",6.5,"",64.4,"",968.1,"",1008.0,"",1.0,"",1.1,""
"349210670","KROSNO","2011","04","09",7.3,"",9.0,"",5.8,"",6.5,"",70.0,"",968.3,"",1008.4,"",1.4,"",.0,""
"349210670","KROSNO","2011","04","10",5.9,"",6.5,"",4.5,"",5.1,"",61.6,"",974.8,"",1015.4,"",.0,"",.0,""
"349210670","KROSNO","2011","04","11",4.3,"",5.1,"",3.9,"",4.9,"",62.3,"",977.5,"",1018.3,"",.0,"",10.1,""
"349210670","KROSNO","2011","04","12",7.6,"",3.9,"",9.9,"",10.0,"",83.4,"",967.6,"",1007.1,"",3.3,"",.1,""
"349210670","KROSNO","2011","04","13",5.1,"",5.3,"",4.7,"",6.2,"",73.5,"",969.9,"",1010.2,"",.4,"",.6,""
"349210670","KROSNO","2011","04","14",7.6,"",2.3,"",3.9,"",7.5,"",92.9,"",970.3,"",1010.8,"",1.1,"",1.2,""
"349210670","KROSNO","2011","04","15",7.1,"",3.0,"",6.4,"",7.0,"",73.5,"",976.3,"",1016.7,"",.0,"",.0,""
"349210670","KROSNO","2011","04","16",5.8,"",1.8,"",7.4,"",6.7,"",66.8,"",981.8,"",1022.2,"",.0,"",.0,""
"349210670","KROSNO","2011","04","17",6.1,"",2.1,"",7.7,"",6.1,"",61.9,"",984.6,"",1025.0,"",.0,"",.0,""
"349210670","KROSNO","2011","04","18",4.5,"",1.5,"",11.0,"",6.8,"",53.9,"",983.4,"",1023.3,"",.0,"",.0,""
"349210670","KROSNO","2011","04","19",3.3,"",3.1,"",10.2,"",7.0,"",58.5,"",979.6,"",1019.5,"",.0,"",.0,""
"349210670","KROSNO","2011","04","20",.8,"",1.9,"",10.7,"",5.9,"",48.5,"",980.9,"",1020.8,"",.0,"",.0,""
"349210670","KROSNO","2011","04","21",2.1,"",3.1,"",13.0,"",6.4,"",45.0,"",979.1,"",1018.6,"",.0,"",.0,""
"349210670","KROSNO","2011","04","22",.8,"",2.0,"",14.2,"",6.5,"",42.8,"",977.5,"",1016.8,"",.0,"",.0,""
"349210670","KROSNO","2011","04","23",4.5,"",2.8,"",14.0,"",9.1,"",57.0,"",976.6,"",1015.8,"",.0,"",10.0,""
"349210670","KROSNO","2011","04","24",6.3,"",2.6,"",12.8,"",12.0,"",82.1,"",978.1,"",1017.6,"",.0,"",1.0,""
"349210670","KROSNO","2011","04","25",6.0,"",1.4,"",13.1,"",11.0,"",76.0,"",979.8,"",1019.3,"",.0,"",.0,""
"349210670","KROSNO","2011","04","26",2.6,"",2.8,"",14.3,"",7.8,"",53.5,"",978.5,"",1017.8,"",.0,"",.0,""
"349210670","KROSNO","2011","04","27",3.0,"",2.9,"",15.1,"",6.9,"",43.1,"",977.9,"",1017.1,"",.0,"",.0,""
"349210670","KROSNO","2011","04","28",3.6,"",3.4,"",15.5,"",7.4,"",44.8,"",976.3,"",1015.4,"",.0,"",.0,""
"349210670","KROSNO","2011","04","29",4.0,"",2.9,"",12.7,"",9.3,"",65.1,"",975.1,"",1014.5,"",1.5,"",.0,""
"349210670","KROSNO","2011","04","30",4.3,"",2.1,"",11.4,"",10.1,"",78.1,"",971.5,"",1010.9,"",2.8,"",.0,""
"349210670","KROSNO","2011","05","01",6.4,"",2.0,"",8.6,"",10.3,"",92.4,"",968.6,"",1008.3,"",2.3,"",.0,""
"349210670","KROSNO","2011","05","02",5.8,"",2.4,"",7.8,"",8.1,"",77.5,"",970.9,"",1010.8,"",.0,"",.0,""
"349210670","KROSNO","2011","05","03",7.0,"",3.9,"",8.6,"",8.2,"",76.0,"",968.4,"",1008.1,"",.6,"",3.1,""
"349210670","KROSNO","2011","05","04",4.8,"",4.1,"",4.5,"",5.5,"",68.1,"",976.3,"",1016.9,"",.0,"",.0,""
"349210670","KROSNO","2011","05","05",4.3,"",3.4,"",3.9,"",5.7,"",72.6,"",983.1,"",1024.0,"",.3,"",.0,""
"349210670","KROSNO","2011","05","06",3.1,"",3.1,"",7.8,"",6.0,"",59.4,"",986.8,"",1027.4,"",.0,"",.0,""
"349210670","KROSNO","2011","05","07",7.5,"",3.9,"",5.7,"",7.8,"",85.0,"",982.8,"",1023.5,"",5.8,"",6.8,""
"349210670","KROSNO","2011","05","08",4.5,"",3.4,"",10.2,"",8.5,"",70.8,"",984.7,"",1024.8,"",.0,"",.0,""
"349210670","KROSNO","2011","05","09",2.6,"",2.4,"",12.6,"",9.2,"",66.1,"",989.6,"",1029.5,"",.0,"",.0,""
"349210670","KROSNO","2011","05","10",4.1,"",3.6,"",15.9,"",9.9,"",58.6,"",986.7,"",1026.1,"",.0,"",.0,""
"349210670","KROSNO","2011","05","11",.5,"",1.9,"",15.1,"",8.7,"",54.9,"",982.7,"",1022.1,"",.0,"",.0,""
"349210670","KROSNO","2011","05","12",2.8,"",2.3,"",15.5,"",8.7,"",54.5,"",977.6,"",1016.7,"",.0,"",.0,""
"349210670","KROSNO","2011","05","13",5.3,"",3.5,"",14.0,"",10.6,"",66.4,"",977.7,"",1017.0,"",1.0,"",.0,""
"349210670","KROSNO","2011","05","14",5.0,"",1.6,"",12.9,"",8.5,"",60.4,"",978.6,"",1018.1,"",.0,"",.4,""
"349210670","KROSNO","2011","05","15",7.1,"",3.5,"",11.7,"",11.2,"",82.0,"",973.5,"",1012.9,"",4.8,"",5.4,""
"349210670","KROSNO","2011","05","16",5.9,"",3.0,"",10.1,"",9.6,"",79.3,"",979.5,"",1019.4,"",.2,"",.0,""
"349210670","KROSNO","2011","05","17",2.1,"",1.3,"",12.2,"",8.6,"",64.8,"",982.2,"",1021.9,"",.0,"",.0,""
"349210670","KROSNO","2011","05","18",1.6,"",2.3,"",16.1,"",10.5,"",61.5,"",982.1,"",1021.3,"",.0,"",.0,""
"349210670","KROSNO","2011","05","19",1.1,"",2.9,"",18.5,"",11.9,"",60.8,"",980.8,"",1019.7,"",.0,"",.0,""
"349210670","KROSNO","2011","05","20",4.1,"",2.3,"",18.7,"",14.0,"",67.0,"",980.6,"",1019.4,"",.1,"",.0,""
"349210670","KROSNO","2011","05","21",3.9,"",1.9,"",17.5,"",13.6,"",71.4,"",981.3,"",1020.3,"",.0,"",.0,""
"349210670","KROSNO","2011","05","22",4.0,"",2.4,"",17.1,"",14.3,"",75.3,"",981.1,"",1020.1,"",.0,"",.0,""
"349210670","KROSNO","2011","05","23",3.4,"",2.6,"",18.7,"",15.0,"",71.1,"",983.1,"",1021.9,"",.0,"",.0,""
"349210670","KROSNO","2011","05","24",2.1,"",1.9,"",20.5,"",14.2,"",63.0,"",982.2,"",1020.9,"",.0,"",.2,""
"349210670","KROSNO","2011","05","25",3.4,"",3.6,"",14.0,"",9.1,"",56.8,"",985.5,"",1025.1,"",.0,"",.0,""
"349210670","KROSNO","2011","05","26",.3,"",1.8,"",14.5,"",8.7,"",55.9,"",982.2,"",1021.7,"",.0,"",.0,""
"349210670","KROSNO","2011","05","27",1.6,"",4.3,"",19.8,"",11.3,"",49.4,"",975.4,"",1013.8,"",.0,"",.0,""
"349210670","KROSNO","2011","05","28",6.8,"",2.5,"",13.7,"",13.8,"",88.5,"",975.2,"",1014.5,"",5.3,"",5.6,""
"349210670","KROSNO","2011","05","29",5.6,"",2.6,"",13.6,"",12.9,"",84.8,"",978.3,"",1017.7,"",.0,"",.0,""
"349210670","KROSNO","2011","05","30",1.8,"",2.0,"",17.2,"",14.5,"",75.8,"",982.7,"",1021.8,"",.0,"",.0,""
"349210670","KROSNO","2011","05","31",2.5,"",2.9,"",21.0,"",14.9,"",63.4,"",978.8,"",1017.2,"",.0,"",.0,""
"349210670","KROSNO","2011","06","01",5.0,"",2.4,"",19.6,"",15.5,"",69.5,"",978.2,"",1016.7,"",.1,"",.0,""
"349210670","KROSNO","2011","06","02",6.4,"",3.5,"",17.6,"",17.9,"",88.9,"",983.8,"",1022.8,"",.0,"",5.7,""
"349210670","KROSNO","2011","06","03",5.3,"",2.4,"",17.9,"",18.6,"",91.4,"",986.3,"",1025.4,"",3.3,"",.0,""
"349210670","KROSNO","2011","06","04",2.8,"",1.9,"",19.7,"",15.8,"",72.1,"",982.3,"",1021.0,"",.0,"",.0,""
"349210670","KROSNO","2011","06","05",2.1,"",2.4,"",21.1,"",15.2,"",64.3,"",976.9,"",1015.2,"",.0,"",.0,""
"349210670","KROSNO","2011","06","06",3.0,"",3.8,"",21.7,"",15.3,"",61.6,"",974.4,"",1012.5,"",.0,"",.0,""
"349210670","KROSNO","2011","06","07",5.5,"",3.4,"",21.1,"",16.9,"",68.6,"",972.8,"",1011.0,"",.0,"",.0,""
"349210670","KROSNO","2011","06","08",4.3,"",3.0,"",20.3,"",18.0,"",76.4,"",969.4,"",1007.5,"",7.0,"",.0,""
"349210670","KROSNO","2011","06","09",6.0,"",3.4,"",17.0,"",16.9,"",86.6,"",969.1,"",1007.6,"",.2,"",.2,""
"349210670","KROSNO","2011","06","10",8.0,"",4.8,"",12.7,"",13.2,"",89.6,"",972.4,"",1011.7,"",.0,"",1.3,""
"349210670","KROSNO","2011","06","11",7.0,"",3.5,"",13.6,"",12.2,"",79.4,"",974.6,"",1013.8,"",.0,"",.0,""
"349210670","KROSNO","2011","06","12",6.1,"",3.8,"",16.3,"",11.2,"",62.6,"",976.0,"",1015.0,"",.0,"",.0,""
"349210670","KROSNO","2011","06","13",3.1,"",3.3,"",17.2,"",10.0,"",52.8,"",977.1,"",1016.0,"",.0,"",.0,""
"349210670","KROSNO","2011","06","14",4.1,"",1.5,"",17.5,"",10.4,"",56.3,"",977.6,"",1016.4,"",.0,"",.0,""
"349210670","KROSNO","2011","06","15",4.1,"",1.6,"",19.1,"",13.7,"",63.6,"",978.8,"",1017.5,"",.0,"",.0,""
"349210670","KROSNO","2011","06","16",5.0,"",2.5,"",19.1,"",15.8,"",74.3,"",977.5,"",1016.1,"",5.5,"",.0,""
"349210670","KROSNO","2011","06","17",4.9,"",3.0,"",18.8,"",17.1,"",80.4,"",976.3,"",1014.8,"",6.6,"",.0,""
"349210670","KROSNO","2011","06","18",5.6,"",4.1,"",20.0,"",18.6,"",81.1,"",971.0,"",1009.2,"",.7,"",7.0,""
"349210670","KROSNO","2011","06","19",7.3,"",2.9,"",13.2,"",13.8,"",91.0,"",970.8,"",1009.9,"",1.9,"",.2,""
"349210670","KROSNO","2011","06","20",4.3,"",3.5,"",13.9,"",11.3,"",72.3,"",974.6,"",1013.7,"",.8,"",.0,""
"349210670","KROSNO","2011","06","21",5.8,"",3.3,"",16.7,"",13.7,"",73.0,"",978.0,"",1016.9,"",1.3,"",.0,""
"349210670","KROSNO","2011","06","22",2.5,"",2.9,"",20.8,"",17.0,"",70.3,"",978.7,"",1017.1,"",.0,"",.0,""
"349210670","KROSNO","2011","06","23",5.0,"",2.9,"",20.5,"",17.0,"",71.1,"",977.0,"",1015.4,"",.3,"",10.3,""
"349210670","KROSNO","2011","06","24",7.1,"",3.3,"",17.2,"",15.7,"",81.6,"",976.6,"",1015.4,"",.0,"",3.5,""
"349210670","KROSNO","2011","06","25",5.3,"",3.5,"",12.4,"",12.0,"",84.3,"",980.0,"",1019.6,"",2.6,"",.0,""
"349210670","KROSNO","2011","06","26",5.4,"",3.8,"",14.1,"",10.5,"",67.8,"",981.5,"",1020.9,"",.0,"",.0,""
"349210670","KROSNO","2011","06","27",3.4,"",4.4,"",15.1,"",11.2,"",68.5,"",980.5,"",1019.8,"",.0,"",1.2,""
"349210670","KROSNO","2011","06","28",6.8,"",4.8,"",13.7,"",14.9,"",94.0,"",975.0,"",1014.2,"",15.6,"",5.6,""
"349210670","KROSNO","2011","06","29",6.5,"",1.9,"",17.6,"",16.3,"",82.1,"",972.8,"",1011.4,"",.0,"",.3,""
"349210670","KROSNO","2011","06","30",5.4,"",2.0,"",17.9,"",16.2,"",80.9,"",970.3,"",1008.7,"",.0,"",.0,""
"349210670","KROSNO","2011","07","01",6.9,"",4.8,"",12.4,"",13.7,"",94.0,"",972.5,"",1011.8,"",.6,"",.0,""
"349210670","KROSNO","2011","07","02",7.8,"",3.1,"",11.4,"",11.8,"",87.8,"",970.0,"",1009.4,"",7.9,"",1.0,""
"349210670","KROSNO","2011","07","03",7.5,"",4.4,"",11.5,"",12.0,"",89.1,"",965.8,"",1004.9,"",5.3,"",3.8,""
"349210670","KROSNO","2011","07","04",7.3,"",2.8,"",13.2,"",14.0,"",92.9,"",968.9,"",1008.0,"",3.8,"",3.0,""
"349210670","KROSNO","2011","07","05",7.3,"",3.8,"",13.6,"",14.7,"",94.8,"",970.9,"",1010.0,"",7.3,"",4.2,""
"349210670","KROSNO","2011","07","06",8.0,"",4.4,"",14.1,"",16.0,"",99.4,"",967.9,"",1006.8,"",12.1,"",5.6,""
"349210670","KROSNO","2011","07","07",4.5,"",3.1,"",20.0,"",17.2,"",76.4,"",972.5,"",1010.7,"",.0,"",.0,""
"349210670","KROSNO","2011","07","08",3.3,"",3.5,"",20.3,"",18.7,"",80.6,"",975.1,"",1013.4,"",13.6,"",.2,""
"349210670","KROSNO","2011","07","09",2.3,"",1.9,"",21.0,"",18.0,"",75.5,"",980.9,"",1019.4,"",.0,"",.0,""
"349210670","KROSNO","2011","07","10",3.8,"",3.0,"",22.8,"",21.4,"",79.0,"",979.1,"",1017.3,"",.0,"",.1,""
"349210670","KROSNO","2011","07","11",5.4,"",2.6,"",21.7,"",20.5,"",81.0,"",976.9,"",1015.1,"",1.4,"",.1,""
"349210670","KROSNO","2011","07","12",5.8,"",2.8,"",17.3,"",16.2,"",82.6,"",980.1,"",1019.0,"",.0,"",.0,""
"349210670","KROSNO","2011","07","13",1.5,"",2.8,"",20.5,"",17.8,"",76.1,"",976.4,"",1014.8,"",.0,"",.0,""
"349210670","KROSNO","2011","07","14",1.3,"",3.8,"",24.3,"",19.2,"",65.8,"",975.1,"",1012.9,"",.0,"",.1,""
"349210670","KROSNO","2011","07","15",7.4,"",2.8,"",18.4,"",19.8,"",93.1,"",977.2,"",1015.8,"",16.2,"",6.3,""
"349210670","KROSNO","2011","07","16",6.1,"",1.9,"",17.6,"",16.0,"",81.5,"",976.3,"",1015.1,"",.0,"",.0,""
"349210670","KROSNO","2011","07","17",1.4,"",3.4,"",20.7,"",17.0,"",72.5,"",970.6,"",1008.7,"",.0,"",.0,""
"349210670","KROSNO","2011","07","18",3.9,"",3.6,"",21.5,"",18.8,"",75.0,"",968.7,"",1006.7,"",.3,"",15.4,""
"349210670","KROSNO","2011","07","19",5.9,"",2.0,"",21.5,"",21.0,"",83.1,"",970.0,"",1008.0,"",.0,"",9.0,""
"349210670","KROSNO","2011","07","20",6.9,"",2.9,"",20.1,"",19.9,"",86.5,"",963.1,"",1000.9,"",3.6,"",5.0,""
"349210670","KROSNO","2011","07","21",5.5,"",3.1,"",17.7,"",16.8,"",84.3,"",961.0,"",999.1,"",.0,"",14.8,""
"349210670","KROSNO","2011","07","22",7.1,"",3.3,"",14.6,"",14.0,"",84.3,"",964.5,"",1003.2,"",1.3,"",.0,""
"349210670","KROSNO","2011","07","23",6.0,"",2.8,"",16.6,"",13.3,"",70.6,"",970.0,"",1008.6,"",1.0,"",.0,""
"349210670","KROSNO","2011","07","24",7.3,"",1.6,"",16.8,"",17.3,"",90.4,"",969.1,"",1007.6,"",.7,"",.5,""
"349210670","KROSNO","2011","07","25",7.5,"",1.6,"",16.8,"",18.2,"",95.6,"",968.9,"",1007.4,"",5.5,"",.0,""
"349210670","KROSNO","2011","07","26",7.9,"",1.5,"",16.4,"",18.2,"",97.9,"",973.7,"",1012.5,"",1.3,"",.1,""
"349210670","KROSNO","2011","07","27",7.0,"",2.8,"",16.4,"",17.6,"",94.8,"",977.3,"",1016.2,"",10.6,"",.2,""
"349210670","KROSNO","2011","07","28",5.3,"",2.1,"",18.0,"",16.8,"",83.3,"",977.6,"",1016.4,"",.0,"",.0,""
"349210670","KROSNO","2011","07","29",7.3,"",2.0,"",18.5,"",18.3,"",86.6,"",973.8,"",1012.3,"",.0,"",25.3,""
"349210670","KROSNO","2011","07","30",8.0,"",3.3,"",13.7,"",15.7,"",100.0,"",969.4,"",1008.4,"",7.1,"",4.4,""
"349210670","KROSNO","2011","07","31",8.0,"",2.8,"",14.5,"",16.2,"",98.5,"",969.6,"",1008.5,"",10.6,"",8.7,""
"349210670","KROSNO","2011","08","01",7.8,"",3.1,"",16.7,"",18.4,"",97.5,"",973.5,"",1012.2,"",.4,"",.0,""
"349210670","KROSNO","2011","08","02",6.1,"",3.4,"",18.3,"",18.2,"",88.0,"",978.1,"",1016.8,"",.0,"",.1,""
"349210670","KROSNO","2011","08","03",2.0,"",2.1,"",17.4,"",14.3,"",74.9,"",980.7,"",1019.7,"",.0,"",.0,""
"349210670","KROSNO","2011","08","04",1.0,"",2.5,"",16.3,"",12.5,"",71.3,"",979.0,"",1018.1,"",.0,"",.0,""
"349210670","KROSNO","2011","08","05",1.0,"",1.6,"",17.2,"",13.1,"",69.8,"",977.8,"",1016.6,"",.0,"",.0,""
"349210670","KROSNO","2011","08","06",3.3,"",3.0,"",19.8,"",16.9,"",74.3,"",975.1,"",1013.5,"",.0,"",.0,""
"349210670","KROSNO","2011","08","07",3.0,"",4.6,"",22.2,"",19.2,"",72.1,"",970.9,"",1008.8,"",.0,"",4.1,""
"349210670","KROSNO","2011","08","08",7.9,"",2.5,"",18.1,"",20.0,"",96.5,"",970.6,"",1009.0,"",1.9,"",4.5,""
"349210670","KROSNO","2011","08","09",5.9,"",2.6,"",17.0,"",14.6,"",78.1,"",975.2,"",1014.0,"",.0,"",.0,""
"349210670","KROSNO","2011","08","10",3.9,"",2.8,"",13.6,"",12.5,"",81.4,"",979.5,"",1018.9,"",.0,"",.0,""
"349210670","KROSNO","2011","08","11",2.8,"",2.3,"",15.1,"",11.7,"",71.0,"",979.1,"",1018.3,"",.0,"",.0,""
"349210670","KROSNO","2011","08","12",6.9,"",3.1,"",18.5,"",14.7,"",70.0,"",975.7,"",1014.3,"",.0,"",.0,""
"349210670","KROSNO","2011","08","13",5.1,"",1.9,"",18.2,"",15.8,"",77.8,"",972.9,"",1011.4,"",.0,"",.1,""
"349210670","KROSNO","2011","08","14",4.3,"",1.5,"",18.7,"",16.9,"",80.4,"",973.3,"",1011.8,"",.0,"",.0,""
"349210670","KROSNO","2011","08","15",5.3,"",1.9,"",20.6,"",18.9,"",79.3,"",974.4,"",1012.7,"",.0,"",8.2,""
"349210670","KROSNO","2011","08","16",6.1,"",2.6,"",18.2,"",18.5,"",89.5,"",978.0,"",1016.8,"",1.0,"",.1,""
"349210670","KROSNO","2011","08","17",5.3,"",2.0,"",18.1,"",16.2,"",80.6,"",980.3,"",1019.1,"",.0,"",.0,""
"349210670","KROSNO","2011","08","18",1.4,"",2.4,"",20.3,"",16.2,"",71.3,"",980.1,"",1018.6,"",.0,"",.0,""
"349210670","KROSNO","2011","08","19",3.4,"",3.9,"",22.0,"",17.8,"",68.0,"",977.9,"",1016.1,"",1.1,"",.0,""
"349210670","KROSNO","2011","08","20",3.5,"",4.4,"",17.8,"",13.7,"",68.0,"",981.3,"",1020.3,"",.0,"",.0,""
"349210670","KROSNO","2011","08","21",1.6,"",2.1,"",16.5,"",12.6,"",69.5,"",983.4,"",1022.6,"",.0,"",.0,""
"349210670","KROSNO","2011","08","22",2.6,"",3.5,"",20.3,"",16.7,"",71.8,"",980.0,"",1018.5,"",.0,"",.0,""
"349210670","KROSNO","2011","08","23",2.5,"",1.6,"",22.4,"",19.6,"",73.6,"",981.2,"",1019.5,"",.0,"",.0,""
"349210670","KROSNO","2011","08","24",2.5,"",3.0,"",23.5,"",21.4,"",75.5,"",978.9,"",1016.9,"",.0,"",.0,""
"349210670","KROSNO","2011","08","25",4.1,"",2.9,"",23.5,"",23.1,"",81.1,"",978.0,"",1016.0,"",.0,"",.0,""
"349210670","KROSNO","2011","08","26",.8,"",3.5,"",25.3,"",21.9,"",70.6,"",978.0,"",1015.7,"",.0,"",.0,""
"349210670","KROSNO","2011","08","27",.1,"",3.6,"",25.0,"",19.0,"",61.1,"",976.6,"",1014.4,"",.0,"",.0,""
"349210670","KROSNO","2011","08","28",6.0,"",2.9,"",17.2,"",14.2,"",72.4,"",981.4,"",1020.4,"",.0,"",.0,""
"349210670","KROSNO","2011","08","29",3.4,"",1.8,"",19.6,"",16.8,"",76.3,"",976.2,"",1014.7,"",.0,"",.0,""
"349210670","KROSNO","2011","08","30",5.9,"",2.0,"",18.3,"",16.7,"",80.9,"",974.7,"",1013.3,"",.0,"",.0,""
"349210670","KROSNO","2011","08","31",5.6,"",1.8,"",16.0,"",12.0,"",67.6,"",976.1,"",1015.1,"",.0,"",.0,""
"349210670","KROSNO","2011","09","01",2.9,"",1.5,"",15.6,"",11.8,"",69.6,"",976.6,"",1015.7,"",.0,"",.0,""
"349210670","KROSNO","2011","09","02",3.0,"",1.9,"",16.5,"",12.4,"",69.1,"",976.3,"",1015.2,"",.0,"",.0,""
"349210670","KROSNO","2011","09","03",2.6,"",1.8,"",15.7,"",12.7,"",73.9,"",978.9,"",1018.0,"",.0,"",.0,""
"349210670","KROSNO","2011","09","04",.9,"",2.6,"",18.4,"",14.4,"",70.9,"",978.8,"",1017.6,"",.0,"",.0,""
"349210670","KROSNO","2011","09","05",2.6,"",3.5,"",22.7,"",15.2,"",57.5,"",976.2,"",1014.3,"",.0,"",.0,""
"349210670","KROSNO","2011","09","06",4.8,"",3.9,"",16.9,"",14.0,"",73.6,"",981.2,"",1020.2,"",.0,"",.0,""
"349210670","KROSNO","2011","09","07",4.8,"",3.4,"",15.4,"",13.2,"",77.9,"",974.6,"",1013.5,"",.0,"",2.1,""
"349210670","KROSNO","2011","09","08",7.1,"",2.6,"",13.2,"",13.4,"",89.0,"",969.7,"",1008.7,"",2.8,"",2.5,""
"349210670","KROSNO","2011","09","09",5.9,"",3.9,"",12.9,"",11.3,"",77.0,"",972.2,"",1011.5,"",.1,"",.4,""
"349210670","KROSNO","2011","09","10",6.6,"",3.0,"",15.2,"",13.3,"",77.5,"",978.1,"",1017.2,"",.0,"",.0,""
"349210670","KROSNO","2011","09","11",3.9,"",3.0,"",20.3,"",16.3,"",69.6,"",977.7,"",1016.2,"",.0,"",.0,""
"349210670","KROSNO","2011","09","12",4.1,"",2.6,"",21.6,"",17.5,"",68.6,"",974.5,"",1012.7,"",.0,"",.0,""
"349210670","KROSNO","2011","09","13",1.3,"",2.0,"",19.8,"",15.4,"",70.3,"",975.4,"",1013.8,"",.0,"",.0,""
"349210670","KROSNO","2011","09","14",5.4,"",2.5,"",17.8,"",15.8,"",79.0,"",976.3,"",1015.1,"",.5,"",.0,""
"349210670","KROSNO","2011","09","15",1.6,"",2.3,"",14.3,"",11.1,"",71.4,"",979.7,"",1019.0,"",.0,"",.0,""
"349210670","KROSNO","2011","09","16",2.5,"",1.9,"",12.2,"",10.4,"",74.9,"",981.2,"",1020.9,"",.0,"",.0,""
"349210670","KROSNO","2011","09","17",1.5,"",2.3,"",13.5,"",11.0,"",74.9,"",979.8,"",1019.2,"",.0,"",.0,""
"349210670","KROSNO","2011","09","18",1.3,"",4.0,"",17.8,"",12.4,"",64.9,"",973.3,"",1011.9,"",.0,"",.0,""
"349210670","KROSNO","2011","09","19",3.5,"",2.6,"",20.8,"",15.2,"",63.6,"",972.2,"",1010.3,"",.1,"",.0,""
"349210670","KROSNO","2011","09","20",7.8,"",3.1,"",14.9,"",16.6,"",97.9,"",980.0,"",1019.2,"",1.0,"",.3,""
"349210670","KROSNO","2011","09","21",7.3,"",2.3,"",15.8,"",16.5,"",92.3,"",981.6,"",1020.8,"",.0,"",.0,""
"349210670","KROSNO","2011","09","22",6.8,"",1.6,"",15.5,"",15.3,"",88.3,"",978.5,"",1017.7,"",.0,"",.0,""
"349210670","KROSNO","2011","09","23",5.3,"",1.8,"",14.0,"",12.7,"",80.5,"",978.9,"",1018.3,"",.0,"",.0,""
"349210670","KROSNO","2011","09","24",2.3,"",1.9,"",11.3,"",9.5,"",74.1,"",981.2,"",1021.0,"",.0,"",.0,""
"349210670","KROSNO","2011","09","25",1.5,"",2.5,"",12.5,"",10.1,"",73.4,"",984.8,"",1024.6,"",.0,"",.0,""
"349210670","KROSNO","2011","09","26",.3,"",2.0,"",14.6,"",11.2,"",72.0,"",986.7,"",1026.2,"",.0,"",.0,""
"349210670","KROSNO","2011","09","27",.4,"",2.0,"",14.8,"",12.3,"",75.3,"",988.6,"",1028.2,"",.0,"",4.0,""
"349210670","KROSNO","2011","09","28",3.9,"",2.6,"",13.0,"",10.9,"",74.9,"",990.1,"",1030.0,"",.0,"",.0,""
"349210670","KROSNO","2011","09","29",5.0,"",3.6,"",13.0,"",11.0,"",74.3,"",987.5,"",1027.3,"",.0,"",.0,""
"349210670","KROSNO","2011","09","30",2.1,"",2.9,"",15.0,"",14.0,"",83.5,"",988.1,"",1027.6,"",.0,"",.0,""
"349210670","KROSNO","2011","10","01",.4,"",3.5,"",15.8,"",12.7,"",73.9,"",986.2,"",1025.6,"",.0,"",.0,""
"349210670","KROSNO","2011","10","02",3.9,"",2.8,"",13.7,"",12.2,"",79.4,"",985.6,"",1025.3,"",.0,"",.0,""
"349210670","KROSNO","2011","10","03",1.9,"",2.4,"",13.1,"",10.3,"",72.3,"",983.3,"",1022.9,"",.0,"",.0,""
"349210670","KROSNO","2011","10","04",5.3,"",2.4,"",16.6,"",11.6,"",61.9,"",980.9,"",1019.9,"",.0,"",.0,""
"349210670","KROSNO","2011","10","05",4.9,"",2.8,"",16.1,"",13.0,"",71.5,"",980.3,"",1019.4,"",.0,"",.0,""
"349210670","KROSNO","2011","10","06",6.0,"",3.3,"",16.0,"",12.6,"",70.9,"",976.4,"",1015.4,"",.0,"",.0,""
"349210670","KROSNO","2011","10","07",6.6,"",3.5,"",11.2,"",11.3,"",86.0,"",967.8,"",1007.1,"",8.5,"",18.1,""
"349210670","KROSNO","2011","10","08",7.1,"",1.5,"",6.9,"",8.8,"",89.6,"",968.2,"",1008.2,"",.6,"",2.5,""
"349210670","KROSNO","2011","10","09",5.6,"",2.5,"",6.1,"",8.8,"",93.5,"",975.7,"",1016.0,"",.0,"",.0,""
"349210670","KROSNO","2011","10","10",7.0,"",2.4,"",7.8,"",8.4,"",80.9,"",976.5,"",1016.7,"",.0,"",4.2,""
"349210670","KROSNO","2011","10","11",8.0,"",4.8,"",7.6,"",9.9,"",94.6,"",974.2,"",1014.3,"",2.8,"",3.5,""
"349210670","KROSNO","2011","10","12",6.3,"",4.4,"",8.8,"",9.7,"",85.3,"",973.7,"",1013.6,"",.4,"",.0,""
"349210670","KROSNO","2011","10","13",5.6,"",3.6,"",6.2,"",8.3,"",87.8,"",980.8,"",1021.3,"",.4,"",.3,""
"349210670","KROSNO","2011","10","14",6.5,"",3.0,"",3.4,"",7.6,"",96.9,"",988.9,"",1030.2,"",.6,"",.3,""
"349210670","KROSNO","2011","10","15",5.5,"",3.9,"",3.3,"",6.9,"",88.5,"",990.8,"",1032.2,"",1.1,"",.0,""
"349210670","KROSNO","2011","10","16",4.6,"",1.6,"",1.5,"",5.5,"",82.6,"",993.7,"",1035.5,"",.0,"",.0,""
"349210670","KROSNO","2011","10","17",1.0,"",2.6,"",3.2,"",5.5,"",75.6,"",987.9,"",1029.2,"",.0,"",.0,""
"349210670","KROSNO","2011","10","18",.4,"",3.8,"",5.2,"",5.2,"",60.4,"",979.8,"",1020.5,"",.0,"",.0,""
"349210670","KROSNO","2011","10","19",3.4,"",5.6,"",8.6,"",4.8,"",43.1,"",977.2,"",1017.3,"",.0,"",1.3,""
"349210670","KROSNO","2011","10","20",7.4,"",1.9,"",5.5,"",8.2,"",92.4,"",981.5,"",1022.2,"",3.8,"",.0,""
"349210670","KROSNO","2011","10","21",5.3,"",2.1,"",3.4,"",7.2,"",92.8,"",987.7,"",1029.0,"",.0,"",.0,""
"349210670","KROSNO","2011","10","22",6.0,"",1.8,"",1.6,"",6.9,"",97.6,"",989.3,"",1030.9,"",.0,"",.0,""
"349210670","KROSNO","2011","10","23",8.0,"",2.3,"",6.0,"",8.8,"",94.9,"",987.3,"",1028.2,"",.0,"",.0,""
"349210670","KROSNO","2011","10","24",7.1,"",3.1,"",6.9,"",9.0,"",90.5,"",985.4,"",1026.1,"",.0,"",.0,""
"349210670","KROSNO","2011","10","25",2.5,"",3.1,"",7.9,"",8.4,"",80.4,"",983.1,"",1023.5,"",.0,"",.0,""
"349210670","KROSNO","2011","10","26",5.0,"",3.4,"",9.2,"",8.2,"",72.6,"",984.1,"",1024.3,"",.0,"",.0,""
"349210670","KROSNO","2011","10","27",2.6,"",3.4,"",7.9,"",6.9,"",69.8,"",986.0,"",1026.5,"",.0,"",.0,""
"349210670","KROSNO","2011","10","28",1.3,"",3.1,"",8.7,"",7.2,"",64.3,"",988.1,"",1028.6,"",.0,"",.0,""
"349210670","KROSNO","2011","10","29",7.0,"",1.3,"",8.8,"",8.2,"",72.5,"",988.9,"",1029.4,"",.0,"",.0,""
"349210670","KROSNO","2011","10","30",6.0,"",2.6,"",8.4,"",8.1,"",74.8,"",985.6,"",1026.0,"",.0,"",.0,""
"349210670","KROSNO","2011","10","31",4.8,"",1.9,"",7.6,"",8.3,"",79.4,"",983.5,"",1024.0,"",.0,"",.0,""
"349210670","KROSNO","2011","11","01",6.8,"",1.5,"",8.3,"",10.3,"",93.3,"",983.3,"",1023.6,"",.3,"",.0,""
"349210670","KROSNO","2011","11","02",2.0,"",3.0,"",8.3,"",8.8,"",81.8,"",982.5,"",1022.8,"",.0,"",.0,""
"349210670","KROSNO","2011","11","03",.0,"",4.0,"",9.2,"",7.8,"",68.1,"",979.3,"",1019.3,"",.0,"",.0,""
"349210670","KROSNO","2011","11","04",1.9,"",5.1,"",9.7,"",7.4,"",61.9,"",978.1,"",1018.0,"",.0,"",.0,""
"349210670","KROSNO","2011","11","05",4.8,"",4.1,"",11.2,"",7.4,"",55.9,"",979.6,"",1019.4,"",.0,"",.0,""
"349210670","KROSNO","2011","11","06",.1,"",4.5,"",7.0,"",7.3,"",75.3,"",983.5,"",1024.1,"",.0,"",.0,""
"349210670","KROSNO","2011","11","07",.5,"",3.9,"",7.7,"",6.3,"",62.6,"",986.2,"",1026.7,"",.0,"",.0,""
"349210670","KROSNO","2011","11","08",.1,"",3.9,"",9.2,"",7.5,"",64.4,"",986.9,"",1027.3,"",.0,"",.0,""
"349210670","KROSNO","2011","11","09",3.1,"",1.8,"",5.4,"",7.6,"",85.0,"",984.5,"",1025.3,"",.0,"",.0,""
"349210670","KROSNO","2011","11","10",7.5,"",2.6,"",2.2,"",5.5,"",75.9,"",987.3,"",1028.7,"",.0,"",.0,""
"349210670","KROSNO","2011","11","11",3.6,"",3.3,"",.9,"",4.5,"",69.5,"",993.8,"",1035.7,"",.0,"",.0,""
"349210670","KROSNO","2011","11","12",.9,"",1.4,"",-1.0,"",4.6,"",81.5,"",997.1,"",1039.4,"",.0,"",.0,""
"349210670","KROSNO","2011","11","13",7.8,"",1.4,"",-1.4,"",5.2,"",93.1,"",996.6,"",1038.9,"",.0,"",.0,""
"349210670","KROSNO","2011","11","14",5.3,"",2.3,"",-.5,"",5.1,"",86.1,"",988.4,"",1030.3,"",.0,"",.0,""
"349210670","KROSNO","2011","11","15",7.8,"",1.8,"",-2.1,"",5.1,"",98.0,"",985.3,"",1027.3,"",.0,"",.1,""
"349210670","KROSNO","2011","11","16",8.0,"",1.8,"",-.3,"",6.0,"",100.0,"",987.0,"",1028.7,"",.2,"",.0,""
"349210670","KROSNO","2011","11","17",5.0,"",3.1,"",1.0,"",5.8,"",88.1,"",985.7,"",1027.2,"",.0,"",.0,""
"349210670","KROSNO","2011","11","18",6.6,"",2.6,"",-.3,"",5.5,"",92.5,"",985.0,"",1026.7,"",.0,"",.0,""
"349210670","KROSNO","2011","11","19",7.0,"",2.9,"",-.1,"",5.3,"",86.6,"",985.3,"",1026.9,"",.0,"",.0,""
"349210670","KROSNO","2011","11","20",2.0,"",2.3,"",-1.3,"",5.2,"",92.5,"",986.1,"",1028.0,"",.0,"",.0,""
"349210670","KROSNO","2011","11","21",7.8,"",4.3,"",-1.8,"",4.9,"",90.1,"",984.9,"",1026.8,"",.0,"",.1,""
"349210670","KROSNO","2011","11","22",7.9,"",2.6,"",-1.3,"",5.0,"",90.1,"",985.2,"",1027.1,"",.0,"",.0,""
"349210670","KROSNO","2011","11","23",3.1,"",2.4,"",.5,"",5.3,"",84.1,"",989.7,"",1031.5,"",.0,"",.0,""
"349210670","KROSNO","2011","11","24",3.1,"",3.4,"",.3,"",5.2,"",83.5,"",992.7,"",1034.6,"",.0,"",.0,""
"349210670","KROSNO","2011","11","25",7.0,"",3.9,"",-1.0,"",5.0,"",87.5,"",990.5,"",1032.5,"",.0,"",.0,""
"349210670","KROSNO","2011","11","26",7.5,"",4.0,"",-1.5,"",5.0,"",91.0,"",986.4,"",1028.4,"",.5,"",.0,""
"349210670","KROSNO","2011","11","27",6.0,"",7.0,"",-.6,"",5.5,"",94.5,"",980.9,"",1022.5,"",.1,"",.0,""
"349210670","KROSNO","2011","11","28",3.8,"",5.4,"",3.6,"",5.7,"",73.3,"",984.3,"",1025.3,"",.0,"",.0,""
"349210670","KROSNO","2011","11","29",3.0,"",3.0,"",-.2,"",5.5,"",90.9,"",988.4,"",1030.2,"",.0,"",.0,""
"349210670","KROSNO","2011","11","30",3.1,"",2.4,"",1.1,"",5.3,"",80.4,"",986.3,"",1027.9,"",.0,"",.1,""
"349210670","KROSNO","2011","12","01",6.6,"",2.8,"",2.0,"",6.6,"",93.9,"",986.8,"",1028.3,"",.0,"",.0,""
"349210670","KROSNO","2011","12","02",5.3,"",5.5,"",1.4,"",5.4,"",81.3,"",978.7,"",1019.8,"",.0,"",.0,""
"349210670","KROSNO","2011","12","03",5.5,"",5.0,"",2.2,"",6.3,"",88.6,"",975.4,"",1016.3,"",.1,"",.0,""
"349210670","KROSNO","2011","12","04",6.9,"",5.9,"",4.6,"",7.7,"",90.9,"",967.0,"",1007.2,"",.0,"",.0,""
"349210670","KROSNO","2011","12","05",6.6,"",7.6,"",6.2,"",8.0,"",83.5,"",960.1,"",999.8,"",2.0,"",.0,""
"349210670","KROSNO","2011","12","06",5.9,"",3.6,"",1.3,"",5.1,"",76.5,"",969.2,"",1010.0,"",.0,"",3.8,""
"349210670","KROSNO","2011","12","07",6.3,"",3.6,"",.7,"",5.8,"",89.5,"",969.1,"",1009.9,"",.0,"",2.6,""
"349210670","KROSNO","2011","12","08",7.1,"",6.3,"",1.6,"",6.4,"",92.9,"",970.4,"",1011.2,"",5.1,"",.0,""
"349210670","KROSNO","2011","12","09",6.4,"",4.9,"",1.2,"",5.2,"",77.4,"",975.4,"",1016.5,"",.0,"",1.4,""
"349210670","KROSNO","2011","12","10",6.5,"",2.6,"",1.6,"",6.4,"",93.5,"",973.5,"",1014.4,"",1.1,"",.3,""
"349210670","KROSNO","2011","12","11",.6,"",2.1,"",.1,"",5.0,"",82.5,"",980.2,"",1021.7,"",.0,"",.0,""
"349210670","KROSNO","2011","12","12",5.3,"",5.5,"",2.9,"",6.5,"",84.4,"",976.7,"",1017.5,"",.0,"",6.1,""
"349210670","KROSNO","2011","12","13",6.9,"",1.8,"",4.7,"",8.3,"",96.6,"",974.4,"",1014.9,"",1.6,"",.0,""
"349210670","KROSNO","2011","12","14",6.8,"",5.9,"",5.8,"",7.8,"",84.9,"",974.2,"",1014.5,"",.0,"",.0,""
"349210670","KROSNO","2011","12","15",7.0,"",3.0,"",6.2,"",8.4,"",89.3,"",972.6,"",1012.8,"",.0,"",.0,""
"349210670","KROSNO","2011","12","16",5.8,"",5.0,"",3.6,"",6.7,"",85.4,"",960.2,"",1000.3,"",.0,"",1.2,""
"349210670","KROSNO","2011","12","17",7.6,"",4.8,"",2.8,"",7.0,"",93.5,"",950.4,"",990.2,"",10.8,"",.1,""
"349210670","KROSNO","2011","12","18",5.9,"",5.1,"",1.4,"",5.7,"",84.1,"",966.5,"",1007.2,"",.3,"",.0,""
"349210670","KROSNO","2011","12","19",5.0,"",2.9,"",-.6,"",5.2,"",88.1,"",977.7,"",1019.1,"",.0,"",.2,""
"349210670","KROSNO","2011","12","20",8.0,"",2.8,"",-1.8,"",5.2,"",96.1,"",972.9,"",1014.3,"",.4,"",.0,""
"349210670","KROSNO","2011","12","21",4.4,"",2.9,"",-2.7,"",4.5,"",89.5,"",971.9,"",1013.5,"",.0,"",.4,""
"349210670","KROSNO","2011","12","22",8.0,"",2.3,"",-1.6,"",5.3,"",96.9,"",979.9,"",1021.6,"",1.7,"",.1,""
"349210670","KROSNO","2011","12","23",7.4,"",2.1,"",-1.6,"",4.9,"",90.3,"",982.4,"",1024.2,"",.0,"",.0,""
"349210670","KROSNO","2011","12","24",8.0,"",5.3,"",-1.7,"",4.8,"",88.0,"",977.7,"",1019.3,"",.1,"",.5,""
"349210670","KROSNO","2011","12","25",7.0,"",3.5,"",.6,"",5.8,"",90.9,"",986.9,"",1028.6,"",.1,"",.0,""
"349210670","KROSNO","2011","12","26",7.8,"",3.9,"",-.2,"",5.4,"",90.1,"",993.2,"",1035.3,"",.1,"",.0,""
"349210670","KROSNO","2011","12","27",8.0,"",3.9,"",.2,"",5.9,"",95.4,"",994.6,"",1036.7,"",.0,"",1.1,""
"349210670","KROSNO","2011","12","28",7.0,"",4.4,"",1.4,"",6.4,"",94.8,"",990.1,"",1031.8,"",.0,"",.0,""
"349210670","KROSNO","2011","12","29",7.1,"",4.5,"",1.5,"",6.0,"",88.6,"",979.2,"",1020.4,"",.0,"",.0,""
"349210670","KROSNO","2011","12","30",6.8,"",5.3,"",.6,"",5.6,"",87.9,"",969.2,"",1010.1,"",.0,"",.8,""
"349210670","KROSNO","2011","12","31",7.1,"",3.0,"",.2,"",5.9,"",95.0,"",973.1,"",1014.2,"",2.0,"",.0,""
