"349190625","ZAKOPANE","2011","01","01",4.6,"",2.5,"",-4.1,"",3.5,"",77.9,"",912.1,"",746.2,"",.0,"",.3,""
"349190625","ZAKOPANE","2011","01","02",7.0,"",2.0,"",-4.2,"",3.5,"",78.6,"",912.7,"",751.9,"",.1,"",.0,""
"349190625","ZAKOPANE","2011","01","03",6.0,"",1.4,"",-6.4,"",2.9,"",76.3,"",916.5,"",784.8,"",.0,"",.0,""
"349190625","ZAKOPANE","2011","01","04",2.3,"",.9,"",-10.6,"",2.2,"",80.9,"",918.4,"",802.2,"",.0,"",.0,""
"349190625","ZAKOPANE","2011","01","05",1.9,"",.6,"",-12.2,"",2.0,"",84.3,"",917.4,"",794.4,"",.0,"",.0,""
"349190625","ZAKOPANE","2011","01","06",3.4,"",2.1,"",-6.4,"",3.0,"",74.0,"",913.6,"",760.0,"",.0,"",.0,""
"349190625","ZAKOPANE","2011","01","07",6.5,"",1.3,"",.5,"",5.5,"",86.8,"",915.8,"",777.3,"",.0,"",.0,""
"349190625","ZAKOPANE","2011","01","08",7.3,"",.1,"",1.6,"",6.4,"",93.8,"",916.5,"",782.9,"",3.1,"",2.5,""
"349190625","ZAKOPANE","2011","01","09",4.4,"",.3,"",2.6,"",6.2,"",86.6,"",917.0,"",787.2,"",.0,"",.0,""
"349190625","ZAKOPANE","2011","01","10",7.6,"",.6,"",.2,"",6.2,"",99.4,"",919.8,"",812.5,"",.0,"",.0,""
"349190625","ZAKOPANE","2011","01","11",6.9,"",.6,"",1.3,"",6.3,"",93.8,"",915.8,"",777.0,"",.0,"",.0,""
"349190625","ZAKOPANE","2011","01","12",6.4,"",1.4,"",1.5,"",5.9,"",86.6,"",914.6,"",766.7,"",.0,"",1.7,""
"349190625","ZAKOPANE","2011","01","13",7.4,"",1.3,"",.9,"",5.7,"",86.3,"",911.9,"",742.9,"",1.0,"",1.0,""
"349190625","ZAKOPANE","2011","01","14",7.9,"",1.9,"",5.0,"",8.0,"",92.0,"",913.5,"",755.2,"",2.9,"",.3,""
"349190625","ZAKOPANE","2011","01","15",7.8,"",2.3,"",3.7,"",7.2,"",89.8,"",917.7,"",793.1,"",5.3,"",2.0,""
"349190625","ZAKOPANE","2011","01","16",5.1,"",1.5,"",1.3,"",6.1,"",90.5,"",925.9,"",865.2,"",.2,"",.0,""
"349190625","ZAKOPANE","2011","01","17",.3,"",.5,"",-.1,"",4.5,"",76.0,"",925.0,"",857.4,"",.0,"",.0,""
"349190625","ZAKOPANE","2011","01","18",4.5,"",.9,"",1.0,"",5.1,"",77.8,"",922.3,"",833.6,"",.0,"",.0,""
"349190625","ZAKOPANE","2011","01","19",7.4,"",1.1,"",1.1,"",5.7,"",86.4,"",919.8,"",811.6,"",.4,"",2.6,""
"349190625","ZAKOPANE","2011","01","20",8.0,"",1.1,"",-3.7,"",4.2,"",88.9,"",919.3,"",808.7,"",2.1,"",.8,""
"349190625","ZAKOPANE","2011","01","21",7.5,"",1.1,"",-5.5,"",3.5,"",86.6,"",923.4,"",843.4,"",.4,"",.2,""
"349190625","ZAKOPANE","2011","01","22",7.8,"",1.4,"",-7.3,"",2.9,"",80.8,"",923.9,"",847.6,"",.0,"",.0,""
"349190625","ZAKOPANE","2011","01","23",7.6,"",2.0,"",-6.5,"",3.3,"",86.6,"",916.6,"",785.7,"",2.2,"",2.1,""
"349190625","ZAKOPANE","2011","01","24",6.6,"",.9,"",-8.2,"",2.7,"",81.4,"",915.9,"",780.4,"",1.2,"",.0,""
"349190625","ZAKOPANE","2011","01","25",4.9,"",1.0,"",-10.2,"",2.6,"",86.8,"",910.2,"",732.6,"",.2,"",.4,""
"349190625","ZAKOPANE","2011","01","26",6.9,"",.3,"",-5.9,"",3.6,"",90.9,"",906.4,"",698.0,"",1.8,"",.1,""
"349190625","ZAKOPANE","2011","01","27",7.1,"",.5,"",-5.0,"",3.6,"",85.9,"",914.6,"",768.5,"",.6,"",.0,""
"349190625","ZAKOPANE","2011","01","28",2.3,"",.8,"",-7.8,"",2.8,"",83.0,"",922.7,"",838.1,"",.0,"",.0,""
"349190625","ZAKOPANE","2011","01","29",.0,"",.6,"",-8.7,"",2.6,"",81.0,"",921.1,"",824.7,"",.0,"",.0,""
"349190625","ZAKOPANE","2011","01","30",1.5,"",.9,"",-7.6,"",2.4,"",72.0,"",918.2,"",800.1,"",.0,"",.0,""
"349190625","ZAKOPANE","2011","01","31",.3,"",.4,"",-8.4,"",2.3,"",72.9,"",921.1,"",824.8,"",.0,"",.0,""
"349190625","ZAKOPANE","2011","02","01",.1,"",.9,"",-5.9,"",2.5,"",65.6,"",921.2,"",824.7,"",.0,"",.0,""
"349190625","ZAKOPANE","2011","02","02",3.6,"",1.0,"",-4.3,"",3.1,"",71.0,"",921.5,"",827.7,"",.2,"",.0,""
"349190625","ZAKOPANE","2011","02","03",5.0,"",2.1,"",-1.0,"",3.4,"",63.0,"",922.1,"",832.3,"",.0,"",3.9,""
"349190625","ZAKOPANE","2011","02","04",4.9,"",2.6,"",-.3,"",4.5,"",75.3,"",921.6,"",827.8,"",.0,"",.0,""
"349190625","ZAKOPANE","2011","02","05",7.6,"",5.0,"",3.2,"",6.0,"",78.0,"",918.1,"",796.5,"",.0,"",.0,""
"349190625","ZAKOPANE","2011","02","06",7.5,"",3.3,"",3.9,"",6.8,"",84.3,"",920.4,"",816.9,"",.1,"",.0,""
"349190625","ZAKOPANE","2011","02","07",1.5,"",2.5,"",5.5,"",4.9,"",56.5,"",920.1,"",814.3,"",.0,"",.0,""
"349190625","ZAKOPANE","2011","02","08",3.4,"",3.0,"",3.7,"",3.9,"",50.5,"",917.3,"",789.1,"",.0,"",.0,""
"349190625","ZAKOPANE","2011","02","09",3.1,"",2.0,"",-.9,"",3.5,"",62.4,"",920.9,"",821.6,"",.0,"",.0,""
"349190625","ZAKOPANE","2011","02","10",4.6,"",.6,"",-1.8,"",3.7,"",71.1,"",920.6,"",819.7,"",.0,"",.0,""
"349190625","ZAKOPANE","2011","02","11",7.5,"",3.4,"",2.8,"",6.0,"",79.3,"",909.8,"",723.1,"",.6,"",7.3,""
"349190625","ZAKOPANE","2011","02","12",4.4,"",2.5,"",-5.6,"",3.3,"",78.8,"",912.9,"",753.7,"",.9,"",.0,""
"349190625","ZAKOPANE","2011","02","13",4.5,"",.4,"",-7.4,"",2.7,"",77.6,"",916.1,"",781.6,"",.0,"",.0,""
"349190625","ZAKOPANE","2011","02","14",5.0,"",.5,"",-6.5,"",2.8,"",74.9,"",913.7,"",761.2,"",.0,"",.0,""
"349190625","ZAKOPANE","2011","02","15",4.9,"",.8,"",-8.2,"",2.2,"",70.0,"",910.6,"",735.1,"",.0,"",.0,""
"349190625","ZAKOPANE","2011","02","16",4.9,"",.4,"",-3.5,"",3.5,"",73.5,"",907.9,"",710.3,"",.0,"",.0,""
"349190625","ZAKOPANE","2011","02","17",6.8,"",.3,"",-1.7,"",4.7,"",86.3,"",907.6,"",705.9,"",.0,"",.0,""
"349190625","ZAKOPANE","2011","02","18",7.5,"",.6,"",.2,"",5.5,"",88.9,"",910.7,"",732.2,"",.0,"",.4,""
"349190625","ZAKOPANE","2011","02","19",8.0,"",1.1,"",-2.8,"",4.8,"",95.4,"",913.1,"",755.0,"",1.9,"",.4,""
"349190625","ZAKOPANE","2011","02","20",8.0,"",1.6,"",-7.8,"",3.1,"",89.1,"",914.5,"",768.7,"",.4,"",.3,""
"349190625","ZAKOPANE","2011","02","21",7.3,"",1.6,"",-11.9,"",2.1,"",83.1,"",915.3,"",777.0,"",.0,"",.0,""
"349190625","ZAKOPANE","2011","02","22",6.5,"",1.0,"",-13.5,"",1.8,"",81.6,"",913.7,"",763.7,"",.0,"",.1,""
"349190625","ZAKOPANE","2011","02","23",7.1,"",1.4,"",-12.0,"",2.0,"",81.3,"",919.1,"",808.5,"",.2,"",.1,""
"349190625","ZAKOPANE","2011","02","24",6.9,"",1.3,"",-12.4,"",2.0,"",81.1,"",923.6,"",846.0,"",.1,"",1.3,""
"349190625","ZAKOPANE","2011","02","25",7.8,"",1.4,"",-10.5,"",2.3,"",83.9,"",925.4,"",860.7,"",1.0,"",.0,""
"349190625","ZAKOPANE","2011","02","26",1.1,"",.5,"",-6.7,"",3.1,"",80.1,"",922.0,"",831.2,"",.0,"",.0,""
"349190625","ZAKOPANE","2011","02","27",2.1,"",.5,"",-.9,"",4.7,"",82.3,"",916.4,"",783.2,"",.0,"",.0,""
"349190625","ZAKOPANE","2011","02","28",.1,"",1.0,"",-2.3,"",4.2,"",81.5,"",921.9,"",830.3,"",.0,"",.0,""
"349190625","ZAKOPANE","2011","03","01",.6,"",1.5,"",-5.1,"",2.5,"",64.9,"",929.0,"",891.2,"",.0,"",.0,""
"349190625","ZAKOPANE","2011","03","02",1.0,"",1.5,"",-4.8,"",2.8,"",65.9,"",930.2,"",901.1,"",.0,"",.0,""
"349190625","ZAKOPANE","2011","03","03",4.9,"",.8,"",-1.3,"",3.7,"",68.4,"",928.9,"",891.0,"",.0,"",.0,""
"349190625","ZAKOPANE","2011","03","04",.0,"",1.0,"",-1.2,"",4.1,"",74.6,"",928.1,"",883.7,"",.0,"",.0,""
"349190625","ZAKOPANE","2011","03","05",4.0,"",2.1,"",.5,"",3.5,"",58.4,"",918.9,"",804.0,"",.0,"",.4,""
"349190625","ZAKOPANE","2011","03","06",7.0,"",2.6,"",-4.7,"",3.3,"",76.3,"",918.1,"",797.9,"",.8,"",1.3,""
"349190625","ZAKOPANE","2011","03","07",4.9,"",1.5,"",-7.7,"",2.6,"",75.4,"",929.9,"",898.4,"",.1,"",.0,""
"349190625","ZAKOPANE","2011","03","08",1.3,"",1.1,"",-6.5,"",2.4,"",66.6,"",929.6,"",895.6,"",.0,"",.0,""
"349190625","ZAKOPANE","2011","03","09",1.4,"",1.5,"",-2.7,"",2.6,"",57.0,"",920.6,"",819.5,"",.0,"",.0,""
"349190625","ZAKOPANE","2011","03","10",7.3,"",1.0,"",-.6,"",4.7,"",78.9,"",916.9,"",787.4,"",.5,"",.0,""
"349190625","ZAKOPANE","2011","03","11",6.9,"",3.1,"",4.5,"",5.1,"",60.5,"",917.0,"",786.6,"",.0,"",.0,""
"349190625","ZAKOPANE","2011","03","12",3.0,"",3.0,"",5.4,"",4.4,"",53.8,"",918.1,"",795.7,"",.0,"",.0,""
"349190625","ZAKOPANE","2011","03","13",5.8,"",3.1,"",10.3,"",3.8,"",30.1,"",913.4,"",752.5,"",.0,"",.0,""
"349190625","ZAKOPANE","2011","03","14",7.0,"",1.6,"",9.0,"",7.0,"",61.5,"",917.4,"",789.0,"",.0,"",.2,""
"349190625","ZAKOPANE","2011","03","15",5.9,"",.6,"",6.8,"",8.2,"",83.6,"",920.2,"",814.5,"",.6,"",.0,""
"349190625","ZAKOPANE","2011","03","16",7.3,"",1.1,"",7.1,"",7.8,"",79.3,"",918.1,"",795.7,"",.1,"",.2,""
"349190625","ZAKOPANE","2011","03","17",7.1,"",1.3,"",9.6,"",9.0,"",75.6,"",908.5,"",708.3,"",3.0,"",1.8,""
"349190625","ZAKOPANE","2011","03","18",7.9,"",1.3,"",4.0,"",7.8,"",94.6,"",911.2,"",734.7,"",2.4,"",3.1,""
"349190625","ZAKOPANE","2011","03","19",8.0,"",1.3,"",-1.9,"",5.0,"",93.8,"",921.2,"",824.1,"",.4,"",.1,""
"349190625","ZAKOPANE","2011","03","20",7.1,"",.9,"",-2.1,"",4.2,"",80.8,"",927.9,"",882.4,"",.0,"",.0,""
"349190625","ZAKOPANE","2011","03","21",3.6,"",1.0,"",-.9,"",3.9,"",69.4,"",931.6,"",913.8,"",.0,"",.0,""
"349190625","ZAKOPANE","2011","03","22",4.4,"",1.3,"",2.1,"",4.6,"",67.3,"",932.2,"",919.2,"",.0,"",.0,""
"349190625","ZAKOPANE","2011","03","23",5.8,"",1.3,"",4.0,"",6.2,"",77.0,"",931.6,"",914.7,"",.0,"",.0,""
"349190625","ZAKOPANE","2011","03","24",5.3,"",2.5,"",4.8,"",5.3,"",63.3,"",928.7,"",889.9,"",.0,"",.0,""
"349190625","ZAKOPANE","2011","03","25",7.0,"",3.0,"",7.0,"",6.1,"",62.1,"",918.0,"",794.5,"",.0,"",.0,""
"349190625","ZAKOPANE","2011","03","26",7.6,"",2.0,"",2.9,"",6.2,"",82.6,"",911.6,"",739.5,"",2.9,"",2.8,""
"349190625","ZAKOPANE","2011","03","27",5.1,"",1.0,"",-1.3,"",4.7,"",86.0,"",916.0,"",779.1,"",.0,"",.0,""
"349190625","ZAKOPANE","2011","03","28",4.9,"",1.3,"",2.6,"",5.0,"",71.6,"",912.7,"",749.2,"",.0,"",.0,""
"349190625","ZAKOPANE","2011","03","29",2.6,"",1.6,"",4.9,"",4.9,"",60.1,"",916.2,"",779.1,"",.0,"",.0,""
"349190625","ZAKOPANE","2011","03","30",.3,"",2.0,"",5.7,"",4.3,"",52.3,"",918.2,"",796.8,"",.0,"",.0,""
"349190625","ZAKOPANE","2011","03","31",2.5,"",2.0,"",6.9,"",5.1,"",55.8,"",921.0,"",822.0,"",.0,"",.0,""
"349190625","ZAKOPANE","2011","04","01",6.6,"",2.0,"",8.6,"",7.8,"",70.4,"",921.4,"",824.7,"",.1,"",.0,""
"349190625","ZAKOPANE","2011","04","02",5.9,"",1.4,"",7.9,"",7.1,"",69.1,"",922.2,"",832.4,"",.0,"",.0,""
"349190625","ZAKOPANE","2011","04","03",1.9,"",1.0,"",7.2,"",6.6,"",69.3,"",918.4,"",798.3,"",.0,"",.0,""
"349190625","ZAKOPANE","2011","04","04",5.5,"",2.1,"",8.2,"",7.1,"",70.4,"",915.9,"",775.8,"",.2,"",14.4,""
"349190625","ZAKOPANE","2011","04","05",6.1,"",.9,"",3.9,"",7.1,"",89.0,"",923.4,"",843.4,"",.2,"",.0,""
"349190625","ZAKOPANE","2011","04","06",6.8,"",2.3,"",7.2,"",8.2,"",80.5,"",924.8,"",855.6,"",.1,"",2.2,""
"349190625","ZAKOPANE","2011","04","07",7.5,"",3.6,"",11.5,"",11.2,"",84.0,"",918.6,"",799.5,"",4.7,"",.4,""
"349190625","ZAKOPANE","2011","04","08",7.0,"",4.9,"",5.0,"",6.4,"",72.8,"",912.4,"",745.5,"",.1,"",1.8,""
"349190625","ZAKOPANE","2011","04","09",7.4,"",3.0,"",2.8,"",6.1,"",81.8,"",912.3,"",745.0,"",1.5,"",.1,""
"349190625","ZAKOPANE","2011","04","10",6.8,"",2.9,"",2.8,"",4.8,"",65.0,"",916.9,"",785.8,"",.0,"",.0,""
"349190625","ZAKOPANE","2011","04","11",5.1,"",1.8,"",2.7,"",4.8,"",63.8,"",918.7,"",801.9,"",2.5,"",7.2,""
"349190625","ZAKOPANE","2011","04","12",7.4,"",2.1,"",7.1,"",8.3,"",83.1,"",910.8,"",730.3,"",8.8,"",2.3,""
"349190625","ZAKOPANE","2011","04","13",7.1,"",2.1,"",.7,"",5.6,"",86.4,"",910.7,"",732.2,"",6.0,"",2.4,""
"349190625","ZAKOPANE","2011","04","14",7.9,"",.5,"",.4,"",6.2,"",99.3,"",911.0,"",734.7,"",8.4,"",3.0,""
"349190625","ZAKOPANE","2011","04","15",8.0,"",.4,"",1.7,"",6.5,"",94.9,"",917.1,"",788.1,"",.2,"",.1,""
"349190625","ZAKOPANE","2011","04","16",6.9,"",.9,"",3.4,"",6.5,"",84.4,"",921.5,"",826.5,"",.0,"",.0,""
"349190625","ZAKOPANE","2011","04","17",4.4,"",1.1,"",4.8,"",5.8,"",71.3,"",924.3,"",851.0,"",.0,"",.0,""
"349190625","ZAKOPANE","2011","04","18",4.6,"",.9,"",6.3,"",6.2,"",67.6,"",923.7,"",845.2,"",.0,"",.0,""
"349190625","ZAKOPANE","2011","04","19",4.8,"",1.0,"",7.0,"",7.3,"",74.1,"",920.6,"",818.1,"",.0,"",.0,""
"349190625","ZAKOPANE","2011","04","20",1.3,"",1.1,"",8.1,"",6.0,"",61.0,"",920.5,"",816.9,"",.0,"",.0,""
"349190625","ZAKOPANE","2011","04","21",1.9,"",1.5,"",11.1,"",7.0,"",57.0,"",920.1,"",812.9,"",.0,"",.0,""
"349190625","ZAKOPANE","2011","04","22",2.8,"",1.0,"",11.5,"",7.4,"",59.1,"",918.2,"",795.6,"",.0,"",.0,""
"349190625","ZAKOPANE","2011","04","23",5.8,"",1.1,"",11.5,"",8.1,"",63.4,"",917.5,"",789.0,"",.1,"",3.4,""
"349190625","ZAKOPANE","2011","04","24",5.8,"",1.4,"",9.4,"",10.1,"",87.0,"",918.3,"",796.9,"",.9,"",1.3,""
"349190625","ZAKOPANE","2011","04","25",7.4,"",1.4,"",8.8,"",9.0,"",81.5,"",919.7,"",809.5,"",.6,"",.0,""
"349190625","ZAKOPANE","2011","04","26",5.6,"",1.8,"",11.0,"",7.6,"",63.0,"",918.8,"",801.2,"",.0,"",.0,""
"349190625","ZAKOPANE","2011","04","27",5.3,"",1.6,"",10.7,"",6.4,"",54.6,"",918.3,"",796.4,"",.0,"",.0,""
"349190625","ZAKOPANE","2011","04","28",5.8,"",1.4,"",11.0,"",7.0,"",56.4,"",917.0,"",784.6,"",.0,"",.0,""
"349190625","ZAKOPANE","2011","04","29",4.4,"",1.5,"",10.9,"",7.2,"",59.4,"",915.5,"",771.5,"",.0,"",.0,""
"349190625","ZAKOPANE","2011","04","30",4.5,"",1.0,"",8.9,"",8.0,"",72.4,"",912.5,"",745.2,"",.0,"",.0,""
"349190625","ZAKOPANE","2011","05","01",7.4,"",.5,"",6.8,"",9.0,"",91.3,"",909.7,"",720.4,"",9.6,"",.1,""
"349190625","ZAKOPANE","2011","05","02",6.8,"",1.3,"",5.6,"",6.8,"",75.9,"",910.9,"",732.1,"",.0,"",.0,""
"349190625","ZAKOPANE","2011","05","03",6.6,"",2.3,"",4.3,"",7.0,"",85.8,"",908.7,"",712.3,"",5.9,"",1.2,""
"349190625","ZAKOPANE","2011","05","04",6.4,"",1.8,"",1.5,"",4.8,"",71.9,"",916.5,"",782.9,"",.0,"",1.1,""
"349190625","ZAKOPANE","2011","05","05",5.0,"",1.6,"",1.2,"",4.7,"",72.4,"",922.9,"",839.1,"",.2,"",.0,""
"349190625","ZAKOPANE","2011","05","06",.5,"",1.8,"",5.0,"",4.8,"",58.1,"",926.7,"",871.7,"",.0,"",.0,""
"349190625","ZAKOPANE","2011","05","07",5.1,"",1.6,"",5.5,"",6.0,"",68.0,"",924.0,"",848.1,"",.3,"",18.1,""
"349190625","ZAKOPANE","2011","05","08",4.9,"",1.9,"",7.1,"",7.6,"",77.8,"",923.8,"",846.3,"",.4,"",.0,""
"349190625","ZAKOPANE","2011","05","09",1.6,"",2.1,"",8.8,"",7.5,"",68.4,"",929.6,"",898.5,"",.0,"",.0,""
"349190625","ZAKOPANE","2011","05","10",3.8,"",1.1,"",12.1,"",9.2,"",68.0,"",928.5,"",888.4,"",.0,"",.0,""
"349190625","ZAKOPANE","2011","05","11",.6,"",1.4,"",12.4,"",7.3,"",55.5,"",923.8,"",846.0,"",.0,"",.0,""
"349190625","ZAKOPANE","2011","05","12",3.8,"",1.3,"",13.5,"",7.3,"",50.8,"",918.7,"",799.7,"",.0,"",3.4,""
"349190625","ZAKOPANE","2011","05","13",5.6,"",1.8,"",10.1,"",9.0,"",73.3,"",919.8,"",810.2,"",2.4,"",.0,""
"349190625","ZAKOPANE","2011","05","14",6.4,"",1.3,"",10.2,"",8.9,"",72.1,"",918.9,"",802.1,"",.0,"",1.0,""
"349190625","ZAKOPANE","2011","05","15",7.6,"",.9,"",8.0,"",10.2,"",93.9,"",915.1,"",768.3,"",19.1,"",10.7,""
"349190625","ZAKOPANE","2011","05","16",5.9,"",1.3,"",6.4,"",7.7,"",82.4,"",920.5,"",817.7,"",.0,"",.0,""
"349190625","ZAKOPANE","2011","05","17",3.4,"",1.3,"",9.5,"",8.4,"",73.0,"",922.6,"",835.5,"",.0,"",.0,""
"349190625","ZAKOPANE","2011","05","18",2.3,"",1.0,"",12.8,"",10.0,"",70.5,"",923.1,"",839.8,"",.0,"",.0,""
"349190625","ZAKOPANE","2011","05","19",3.0,"",.8,"",14.0,"",10.8,"",70.1,"",922.6,"",835.4,"",.0,"",.0,""
"349190625","ZAKOPANE","2011","05","20",3.1,"",1.0,"",14.6,"",11.0,"",68.9,"",922.8,"",837.1,"",.0,"",.0,""
"349190625","ZAKOPANE","2011","05","21",4.9,"",.9,"",13.9,"",11.4,"",72.4,"",923.5,"",843.9,"",2.7,"",.0,""
"349190625","ZAKOPANE","2011","05","22",3.3,"",1.0,"",14.7,"",11.5,"",71.6,"",922.7,"",836.5,"",.0,"",.0,""
"349190625","ZAKOPANE","2011","05","23",4.5,"",.8,"",14.5,"",13.0,"",79.8,"",925.2,"",859.2,"",14.1,"",.0,""
"349190625","ZAKOPANE","2011","05","24",3.9,"",.9,"",15.4,"",14.0,"",81.4,"",924.3,"",850.3,"",.8,"",.0,""
"349190625","ZAKOPANE","2011","05","25",3.8,"",1.6,"",10.9,"",8.7,"",67.1,"",926.4,"",869.7,"",.0,"",.0,""
"349190625","ZAKOPANE","2011","05","26",.0,"",.8,"",11.9,"",7.7,"",60.8,"",922.2,"",831.8,"",.0,"",.0,""
"349190625","ZAKOPANE","2011","05","27",2.6,"",1.5,"",15.0,"",10.2,"",64.4,"",916.8,"",782.1,"",.0,"",9.5,""
"349190625","ZAKOPANE","2011","05","28",8.0,"",1.0,"",9.7,"",11.9,"",98.4,"",916.4,"",780.3,"",30.9,"",1.5,""
"349190625","ZAKOPANE","2011","05","29",6.0,"",.4,"",10.8,"",10.9,"",85.6,"",919.7,"",809.6,"",.2,"",.0,""
"349190625","ZAKOPANE","2011","05","30",2.1,"",1.6,"",15.2,"",10.0,"",63.1,"",923.4,"",842.6,"",.0,"",.0,""
"349190625","ZAKOPANE","2011","05","31",3.6,"",1.3,"",17.8,"",10.3,"",53.9,"",920.2,"",812.5,"",.0,"",.0,""
"349190625","ZAKOPANE","2011","06","01",6.9,"",.4,"",16.6,"",13.3,"",71.8,"",920.6,"",816.9,"",.0,"",.0,""
"349190625","ZAKOPANE","2011","06","02",7.6,"",.6,"",14.2,"",15.1,"",93.4,"",926.2,"",868.3,"",7.0,"",10.5,""
"349190625","ZAKOPANE","2011","06","03",6.6,"",1.3,"",17.3,"",15.9,"",81.8,"",928.1,"",885.6,"",.0,"",1.5,""
"349190625","ZAKOPANE","2011","06","04",5.5,"",.5,"",16.7,"",15.7,"",83.8,"",924.0,"",847.9,"",.6,"",.0,""
"349190625","ZAKOPANE","2011","06","05",5.1,"",.6,"",16.7,"",14.5,"",78.5,"",918.9,"",800.7,"",.3,"",.0,""
"349190625","ZAKOPANE","2011","06","06",5.1,"",1.4,"",15.7,"",14.1,"",79.9,"",915.9,"",773.8,"",20.3,"",.0,""
"349190625","ZAKOPANE","2011","06","07",6.4,"",1.8,"",18.6,"",13.3,"",63.0,"",914.2,"",756.7,"",.0,"",2.0,""
"349190625","ZAKOPANE","2011","06","08",5.6,"",1.4,"",17.3,"",15.7,"",80.3,"",911.4,"",731.5,"",4.7,"",.0,""
"349190625","ZAKOPANE","2011","06","09",6.5,"",.4,"",12.3,"",13.4,"",93.4,"",912.2,"",740.3,"",21.5,"",7.5,""
"349190625","ZAKOPANE","2011","06","10",7.9,"",.6,"",9.6,"",11.4,"",95.5,"",915.9,"",775.0,"",.9,"",.7,""
"349190625","ZAKOPANE","2011","06","11",7.1,"",.8,"",12.4,"",9.8,"",69.9,"",917.3,"",787.3,"",.0,"",.0,""
"349190625","ZAKOPANE","2011","06","12",5.8,"",1.0,"",13.5,"",9.2,"",61.4,"",919.1,"",803.9,"",.0,"",.0,""
"349190625","ZAKOPANE","2011","06","13",5.3,"",.5,"",14.2,"",11.6,"",73.1,"",919.3,"",804.9,"",.0,"",.0,""
"349190625","ZAKOPANE","2011","06","14",4.4,"",.9,"",14.5,"",10.2,"",65.5,"",919.5,"",807.4,"",.0,"",.0,""
"349190625","ZAKOPANE","2011","06","15",6.5,"",.8,"",14.8,"",12.1,"",73.0,"",921.3,"",823.2,"",1.1,"",.0,""
"349190625","ZAKOPANE","2011","06","16",4.6,"",.6,"",16.0,"",13.7,"",76.4,"",919.9,"",810.7,"",.7,"",.0,""
"349190625","ZAKOPANE","2011","06","17",5.4,"",.9,"",16.5,"",15.3,"",82.3,"",918.3,"",795.3,"",7.6,"",.0,""
"349190625","ZAKOPANE","2011","06","18",7.3,"",1.9,"",16.8,"",14.2,"",76.8,"",913.2,"",748.0,"",.2,"",14.4,""
"349190625","ZAKOPANE","2011","06","19",6.8,"",1.1,"",11.0,"",10.6,"",81.9,"",913.0,"",748.3,"",1.1,"",.0,""
"349190625","ZAKOPANE","2011","06","20",5.8,"",1.5,"",10.1,"",9.6,"",78.0,"",916.9,"",784.7,"",1.4,"",.2,""
"349190625","ZAKOPANE","2011","06","21",6.4,"",1.8,"",14.4,"",11.7,"",71.9,"",919.7,"",809.1,"",.3,"",.0,""
"349190625","ZAKOPANE","2011","06","22",3.9,"",2.3,"",20.1,"",13.0,"",58.1,"",920.4,"",814.1,"",.0,"",3.3,""
"349190625","ZAKOPANE","2011","06","23",6.9,"",1.4,"",17.8,"",16.2,"",79.9,"",919.4,"",805.1,"",.2,"",11.8,""
"349190625","ZAKOPANE","2011","06","24",6.9,"",1.4,"",13.6,"",12.5,"",81.8,"",919.4,"",806.4,"",1.3,"",.8,""
"349190625","ZAKOPANE","2011","06","25",6.5,"",2.0,"",8.9,"",9.9,"",86.9,"",922.3,"",832.9,"",8.3,"",.0,""
"349190625","ZAKOPANE","2011","06","26",6.0,"",1.3,"",10.2,"",9.1,"",74.0,"",923.6,"",844.7,"",.0,"",.0,""
"349190625","ZAKOPANE","2011","06","27",6.4,"",1.0,"",11.9,"",10.2,"",75.4,"",923.3,"",841.6,"",.0,"",.0,""
"349190625","ZAKOPANE","2011","06","28",7.6,"",.4,"",11.4,"",11.7,"",86.8,"",919.4,"",806.9,"",11.4,"",11.6,""
"349190625","ZAKOPANE","2011","06","29",7.6,"",.9,"",14.5,"",15.4,"",93.5,"",915.8,"",773.0,"",8.7,"",19.1,""
"349190625","ZAKOPANE","2011","06","30",7.4,"",.6,"",14.7,"",15.3,"",92.0,"",912.7,"",744.8,"",15.6,"",7.1,""
"349190625","ZAKOPANE","2011","07","01",8.0,"",1.1,"",8.8,"",10.9,"",95.4,"",916.1,"",777.8,"",9.0,"",8.3,""
"349190625","ZAKOPANE","2011","07","02",7.5,"",1.1,"",8.1,"",9.8,"",90.8,"",912.5,"",745.2,"",6.6,"",.0,""
"349190625","ZAKOPANE","2011","07","03",7.3,"",2.0,"",10.1,"",9.5,"",77.6,"",906.8,"",692.3,"",3.5,"",12.7,""
"349190625","ZAKOPANE","2011","07","04",7.4,"",1.8,"",11.3,"",11.6,"",87.1,"",911.9,"",738.3,"",.7,"",2.4,""
"349190625","ZAKOPANE","2011","07","05",7.0,"",.9,"",11.1,"",11.8,"",89.6,"",914.3,"",760.0,"",2.4,"",1.2,""
"349190625","ZAKOPANE","2011","07","06",6.9,"",1.3,"",11.7,"",12.8,"",93.0,"",913.1,"",749.2,"",10.8,"",.0,""
"349190625","ZAKOPANE","2011","07","07",3.5,"",1.4,"",17.3,"",13.4,"",71.5,"",916.3,"",776.7,"",.1,"",.7,""
"349190625","ZAKOPANE","2011","07","08",4.1,"",2.1,"",18.1,"",15.5,"",77.6,"",917.3,"",786.3,"",13.2,"",.0,""
"349190625","ZAKOPANE","2011","07","09",2.4,"",.5,"",18.9,"",15.2,"",72.9,"",922.8,"",836.6,"",.0,"",.0,""
"349190625","ZAKOPANE","2011","07","10",4.1,"",.9,"",20.1,"",17.8,"",78.3,"",921.8,"",827.3,"",9.1,"",.0,""
"349190625","ZAKOPANE","2011","07","11",4.1,"",1.5,"",19.7,"",16.1,"",72.4,"",919.8,"",809.2,"",.0,"",.3,""
"349190625","ZAKOPANE","2011","07","12",6.4,"",.8,"",14.3,"",13.9,"",85.8,"",921.7,"",827.4,"",.2,"",.0,""
"349190625","ZAKOPANE","2011","07","13",4.1,"",.9,"",19.0,"",15.5,"",72.4,"",917.9,"",790.9,"",.0,"",.0,""
"349190625","ZAKOPANE","2011","07","14",5.0,"",1.1,"",21.8,"",16.3,"",65.4,"",917.4,"",786.4,"",.0,"",3.0,""
"349190625","ZAKOPANE","2011","07","15",7.5,"",1.3,"",16.1,"",16.3,"",89.3,"",919.6,"",807.9,"",10.2,"",.0,""
"349190625","ZAKOPANE","2011","07","16",5.6,"",.8,"",14.2,"",13.4,"",83.9,"",918.0,"",793.1,"",.0,"",.0,""
"349190625","ZAKOPANE","2011","07","17",1.8,"",1.5,"",18.1,"",13.2,"",67.1,"",912.6,"",741.8,"",.0,"",.0,""
"349190625","ZAKOPANE","2011","07","18",5.1,"",1.8,"",19.8,"",15.9,"",70.1,"",910.9,"",725.2,"",.4,"",8.0,""
"349190625","ZAKOPANE","2011","07","19",6.4,"",.9,"",17.4,"",15.8,"",82.0,"",912.2,"",738.9,"",1.0,"",35.0,""
"349190625","ZAKOPANE","2011","07","20",7.0,"",1.3,"",16.3,"",16.4,"",88.5,"",905.2,"",673.6,"",8.9,"",12.0,""
"349190625","ZAKOPANE","2011","07","21",7.9,"",.3,"",13.3,"",14.1,"",92.4,"",903.6,"",661.1,"",8.4,"",5.9,""
"349190625","ZAKOPANE","2011","07","22",7.4,"",2.3,"",10.6,"",10.8,"",84.9,"",907.6,"",699.2,"",4.1,"",.0,""
"349190625","ZAKOPANE","2011","07","23",5.5,"",1.4,"",14.4,"",10.3,"",64.0,"",911.8,"",736.2,"",.0,"",.0,""
"349190625","ZAKOPANE","2011","07","24",7.8,"",.3,"",13.3,"",13.8,"",90.0,"",910.8,"",727.9,"",2.0,"",17.9,""
"349190625","ZAKOPANE","2011","07","25",8.0,"",.6,"",12.5,"",14.1,"",97.1,"",911.1,"",730.8,"",8.5,"",.4,""
"349190625","ZAKOPANE","2011","07","26",7.1,"",.4,"",13.5,"",14.4,"",93.3,"",915.5,"",770.7,"",6.0,"",2.3,""
"349190625","ZAKOPANE","2011","07","27",7.0,"",.6,"",13.4,"",14.4,"",93.9,"",919.2,"",804.8,"",6.0,"",.0,""
"349190625","ZAKOPANE","2011","07","28",6.4,"",.3,"",13.4,"",14.0,"",91.3,"",919.4,"",806.1,"",5.8,"",1.2,""
"349190625","ZAKOPANE","2011","07","29",7.6,"",.3,"",14.1,"",15.2,"",94.3,"",916.4,"",778.5,"",15.3,"",2.1,""
"349190625","ZAKOPANE","2011","07","30",8.0,"",.8,"",11.7,"",12.7,"",92.6,"",912.2,"",741.3,"",8.7,"",.0,""
"349190625","ZAKOPANE","2011","07","31",7.8,"",.6,"",12.3,"",13.4,"",93.3,"",912.4,"",742.3,"",3.5,"",16.3,""
"349190625","ZAKOPANE","2011","08","01",7.9,"",.3,"",13.7,"",15.0,"",95.4,"",916.7,"",781.9,"",.7,"",7.5,""
"349190625","ZAKOPANE","2011","08","02",6.3,"",.9,"",15.5,"",14.7,"",84.0,"",921.0,"",820.6,"",.0,"",.2,""
"349190625","ZAKOPANE","2011","08","03",4.4,"",.8,"",15.7,"",13.4,"",77.4,"",922.3,"",832.9,"",.0,"",.0,""
"349190625","ZAKOPANE","2011","08","04",3.5,"",.9,"",15.4,"",12.9,"",76.4,"",919.8,"",809.6,"",.0,"",.0,""
"349190625","ZAKOPANE","2011","08","05",3.5,"",.8,"",15.9,"",14.0,"",80.0,"",919.4,"",805.9,"",17.4,"",.9,""
"349190625","ZAKOPANE","2011","08","06",4.1,"",.5,"",17.3,"",14.4,"",75.3,"",917.2,"",785.6,"",.0,"",.0,""
"349190625","ZAKOPANE","2011","08","07",4.8,"",1.4,"",20.1,"",15.1,"",67.6,"",912.8,"",743.6,"",.0,"",15.7,""
"349190625","ZAKOPANE","2011","08","08",7.8,"",.9,"",14.7,"",15.7,"",93.9,"",913.5,"",751.5,"",17.3,"",.6,""
"349190625","ZAKOPANE","2011","08","09",5.1,"",1.3,"",13.5,"",10.8,"",71.9,"",917.5,"",789.3,"",.0,"",.3,""
"349190625","ZAKOPANE","2011","08","10",5.6,"",1.4,"",10.1,"",10.0,"",81.0,"",921.5,"",825.7,"",.3,"",.0,""
"349190625","ZAKOPANE","2011","08","11",3.4,"",1.5,"",12.3,"",10.0,"",71.5,"",920.5,"",816.5,"",.0,"",.0,""
"349190625","ZAKOPANE","2011","08","12",5.5,"",.8,"",14.5,"",13.4,"",82.4,"",917.8,"",791.8,"",1.0,"",.0,""
"349190625","ZAKOPANE","2011","08","13",6.4,"",1.1,"",14.9,"",13.2,"",79.5,"",915.2,"",767.1,"",.0,"",.0,""
"349190625","ZAKOPANE","2011","08","14",4.6,"",1.1,"",15.6,"",13.0,"",75.3,"",915.7,"",771.4,"",.0,"",.0,""
"349190625","ZAKOPANE","2011","08","15",6.4,"",1.0,"",16.5,"",15.5,"",83.3,"",917.2,"",785.4,"",5.1,"",28.3,""
"349190625","ZAKOPANE","2011","08","16",7.6,"",.4,"",14.8,"",14.9,"",88.9,"",920.9,"",819.8,"",3.3,"",.0,""
"349190625","ZAKOPANE","2011","08","17",3.9,"",.9,"",15.0,"",13.0,"",78.4,"",922.1,"",830.4,"",.0,"",.0,""
"349190625","ZAKOPANE","2011","08","18",2.9,"",.8,"",16.8,"",13.9,"",75.4,"",922.3,"",832.5,"",.0,"",.0,""
"349190625","ZAKOPANE","2011","08","19",4.0,"",1.3,"",18.9,"",15.2,"",71.8,"",920.7,"",817.0,"",.3,"",.0,""
"349190625","ZAKOPANE","2011","08","20",3.3,"",2.3,"",15.0,"",10.9,"",65.9,"",923.9,"",846.8,"",.0,"",.0,""
"349190625","ZAKOPANE","2011","08","21",1.4,"",1.0,"",15.0,"",11.0,"",66.5,"",924.7,"",854.4,"",.0,"",.0,""
"349190625","ZAKOPANE","2011","08","22",3.9,"",1.3,"",20.0,"",15.6,"",68.6,"",922.9,"",837.3,"",.2,"",.0,""
"349190625","ZAKOPANE","2011","08","23",3.6,"",.5,"",20.1,"",19.6,"",84.1,"",923.5,"",843.4,"",1.6,"",.0,""
"349190625","ZAKOPANE","2011","08","24",3.6,"",.5,"",21.1,"",17.4,"",73.1,"",921.7,"",826.0,"",.0,"",.0,""
"349190625","ZAKOPANE","2011","08","25",4.4,"",.8,"",19.5,"",18.4,"",82.8,"",921.1,"",821.2,"",14.9,"",.4,""
"349190625","ZAKOPANE","2011","08","26",.9,"",1.9,"",23.1,"",16.3,"",63.4,"",920.2,"",811.6,"",.0,"",.0,""
"349190625","ZAKOPANE","2011","08","27",1.6,"",3.1,"",24.5,"",13.4,"",45.1,"",918.2,"",793.2,"",.0,"",2.1,""
"349190625","ZAKOPANE","2011","08","28",8.0,"",.8,"",12.3,"",13.3,"",92.9,"",922.7,"",836.2,"",.7,"",.0,""
"349190625","ZAKOPANE","2011","08","29",4.9,"",.5,"",15.8,"",14.7,"",83.1,"",918.5,"",797.4,"",.0,"",.0,""
"349190625","ZAKOPANE","2011","08","30",4.6,"",.3,"",14.3,"",12.3,"",76.6,"",917.1,"",785.2,"",.0,"",.0,""
"349190625","ZAKOPANE","2011","08","31",4.9,"",.6,"",13.0,"",10.9,"",73.8,"",917.4,"",787.8,"",.0,"",.0,""
"349190625","ZAKOPANE","2011","09","01",3.8,"",1.1,"",12.3,"",10.4,"",75.0,"",918.2,"",795.3,"",.0,"",.0,""
"349190625","ZAKOPANE","2011","09","02",2.8,"",1.4,"",14.1,"",10.6,"",69.8,"",918.2,"",795.2,"",.0,"",.0,""
"349190625","ZAKOPANE","2011","09","03",3.5,"",1.1,"",15.3,"",11.8,"",71.5,"",920.2,"",813.4,"",.0,"",.0,""
"349190625","ZAKOPANE","2011","09","04",1.5,"",.6,"",17.1,"",13.4,"",71.3,"",920.3,"",813.7,"",.0,"",.0,""
"349190625","ZAKOPANE","2011","09","05",4.6,"",1.3,"",20.2,"",14.0,"",63.6,"",918.1,"",793.0,"",.0,"",8.9,""
"349190625","ZAKOPANE","2011","09","06",4.9,"",1.0,"",13.2,"",11.6,"",77.5,"",923.5,"",843.5,"",.0,"",.0,""
"349190625","ZAKOPANE","2011","09","07",4.9,"",.5,"",12.8,"",9.8,"",70.3,"",916.4,"",778.7,"",.0,"",.1,""
"349190625","ZAKOPANE","2011","09","08",7.4,"",1.5,"",10.2,"",9.9,"",80.1,"",912.0,"",740.2,"",.4,"",13.2,""
"349190625","ZAKOPANE","2011","09","09",7.1,"",1.8,"",10.1,"",9.9,"",80.4,"",914.8,"",765.6,"",.0,"",.0,""
"349190625","ZAKOPANE","2011","09","10",6.9,"",1.0,"",14.3,"",13.0,"",80.0,"",920.0,"",811.4,"",.0,"",.0,""
"349190625","ZAKOPANE","2011","09","11",3.3,"",.8,"",17.0,"",14.5,"",77.4,"",919.5,"",806.9,"",.0,"",.0,""
"349190625","ZAKOPANE","2011","09","12",4.6,"",1.3,"",16.9,"",15.1,"",78.5,"",917.3,"",786.6,"",.0,"",.0,""
"349190625","ZAKOPANE","2011","09","13",.4,"",1.5,"",15.8,"",11.4,"",66.0,"",918.1,"",794.2,"",.0,"",.0,""
"349190625","ZAKOPANE","2011","09","14",5.3,"",1.3,"",15.6,"",13.6,"",78.0,"",918.7,"",799.6,"",4.5,"",.0,""
"349190625","ZAKOPANE","2011","09","15",1.9,"",1.3,"",11.5,"",8.6,"",67.9,"",921.2,"",822.8,"",.0,"",.0,""
"349190625","ZAKOPANE","2011","09","16",2.6,"",1.0,"",9.5,"",9.1,"",79.0,"",922.0,"",830.0,"",.0,"",.0,""
"349190625","ZAKOPANE","2011","09","17",2.8,"",.6,"",10.9,"",10.6,"",83.0,"",920.4,"",815.6,"",.0,"",.0,""
"349190625","ZAKOPANE","2011","09","18",2.1,"",2.3,"",16.4,"",11.0,"",64.5,"",914.0,"",755.2,"",.0,"",.0,""
"349190625","ZAKOPANE","2011","09","19",4.9,"",1.8,"",17.7,"",12.5,"",64.6,"",913.1,"",747.3,"",.1,"",.0,""
"349190625","ZAKOPANE","2011","09","20",7.9,"",.3,"",12.1,"",13.5,"",96.3,"",921.7,"",827.8,"",.2,"",.3,""
"349190625","ZAKOPANE","2011","09","21",7.8,"",.6,"",13.2,"",13.8,"",91.1,"",922.8,"",837.5,"",.0,"",.0,""
"349190625","ZAKOPANE","2011","09","22",6.0,"",.6,"",12.7,"",12.9,"",88.4,"",920.2,"",813.5,"",.0,"",.0,""
"349190625","ZAKOPANE","2011","09","23",7.0,"",.3,"",11.2,"",11.0,"",83.1,"",920.4,"",815.4,"",.0,"",.0,""
"349190625","ZAKOPANE","2011","09","24",2.0,"",1.0,"",9.0,"",8.7,"",78.5,"",921.7,"",827.5,"",.0,"",.0,""
"349190625","ZAKOPANE","2011","09","25",2.5,"",.9,"",10.1,"",9.6,"",80.1,"",925.0,"",857.6,"",.0,"",.0,""
"349190625","ZAKOPANE","2011","09","26",.6,"",.9,"",11.9,"",10.5,"",78.5,"",927.9,"",883.4,"",.0,"",.0,""
"349190625","ZAKOPANE","2011","09","27",1.0,"",.9,"",12.3,"",10.5,"",77.4,"",930.1,"",903.1,"",.0,"",1.1,""
"349190625","ZAKOPANE","2011","09","28",3.8,"",1.1,"",11.1,"",9.8,"",76.1,"",931.5,"",915.5,"",.0,"",.0,""
"349190625","ZAKOPANE","2011","09","29",4.6,"",1.0,"",10.7,"",9.2,"",73.4,"",930.2,"",903.9,"",.0,"",.0,""
"349190625","ZAKOPANE","2011","09","30",1.6,"",.9,"",12.5,"",11.1,"",78.6,"",930.1,"",903.4,"",.0,"",.0,""
"349190625","ZAKOPANE","2011","10","01",.6,"",.9,"",12.2,"",9.7,"",73.0,"",929.2,"",895.2,"",.0,"",.0,""
"349190625","ZAKOPANE","2011","10","02",2.3,"",1.0,"",11.2,"",9.9,"",76.0,"",927.0,"",875.2,"",.0,"",.0,""
"349190625","ZAKOPANE","2011","10","03",2.0,"",1.8,"",11.2,"",8.1,"",64.3,"",924.9,"",856.5,"",.0,"",.0,""
"349190625","ZAKOPANE","2011","10","04",4.0,"",1.6,"",13.6,"",11.1,"",72.9,"",923.3,"",842.0,"",.0,"",.0,""
"349190625","ZAKOPANE","2011","10","05",4.3,"",1.8,"",12.9,"",10.5,"",72.8,"",922.4,"",833.3,"",.0,"",.0,""
"349190625","ZAKOPANE","2011","10","06",5.1,"",1.9,"",12.2,"",9.7,"",70.9,"",917.8,"",792.1,"",.0,"",.0,""
"349190625","ZAKOPANE","2011","10","07",6.0,"",1.1,"",5.5,"",8.4,"",92.1,"",909.8,"",721.9,"",23.5,"",8.6,""
"349190625","ZAKOPANE","2011","10","08",7.0,"",1.3,"",3.6,"",6.9,"",87.5,"",908.9,"",715.1,"",.1,"",2.1,""
"349190625","ZAKOPANE","2011","10","09",7.1,"",.9,"",3.0,"",6.6,"",88.3,"",916.0,"",778.2,"",.0,"",.1,""
"349190625","ZAKOPANE","2011","10","10",7.3,"",1.4,"",5.6,"",7.0,"",77.3,"",917.0,"",786.2,"",.0,"",1.2,""
"349190625","ZAKOPANE","2011","10","11",7.5,"",2.4,"",11.2,"",11.8,"",88.9,"",916.0,"",775.6,"",.2,"",.9,""
"349190625","ZAKOPANE","2011","10","12",7.4,"",2.0,"",7.2,"",9.1,"",88.4,"",915.6,"",773.7,"",5.1,"",.0,""
"349190625","ZAKOPANE","2011","10","13",6.1,"",1.3,"",3.3,"",6.7,"",86.9,"",922.0,"",830.5,"",.8,"",5.4,""
"349190625","ZAKOPANE","2011","10","14",7.6,"",.6,"",1.0,"",6.1,"",93.4,"",928.9,"",890.5,"",1.5,"",1.5,""
"349190625","ZAKOPANE","2011","10","15",6.8,"",.6,"",1.0,"",6.1,"",92.6,"",930.4,"",904.0,"",1.0,"",.3,""
"349190625","ZAKOPANE","2011","10","16",3.3,"",1.0,"",-.9,"",4.6,"",82.1,"",930.6,"",905.2,"",.0,"",.0,""
"349190625","ZAKOPANE","2011","10","17",.1,"",1.0,"",1.0,"",4.9,"",78.1,"",926.0,"",865.7,"",.0,"",.0,""
"349190625","ZAKOPANE","2011","10","18",.9,"",.9,"",2.8,"",5.7,"",77.9,"",919.2,"",806.5,"",.0,"",.0,""
"349190625","ZAKOPANE","2011","10","19",2.9,"",1.4,"",6.1,"",6.0,"",70.1,"",916.4,"",780.6,"",.0,"",3.1,""
"349190625","ZAKOPANE","2011","10","20",7.8,"",.8,"",2.6,"",6.8,"",93.1,"",921.0,"",821.9,"",6.2,"",.4,""
"349190625","ZAKOPANE","2011","10","21",6.9,"",1.0,"",1.0,"",5.5,"",84.1,"",926.6,"",870.9,"",.0,"",.0,""
"349190625","ZAKOPANE","2011","10","22",5.6,"",.8,"",.6,"",5.7,"",88.5,"",926.9,"",873.5,"",.0,"",.0,""
"349190625","ZAKOPANE","2011","10","23",7.1,"",.6,"",2.6,"",6.6,"",89.9,"",925.3,"",859.5,"",.0,"",.0,""
"349190625","ZAKOPANE","2011","10","24",6.9,"",.6,"",4.1,"",7.1,"",88.3,"",922.9,"",839.1,"",.0,"",.1,""
"349190625","ZAKOPANE","2011","10","25",7.1,"",3.1,"",7.6,"",7.2,"",70.5,"",919.8,"",811.2,"",2.6,"",.9,""
"349190625","ZAKOPANE","2011","10","26",5.5,"",2.0,"",8.9,"",8.5,"",75.4,"",921.8,"",828.9,"",.0,"",.0,""
"349190625","ZAKOPANE","2011","10","27",5.8,"",.5,"",6.5,"",8.4,"",87.6,"",924.6,"",853.9,"",.0,"",.0,""
"349190625","ZAKOPANE","2011","10","28",1.9,"",.8,"",5.1,"",7.5,"",86.8,"",927.2,"",876.5,"",.0,"",.0,""
"349190625","ZAKOPANE","2011","10","29",5.4,"",.5,"",4.1,"",7.3,"",89.0,"",928.0,"",883.8,"",.0,"",.0,""
"349190625","ZAKOPANE","2011","10","30",.5,"",.9,"",3.7,"",6.7,"",85.1,"",925.0,"",857.1,"",.0,"",.0,""
"349190625","ZAKOPANE","2011","10","31",5.5,"",.6,"",5.6,"",7.7,"",85.3,"",923.3,"",842.4,"",.0,"",.0,""
"349190625","ZAKOPANE","2011","11","01",2.0,"",.9,"",4.9,"",7.9,"",91.0,"",922.8,"",837.6,"",.0,"",.0,""
"349190625","ZAKOPANE","2011","11","02",.0,"",.8,"",5.3,"",7.4,"",84.5,"",922.0,"",830.8,"",.0,"",.0,""
"349190625","ZAKOPANE","2011","11","03",.0,"",.9,"",4.4,"",6.8,"",82.8,"",918.7,"",802.0,"",.0,"",.0,""
"349190625","ZAKOPANE","2011","11","04",1.5,"",1.6,"",5.9,"",5.9,"",69.1,"",916.3,"",780.0,"",.0,"",.0,""
"349190625","ZAKOPANE","2011","11","05",1.8,"",2.1,"",8.5,"",8.3,"",75.6,"",917.8,"",792.5,"",.0,"",.0,""
"349190625","ZAKOPANE","2011","11","06",.0,"",1.4,"",6.6,"",7.5,"",78.6,"",922.3,"",833.1,"",.0,"",.0,""
"349190625","ZAKOPANE","2011","11","07",2.0,"",1.1,"",5.1,"",5.6,"",67.5,"",925.2,"",859.1,"",.0,"",.0,""
"349190625","ZAKOPANE","2011","11","08",1.1,"",1.1,"",4.3,"",6.7,"",81.9,"",926.6,"",870.9,"",.0,"",.0,""
"349190625","ZAKOPANE","2011","11","09",2.0,"",1.1,"",4.6,"",6.9,"",82.9,"",924.6,"",853.3,"",.0,"",.0,""
"349190625","ZAKOPANE","2011","11","10",7.1,"",1.4,"",.8,"",5.9,"",89.1,"",924.4,"",851.5,"",.0,"",.0,""
"349190625","ZAKOPANE","2011","11","11",3.8,"",1.4,"",-3.2,"",4.0,"",84.1,"",930.0,"",899.9,"",.0,"",.0,""
"349190625","ZAKOPANE","2011","11","12",.0,"",.9,"",-1.4,"",4.0,"",75.1,"",934.2,"",935.5,"",.0,"",.0,""
"349190625","ZAKOPANE","2011","11","13",.3,"",.6,"",.2,"",4.8,"",78.6,"",933.0,"",926.2,"",.0,"",.0,""
"349190625","ZAKOPANE","2011","11","14",4.5,"",.5,"",1.1,"",4.6,"",70.8,"",926.8,"",872.3,"",.0,"",.0,""
"349190625","ZAKOPANE","2011","11","15",.1,"",.5,"",-1.3,"",4.1,"",75.3,"",922.4,"",835.2,"",.0,"",.0,""
"349190625","ZAKOPANE","2011","11","16",1.6,"",.5,"",-4.0,"",4.2,"",90.1,"",924.2,"",850.7,"",.0,"",.0,""
"349190625","ZAKOPANE","2011","11","17",2.5,"",.4,"",-2.4,"",4.2,"",82.9,"",923.6,"",845.3,"",.0,"",.0,""
"349190625","ZAKOPANE","2011","11","18",5.4,"",.6,"",-3.5,"",4.5,"",93.3,"",922.4,"",835.1,"",.0,"",.0,""
"349190625","ZAKOPANE","2011","11","19",6.5,"",.1,"",-4.8,"",4.0,"",92.4,"",922.8,"",838.2,"",.0,"",.0,""
"349190625","ZAKOPANE","2011","11","20",3.5,"",.3,"",-5.3,"",3.9,"",92.0,"",923.3,"",842.9,"",.0,"",.4,""
"349190625","ZAKOPANE","2011","11","21",7.0,"",.4,"",-3.1,"",4.6,"",93.6,"",921.6,"",827.7,"",.1,"",.0,""
"349190625","ZAKOPANE","2011","11","22",7.9,"",.8,"",-1.1,"",5.3,"",93.6,"",921.9,"",830.5,"",.0,"",.0,""
"349190625","ZAKOPANE","2011","11","23",4.3,"",.8,"",-2.9,"",4.4,"",89.5,"",926.7,"",871.6,"",.0,"",.0,""
"349190625","ZAKOPANE","2011","11","24",1.0,"",1.0,"",-1.2,"",4.6,"",82.0,"",930.5,"",904.0,"",.0,"",.0,""
"349190625","ZAKOPANE","2011","11","25",2.3,"",.4,"",-1.0,"",5.2,"",91.1,"",928.0,"",883.1,"",.0,"",.0,""
"349190625","ZAKOPANE","2011","11","26",5.0,"",1.8,"",-1.1,"",4.8,"",84.6,"",925.3,"",860.1,"",.3,"",.0,""
"349190625","ZAKOPANE","2011","11","27",3.5,"",2.5,"",3.9,"",4.2,"",58.1,"",919.8,"",811.5,"",.0,"",.0,""
"349190625","ZAKOPANE","2011","11","28",3.6,"",2.5,"",.9,"",4.7,"",72.1,"",925.1,"",857.9,"",.0,"",.0,""
"349190625","ZAKOPANE","2011","11","29",1.6,"",.8,"",-2.6,"",3.0,"",62.3,"",925.9,"",864.6,"",.0,"",.0,""
"349190625","ZAKOPANE","2011","11","30",2.6,"",1.3,"",.7,"",4.7,"",72.0,"",924.9,"",856.7,"",.0,"",.6,""
"349190625","ZAKOPANE","2011","12","01",6.0,"",.8,"",.8,"",6.4,"",97.8,"",924.8,"",855.2,"",.0,"",.0,""
"349190625","ZAKOPANE","2011","12","02",4.1,"",1.0,"",.8,"",5.9,"",91.3,"",917.1,"",788.0,"",.0,"",.0,""
"349190625","ZAKOPANE","2011","12","03",6.5,"",1.6,"",2.9,"",6.0,"",82.1,"",914.0,"",760.6,"",.1,"",.0,""
"349190625","ZAKOPANE","2011","12","04",6.8,"",3.4,"",6.9,"",6.7,"",67.6,"",906.8,"",693.7,"",.3,"",.0,""
"349190625","ZAKOPANE","2011","12","05",6.1,"",4.4,"",5.1,"",6.0,"",68.0,"",901.0,"",642.7,"",.5,"",.1,""
"349190625","ZAKOPANE","2011","12","06",5.5,"",3.0,"",.2,"",3.7,"",60.8,"",908.3,"",711.1,"",.1,"",1.5,""
"349190625","ZAKOPANE","2011","12","07",7.0,"",3.0,"",.1,"",4.5,"",72.6,"",907.0,"",699.4,"",.1,"",1.0,""
"349190625","ZAKOPANE","2011","12","08",6.9,"",3.4,"",-1.1,"",4.8,"",85.8,"",912.1,"",744.7,"",4.1,"",.0,""
"349190625","ZAKOPANE","2011","12","09",7.5,"",1.6,"",-.6,"",4.9,"",82.6,"",913.9,"",760.9,"",1.6,"",1.4,""
"349190625","ZAKOPANE","2011","12","10",6.0,"",2.5,"",2.1,"",5.1,"",69.8,"",912.4,"",746.5,"",.4,"",.0,""
"349190625","ZAKOPANE","2011","12","11",1.3,"",1.4,"",-3.4,"",3.3,"",70.3,"",918.3,"",800.1,"",.0,"",.0,""
"349190625","ZAKOPANE","2011","12","12",5.6,"",1.6,"",-1.0,"",4.9,"",82.5,"",914.2,"",763.1,"",.0,"",4.5,""
"349190625","ZAKOPANE","2011","12","13",7.9,"",.6,"",1.4,"",6.6,"",97.5,"",913.6,"",757.5,"",.7,"",.0,""
"349190625","ZAKOPANE","2011","12","14",6.1,"",1.5,"",2.2,"",5.8,"",83.3,"",912.8,"",750.2,"",.0,"",.1,""
"349190625","ZAKOPANE","2011","12","15",6.9,"",.9,"",2.2,"",5.7,"",79.3,"",912.2,"",745.3,"",.0,"",.0,""
"349190625","ZAKOPANE","2011","12","16",5.4,"",3.6,"",1.7,"",5.2,"",75.6,"",898.5,"",622.2,"",.1,"",1.6,""
"349190625","ZAKOPANE","2011","12","17",7.5,"",3.0,"",.1,"",5.3,"",86.3,"",891.9,"",564.9,"",4.5,"",1.8,""
"349190625","ZAKOPANE","2011","12","18",5.9,"",2.5,"",-2.3,"",3.9,"",76.1,"",906.3,"",695.4,"",.1,"",.0,""
"349190625","ZAKOPANE","2011","12","19",5.5,"",.8,"",-4.6,"",3.5,"",79.6,"",915.4,"",775.6,"",.0,"",1.5,""
"349190625","ZAKOPANE","2011","12","20",5.9,"",.6,"",-5.7,"",3.6,"",89.9,"",911.5,"",741.8,"",.1,"",.0,""
"349190625","ZAKOPANE","2011","12","21",5.3,"",.9,"",-7.1,"",3.4,"",90.9,"",909.9,"",729.0,"",1.5,"",2.5,""
"349190625","ZAKOPANE","2011","12","22",7.3,"",1.1,"",-3.7,"",4.3,"",91.1,"",917.9,"",796.3,"",.3,"",.0,""
"349190625","ZAKOPANE","2011","12","23",3.6,"",1.1,"",-4.7,"",3.8,"",86.1,"",919.9,"",813.5,"",.0,"",.0,""
"349190625","ZAKOPANE","2011","12","24",7.5,"",1.5,"",.3,"",5.7,"",90.5,"",915.8,"",777.0,"",.0,"",.2,""
"349190625","ZAKOPANE","2011","12","25",6.4,"",2.4,"",-1.9,"",4.5,"",84.6,"",926.5,"",869.8,"",.6,"",.0,""
"349190625","ZAKOPANE","2011","12","26",7.5,"",1.5,"",1.0,"",6.1,"",92.3,"",931.7,"",915.2,"",1.2,"",.0,""
"349190625","ZAKOPANE","2011","12","27",5.1,"",1.1,"",1.0,"",6.4,"",97.6,"",933.0,"",926.4,"",.0,"",.1,""
"349190625","ZAKOPANE","2011","12","28",7.9,"",.6,"",.7,"",6.0,"",93.8,"",928.2,"",884.7,"",.0,"",.0,""
"349190625","ZAKOPANE","2011","12","29",6.4,"",1.6,"",-.9,"",5.0,"",87.8,"",918.1,"",797.7,"",.0,"",.0,""
"349190625","ZAKOPANE","2011","12","30",5.0,"",1.9,"",-1.4,"",3.8,"",69.3,"",907.7,"",706.7,"",.0,"",.1,""
"349190625","ZAKOPANE","2011","12","31",6.8,"",1.8,"",-2.3,"",4.3,"",82.4,"",912.5,"",748.9,"",.6,"",.0,""
