"353200272","OLSZTYN","2010","01","01",7.6,"",2.6,"",-4.4,"",4.1,"",92.3,"",982.5,"",999.6,"",1.2,"",.5,""
"353200272","OLSZTYN","2010","01","02",7.6,"",3.6,"",-5.5,"",3.8,"",91.6,"",990.8,"",1008.2,"",.1,"",.0,""
"353200272","OLSZTYN","2010","01","03",3.8,"",1.8,"",-11.3,"",2.2,"",84.8,"",1000.3,"",1018.3,"",.0,"",.4,""
"353200272","OLSZTYN","2010","01","04",5.8,"",3.0,"",-8.6,"",2.9,"",88.4,"",998.2,"",1015.9,"",.0,"",.0,""
"353200272","OLSZTYN","2010","01","05",7.3,"",3.1,"",-6.9,"",3.3,"",90.6,"",995.1,"",1012.7,"",.1,"",.0,""
"353200272","OLSZTYN","2010","01","06",7.8,"",3.8,"",-8.5,"",3.0,"",91.6,"",991.2,"",1008.7,"",.0,"",1.4,""
"353200272","OLSZTYN","2010","01","07",7.9,"",1.9,"",-6.9,"",3.4,"",91.5,"",991.8,"",1009.3,"",.4,"",.0,""
"353200272","OLSZTYN","2010","01","08",7.9,"",1.9,"",-7.2,"",3.3,"",91.1,"",1004.7,"",1022.4,"",.0,"",.3,""
"353200272","OLSZTYN","2010","01","09",8.0,"",5.6,"",-5.1,"",3.7,"",88.9,"",1005.5,"",1023.1,"",1.8,"",4.2,""
"353200272","OLSZTYN","2010","01","10",8.0,"",4.4,"",-7.0,"",3.3,"",90.5,"",1001.4,"",1019.1,"",.3,"",4.1,""
"353200272","OLSZTYN","2010","01","11",8.0,"",2.5,"",-6.1,"",3.6,"",92.3,"",1001.5,"",1019.1,"",2.4,"",.0,""
"353200272","OLSZTYN","2010","01","12",7.9,"",1.8,"",-4.9,"",3.9,"",91.6,"",1004.4,"",1022.0,"",.0,"",.0,""
"353200272","OLSZTYN","2010","01","13",3.9,"",1.9,"",-7.6,"",3.2,"",90.9,"",1004.0,"",1021.7,"",.0,"",.0,""
"353200272","OLSZTYN","2010","01","14",1.4,"",1.9,"",-12.0,"",2.1,"",84.8,"",1005.6,"",1023.7,"",.0,"",.0,""
"353200272","OLSZTYN","2010","01","15",1.9,"",1.5,"",-12.7,"",2.1,"",89.4,"",1012.7,"",1031.0,"",.0,"",.0,""
"353200272","OLSZTYN","2010","01","16",3.3,"",3.3,"",-11.6,"",2.4,"",91.0,"",1018.0,"",1036.2,"",.0,"",.0,""
"353200272","OLSZTYN","2010","01","17",8.0,"",6.8,"",-6.8,"",3.4,"",90.8,"",1009.8,"",1027.6,"",.0,"",.0,""
"353200272","OLSZTYN","2010","01","18",8.0,"",5.5,"",-4.4,"",4.0,"",90.1,"",1008.5,"",1026.1,"",.0,"",.0,""
"353200272","OLSZTYN","2010","01","19",8.0,"",3.9,"",-8.2,"",2.8,"",85.6,"",1010.4,"",1028.3,"",.0,"",.1,""
"353200272","OLSZTYN","2010","01","20",7.5,"",3.6,"",-9.7,"",2.2,"",75.9,"",1010.6,"",1028.6,"",.4,"",.0,""
"353200272","OLSZTYN","2010","01","21",5.9,"",4.5,"",-9.6,"",2.1,"",71.4,"",1014.6,"",1032.6,"",.0,"",.0,""
"353200272","OLSZTYN","2010","01","22",.9,"",3.3,"",-12.8,"",1.4,"",61.4,"",1019.6,"",1038.0,"",.0,"",.0,""
"353200272","OLSZTYN","2010","01","23",1.8,"",2.8,"",-16.0,"",1.2,"",66.1,"",1020.8,"",1039.4,"",.0,"",.0,""
"353200272","OLSZTYN","2010","01","24",.1,"",1.5,"",-17.7,"",1.1,"",74.1,"",1022.4,"",1041.2,"",.0,"",.0,""
"353200272","OLSZTYN","2010","01","25",3.6,"",1.3,"",-18.4,"",1.1,"",78.3,"",1023.1,"",1041.9,"",.0,"",.0,""
"353200272","OLSZTYN","2010","01","26",3.1,"",1.1,"",-17.7,"",1.3,"",76.3,"",1021.7,"",1040.5,"",.0,"",.3,""
"353200272","OLSZTYN","2010","01","27",8.0,"",2.9,"",-11.2,"",2.3,"",86.9,"",1004.5,"",1022.5,"",.3,"",2.9,""
"353200272","OLSZTYN","2010","01","28",7.9,"",5.4,"",-4.8,"",3.9,"",89.5,"",969.3,"",986.2,"",5.1,"",.8,""
"353200272","OLSZTYN","2010","01","29",7.1,"",3.0,"",-3.8,"",4.2,"",89.5,"",970.3,"",987.2,"",.1,"",.2,""
"353200272","OLSZTYN","2010","01","30",7.5,"",4.8,"",-2.2,"",4.6,"",88.5,"",968.6,"",985.4,"",1.6,"",.1,""
"353200272","OLSZTYN","2010","01","31",5.4,"",2.0,"",-6.2,"",3.1,"",80.1,"",984.9,"",1002.2,"",.0,"",.0,""
"353200272","OLSZTYN","2010","02","01",7.6,"",1.1,"",-9.3,"",2.9,"",90.5,"",988.0,"",1005.6,"",.0,"",.3,""
"353200272","OLSZTYN","2010","02","02",7.1,"",3.3,"",-2.5,"",4.6,"",90.5,"",991.1,"",1008.3,"",.1,"",.6,""
"353200272","OLSZTYN","2010","02","03",5.8,"",4.4,"",-3.3,"",4.2,"",87.4,"",987.2,"",1004.4,"",1.5,"",.0,""
"353200272","OLSZTYN","2010","02","04",3.6,"",2.5,"",-2.7,"",4.2,"",84.4,"",1002.7,"",1020.1,"",.0,"",.0,""
"353200272","OLSZTYN","2010","02","05",2.3,"",4.0,"",-5.6,"",3.7,"",90.0,"",1008.3,"",1025.9,"",.0,"",.0,""
"353200272","OLSZTYN","2010","02","06",7.4,"",5.3,"",-6.3,"",3.3,"",86.8,"",1007.1,"",1024.8,"",.0,"",.0,""
"353200272","OLSZTYN","2010","02","07",4.6,"",2.4,"",-8.9,"",2.3,"",74.1,"",1006.6,"",1024.4,"",.0,"",.0,""
"353200272","OLSZTYN","2010","02","08",6.5,"",.6,"",-8.2,"",2.5,"",74.3,"",999.4,"",1017.1,"",.0,"",.0,""
"353200272","OLSZTYN","2010","02","09",7.1,"",1.1,"",-7.4,"",2.9,"",81.1,"",994.7,"",1012.3,"",.1,"",.0,""
"353200272","OLSZTYN","2010","02","10",7.3,"",2.9,"",-6.8,"",3.0,"",81.6,"",996.4,"",1013.9,"",.0,"",.0,""
"353200272","OLSZTYN","2010","02","11",7.1,"",3.3,"",-5.7,"",3.6,"",89.3,"",996.0,"",1013.4,"",4.8,"",2.2,""
"353200272","OLSZTYN","2010","02","12",8.0,"",3.0,"",-2.8,"",4.5,"",90.4,"",994.2,"",1011.4,"",1.3,"",.2,""
"353200272","OLSZTYN","2010","02","13",8.0,"",2.0,"",-3.4,"",4.3,"",91.1,"",996.1,"",1013.4,"",.0,"",.0,""
"353200272","OLSZTYN","2010","02","14",7.9,"",3.6,"",-4.8,"",3.8,"",87.9,"",995.1,"",1012.4,"",.0,"",.0,""
"353200272","OLSZTYN","2010","02","15",8.0,"",1.8,"",-4.9,"",4.0,"",93.0,"",993.2,"",1010.6,"",.0,"",.0,""
"353200272","OLSZTYN","2010","02","16",8.0,"",1.1,"",-4.0,"",4.1,"",91.3,"",992.7,"",1010.0,"",.0,"",.0,""
"353200272","OLSZTYN","2010","02","17",7.5,"",3.8,"",-3.6,"",4.0,"",85.1,"",991.3,"",1008.6,"",.0,"",.0,""
"353200272","OLSZTYN","2010","02","18",7.9,"",3.5,"",-1.5,"",4.7,"",86.4,"",984.9,"",1001.9,"",.0,"",.0,""
"353200272","OLSZTYN","2010","02","19",7.6,"",2.5,"",2.3,"",6.0,"",84.1,"",982.1,"",998.8,"",.0,"",7.2,""
"353200272","OLSZTYN","2010","02","20",7.6,"",3.4,"",.9,"",6.2,"",94.6,"",975.5,"",992.2,"",.0,"",.0,""
"353200272","OLSZTYN","2010","02","21",6.0,"",2.9,"",-1.1,"",4.2,"",75.6,"",982.6,"",999.6,"",.0,"",.0,""
"353200272","OLSZTYN","2010","02","22",4.6,"",3.5,"",-1.9,"",4.0,"",74.9,"",985.0,"",1002.1,"",.0,"",.0,""
"353200272","OLSZTYN","2010","02","23",7.1,"",4.4,"",2.1,"",5.7,"",80.9,"",978.7,"",995.4,"",.5,"",.0,""
"353200272","OLSZTYN","2010","02","24",7.8,"",2.5,"",-.6,"",4.8,"",82.4,"",990.0,"",1007.0,"",.0,"",1.9,""
"353200272","OLSZTYN","2010","02","25",8.0,"",2.6,"",1.3,"",6.5,"",96.5,"",989.3,"",1006.2,"",.0,"",.0,""
"353200272","OLSZTYN","2010","02","26",7.0,"",4.0,"",1.9,"",6.6,"",93.3,"",983.9,"",1000.6,"",.0,"",.4,""
"353200272","OLSZTYN","2010","02","27",7.0,"",2.3,"",2.5,"",6.9,"",94.0,"",985.4,"",1002.1,"",.6,"",.0,""
"353200272","OLSZTYN","2010","02","28",6.5,"",4.3,"",3.4,"",5.6,"",72.8,"",983.8,"",1000.5,"",.0,"",.0,""
"353200272","OLSZTYN","2010","03","01",7.1,"",6.1,"",3.8,"",6.2,"",77.8,"",977.1,"",993.7,"",6.1,"",.0,""
"353200272","OLSZTYN","2010","03","02",6.5,"",6.6,"",1.3,"",4.8,"",71.0,"",991.0,"",1007.9,"",.0,"",.6,""
"353200272","OLSZTYN","2010","03","03",5.0,"",4.6,"",-1.4,"",4.4,"",78.5,"",996.3,"",1013.5,"",.1,"",.0,""
"353200272","OLSZTYN","2010","03","04",2.5,"",3.3,"",-2.7,"",3.7,"",74.5,"",996.4,"",1013.7,"",.0,"",.0,""
"353200272","OLSZTYN","2010","03","05",4.8,"",1.8,"",-4.1,"",3.5,"",78.1,"",997.7,"",1015.1,"",.0,"",.0,""
"353200272","OLSZTYN","2010","03","06",5.8,"",2.5,"",-5.3,"",3.3,"",78.9,"",1003.6,"",1021.2,"",.0,"",.0,""
"353200272","OLSZTYN","2010","03","07",4.3,"",.9,"",-5.7,"",3.4,"",83.3,"",1010.0,"",1027.7,"",.4,"",.0,""
"353200272","OLSZTYN","2010","03","08",1.3,"",1.0,"",-5.3,"",2.7,"",69.0,"",1011.9,"",1029.6,"",.0,"",.0,""
"353200272","OLSZTYN","2010","03","09",5.0,"",2.8,"",-4.7,"",3.5,"",80.1,"",1010.1,"",1027.7,"",.0,"",.0,""
"353200272","OLSZTYN","2010","03","10",1.3,"",.9,"",-3.5,"",3.4,"",74.0,"",1012.7,"",1030.3,"",.0,"",.0,""
"353200272","OLSZTYN","2010","03","11",.1,"",1.3,"",-3.3,"",2.9,"",64.1,"",1001.5,"",1018.9,"",.0,"",.0,""
"353200272","OLSZTYN","2010","03","12",6.0,"",1.8,"",-4.8,"",3.9,"",88.1,"",992.3,"",1009.7,"",.0,"",2.5,""
"353200272","OLSZTYN","2010","03","13",5.8,"",4.0,"",-.6,"",4.8,"",82.0,"",990.1,"",1007.2,"",.0,"",.1,""
"353200272","OLSZTYN","2010","03","14",4.6,"",3.0,"",-.2,"",4.6,"",77.8,"",987.3,"",1004.2,"",.0,"",.0,""
"353200272","OLSZTYN","2010","03","15",3.4,"",3.5,"",-2.9,"",3.8,"",77.9,"",992.8,"",1010.0,"",.1,"",1.1,""
"353200272","OLSZTYN","2010","03","16",3.4,"",2.9,"",-2.3,"",4.0,"",79.6,"",997.0,"",1014.3,"",.1,"",.0,""
"353200272","OLSZTYN","2010","03","17",6.0,"",3.8,"",-.7,"",5.3,"",90.0,"",1001.4,"",1018.7,"",4.1,"",.0,""
"353200272","OLSZTYN","2010","03","18",7.4,"",2.1,"",3.5,"",6.9,"",87.6,"",1003.3,"",1020.3,"",.0,"",.0,""
"353200272","OLSZTYN","2010","03","19",5.6,"",3.6,"",7.6,"",7.2,"",70.5,"",999.2,"",1015.9,"",.1,"",.0,""
"353200272","OLSZTYN","2010","03","20",7.8,"",2.9,"",8.7,"",9.4,"",83.5,"",992.9,"",1009.4,"",3.2,"",1.2,""
"353200272","OLSZTYN","2010","03","21",7.6,"",4.1,"",9.4,"",11.0,"",91.9,"",990.0,"",1006.4,"",10.8,"",.1,""
"353200272","OLSZTYN","2010","03","22",7.0,"",4.1,"",3.7,"",6.1,"",77.4,"",1002.8,"",1019.7,"",.0,"",.0,""
"353200272","OLSZTYN","2010","03","23",5.5,"",3.5,"",5.6,"",6.9,"",76.0,"",1001.3,"",1018.1,"",.4,"",.0,""
"353200272","OLSZTYN","2010","03","24",4.5,"",3.4,"",5.4,"",6.7,"",76.0,"",1003.4,"",1020.3,"",.0,"",.0,""
"353200272","OLSZTYN","2010","03","25",4.1,"",4.4,"",9.0,"",6.6,"",62.1,"",1002.5,"",1019.2,"",.0,"",.0,""
"353200272","OLSZTYN","2010","03","26",3.4,"",3.5,"",13.8,"",9.6,"",62.0,"",993.8,"",1010.0,"",.0,"",.0,""
"353200272","OLSZTYN","2010","03","27",5.9,"",4.6,"",7.9,"",9.4,"",87.8,"",983.4,"",999.8,"",3.4,"",1.9,""
"353200272","OLSZTYN","2010","03","28",6.6,"",3.6,"",7.4,"",8.1,"",79.1,"",988.5,"",1005.0,"",.0,"",.0,""
"353200272","OLSZTYN","2010","03","29",6.8,"",2.6,"",7.4,"",8.0,"",78.4,"",990.5,"",1007.0,"",.0,"",.0,""
"353200272","OLSZTYN","2010","03","30",7.4,"",2.0,"",9.2,"",10.0,"",86.4,"",989.0,"",1005.4,"",.0,"",.0,""
"353200272","OLSZTYN","2010","03","31",5.4,"",3.4,"",13.0,"",9.1,"",63.0,"",984.0,"",1000.1,"",.0,"",.0,""
"353200272","OLSZTYN","2010","04","01",6.5,"",3.3,"",8.8,"",7.6,"",69.0,"",992.0,"",1008.5,"",.0,"",.0,""
"353200272","OLSZTYN","2010","04","02",4.3,"",2.4,"",6.1,"",5.9,"",65.5,"",999.3,"",1016.0,"",.0,"",.0,""
"353200272","OLSZTYN","2010","04","03",7.1,"",1.1,"",5.0,"",6.0,"",69.3,"",1000.5,"",1017.4,"",.0,"",.0,""
"353200272","OLSZTYN","2010","04","04",5.0,"",3.0,"",9.8,"",6.3,"",55.6,"",1000.1,"",1016.6,"",.0,"",.0,""
"353200272","OLSZTYN","2010","04","05",7.0,"",3.5,"",10.2,"",7.8,"",65.5,"",1001.6,"",1018.2,"",.7,"",.8,""
"353200272","OLSZTYN","2010","04","06",6.8,"",5.1,"",4.6,"",7.4,"",88.1,"",1009.2,"",1026.2,"",.0,"",.0,""
"353200272","OLSZTYN","2010","04","07",5.3,"",2.1,"",4.5,"",7.3,"",86.9,"",1010.9,"",1028.0,"",.0,"",.0,""
"353200272","OLSZTYN","2010","04","08",.8,"",1.4,"",6.7,"",6.9,"",73.3,"",1010.0,"",1026.9,"",.0,"",.0,""
"353200272","OLSZTYN","2010","04","09",7.6,"",2.3,"",6.8,"",8.7,"",88.0,"",1006.5,"",1023.3,"",.8,"",.0,""
"353200272","OLSZTYN","2010","04","10",6.9,"",2.5,"",5.3,"",7.4,"",83.9,"",1005.1,"",1022.0,"",.0,"",.0,""
"353200272","OLSZTYN","2010","04","11",6.5,"",2.9,"",8.4,"",7.7,"",73.4,"",1007.2,"",1024.0,"",.0,"",.0,""
"353200272","OLSZTYN","2010","04","12",2.6,"",2.4,"",9.7,"",6.8,"",61.9,"",1006.0,"",1022.6,"",.0,"",.0,""
"353200272","OLSZTYN","2010","04","13",6.1,"",2.5,"",7.1,"",7.7,"",78.5,"",1002.1,"",1018.8,"",.0,"",.0,""
"353200272","OLSZTYN","2010","04","14",6.8,"",2.5,"",9.2,"",7.0,"",65.1,"",1000.2,"",1016.8,"",.0,"",.0,""
"353200272","OLSZTYN","2010","04","15",5.0,"",2.6,"",10.4,"",7.2,"",60.1,"",998.3,"",1014.8,"",.0,"",.1,""
"353200272","OLSZTYN","2010","04","16",3.5,"",4.9,"",6.9,"",6.2,"",63.8,"",996.3,"",1012.9,"",.0,"",.0,""
"353200272","OLSZTYN","2010","04","17",4.0,"",4.0,"",7.4,"",5.7,"",60.1,"",999.3,"",1016.0,"",.0,"",.0,""
"353200272","OLSZTYN","2010","04","18",1.6,"",4.3,"",10.8,"",6.8,"",55.8,"",998.0,"",1014.5,"",.0,"",.0,""
"353200272","OLSZTYN","2010","04","19",2.4,"",2.9,"",7.7,"",5.8,"",56.3,"",994.8,"",1011.4,"",.0,"",.0,""
"353200272","OLSZTYN","2010","04","20",.6,"",2.4,"",4.7,"",4.4,"",57.3,"",997.2,"",1014.0,"",.0,"",.0,""
"353200272","OLSZTYN","2010","04","21",6.1,"",3.5,"",5.7,"",5.6,"",62.4,"",990.6,"",1007.3,"",.1,"",3.5,""
"353200272","OLSZTYN","2010","04","22",4.8,"",4.5,"",3.8,"",5.6,"",71.9,"",992.5,"",1009.3,"",.9,"",.0,""
"353200272","OLSZTYN","2010","04","23",3.6,"",4.1,"",5.9,"",5.0,"",55.5,"",997.7,"",1014.4,"",.0,"",.1,""
"353200272","OLSZTYN","2010","04","24",4.0,"",3.4,"",6.1,"",5.1,"",55.3,"",1004.8,"",1021.6,"",.1,"",.0,""
"353200272","OLSZTYN","2010","04","25",.9,"",2.3,"",6.4,"",4.2,"",49.4,"",1014.6,"",1031.6,"",.0,"",.0,""
"353200272","OLSZTYN","2010","04","26",4.0,"",3.9,"",10.7,"",4.5,"",40.0,"",1008.7,"",1025.4,"",.0,"",1.5,""
"353200272","OLSZTYN","2010","04","27",7.9,"",3.9,"",10.4,"",10.2,"",81.8,"",1001.0,"",1017.6,"",3.4,"",.0,""
"353200272","OLSZTYN","2010","04","28",5.6,"",3.3,"",9.3,"",9.3,"",80.4,"",1006.1,"",1022.8,"",.0,"",.0,""
"353200272","OLSZTYN","2010","04","29",7.6,"",2.3,"",12.3,"",9.4,"",68.3,"",1000.3,"",1016.7,"",.0,"",.0,""
"353200272","OLSZTYN","2010","04","30",5.8,"",3.3,"",17.0,"",10.4,"",57.4,"",990.7,"",1006.7,"",2.5,"",.6,""
"353200272","OLSZTYN","2010","05","01",6.9,"",1.3,"",12.0,"",11.3,"",81.9,"",992.5,"",1008.8,"",.1,"",3.3,""
"353200272","OLSZTYN","2010","05","02",5.1,"",2.3,"",12.7,"",11.1,"",76.0,"",994.5,"",1010.8,"",.0,"",.0,""
"353200272","OLSZTYN","2010","05","03",7.0,"",3.5,"",11.6,"",11.2,"",79.9,"",993.1,"",1009.4,"",.9,"",.5,""
"353200272","OLSZTYN","2010","05","04",7.9,"",3.3,"",5.9,"",7.8,"",84.5,"",999.6,"",1016.4,"",.0,"",.5,""
"353200272","OLSZTYN","2010","05","05",6.3,"",2.8,"",7.3,"",7.2,"",72.1,"",1001.7,"",1018.5,"",.0,"",.0,""
"353200272","OLSZTYN","2010","05","06",7.3,"",3.4,"",5.8,"",8.1,"",86.8,"",995.4,"",1012.1,"",3.0,"",1.2,""
"353200272","OLSZTYN","2010","05","07",7.9,"",2.6,"",12.8,"",13.9,"",93.3,"",988.0,"",1004.2,"",18.7,"",.5,""
"353200272","OLSZTYN","2010","05","08",6.0,"",3.0,"",12.7,"",10.7,"",75.4,"",992.7,"",1009.0,"",.0,"",.0,""
"353200272","OLSZTYN","2010","05","09",6.1,"",1.5,"",9.3,"",9.6,"",83.0,"",993.6,"",1010.1,"",.0,"",.0,""
"353200272","OLSZTYN","2010","05","10",7.6,"",1.9,"",11.5,"",10.9,"",81.0,"",992.1,"",1008.4,"",.6,"",4.0,""
"353200272","OLSZTYN","2010","05","11",5.6,"",2.4,"",10.9,"",11.4,"",88.3,"",995.4,"",1011.8,"",.0,"",.0,""
"353200272","OLSZTYN","2010","05","12",4.5,"",3.9,"",16.3,"",12.8,"",72.1,"",993.2,"",1009.3,"",.7,"",.0,""
"353200272","OLSZTYN","2010","05","13",7.3,"",3.3,"",14.7,"",14.3,"",86.0,"",990.1,"",1006.3,"",1.8,"",.0,""
"353200272","OLSZTYN","2010","05","14",8.0,"",3.1,"",9.2,"",11.3,"",97.3,"",989.1,"",1005.5,"",1.8,"",18.6,""
"353200272","OLSZTYN","2010","05","15",8.0,"",2.5,"",9.8,"",10.5,"",87.4,"",987.9,"",1004.3,"",.0,"",.0,""
"353200272","OLSZTYN","2010","05","16",7.5,"",4.3,"",10.6,"",10.5,"",82.6,"",989.5,"",1005.8,"",.0,"",.1,""
"353200272","OLSZTYN","2010","05","17",7.9,"",6.8,"",9.1,"",10.2,"",88.1,"",991.8,"",1008.3,"",.0,"",1.6,""
"353200272","OLSZTYN","2010","05","18",8.0,"",4.5,"",9.4,"",11.0,"",94.1,"",994.3,"",1010.8,"",7.4,"",.0,""
"353200272","OLSZTYN","2010","05","19",7.3,"",1.8,"",14.1,"",13.9,"",87.1,"",999.5,"",1015.8,"",6.9,"",7.3,""
"353200272","OLSZTYN","2010","05","20",4.9,"",2.4,"",14.8,"",15.2,"",91.0,"",1004.9,"",1021.3,"",3.8,"",.0,""
"353200272","OLSZTYN","2010","05","21",5.4,"",2.4,"",16.3,"",13.8,"",77.6,"",1005.8,"",1022.1,"",.5,"",.0,""
"353200272","OLSZTYN","2010","05","22",4.6,"",2.9,"",14.4,"",13.5,"",83.0,"",1003.8,"",1020.2,"",6.2,"",.0,""
"353200272","OLSZTYN","2010","05","23",4.4,"",2.6,"",15.8,"",12.5,"",72.1,"",997.8,"",1013.9,"",.6,"",3.8,""
"353200272","OLSZTYN","2010","05","24",6.8,"",2.8,"",12.5,"",11.6,"",81.3,"",989.2,"",1005.5,"",3.0,"",2.5,""
"353200272","OLSZTYN","2010","05","25",5.4,"",4.3,"",9.8,"",9.2,"",76.8,"",986.9,"",1003.3,"",2.6,"",.0,""
"353200272","OLSZTYN","2010","05","26",3.0,"",4.5,"",10.1,"",8.0,"",66.6,"",991.7,"",1008.2,"",.0,"",.0,""
"353200272","OLSZTYN","2010","05","27",6.8,"",2.0,"",10.8,"",8.8,"",69.9,"",992.7,"",1009.1,"",.0,"",4.5,""
"353200272","OLSZTYN","2010","05","28",6.8,"",2.8,"",12.2,"",11.3,"",81.4,"",995.8,"",1012.1,"",.0,"",2.8,""
"353200272","OLSZTYN","2010","05","29",5.3,"",2.8,"",13.6,"",10.1,"",67.9,"",1001.5,"",1017.9,"",.0,"",.0,""
"353200272","OLSZTYN","2010","05","30",5.0,"",3.4,"",14.4,"",11.0,"",69.5,"",996.8,"",1013.1,"",.0,"",26.1,""
"353200272","OLSZTYN","2010","05","31",7.8,"",2.4,"",14.2,"",15.2,"",94.3,"",985.7,"",1001.8,"",12.2,"",1.4,""
"353200272","OLSZTYN","2010","06","01",7.5,"",2.3,"",13.7,"",14.5,"",93.0,"",990.0,"",1006.1,"",.0,"",.1,""
"353200272","OLSZTYN","2010","06","02",7.8,"",3.4,"",16.9,"",18.0,"",93.4,"",992.6,"",1008.6,"",.0,"",9.7,""
"353200272","OLSZTYN","2010","06","03",5.8,"",4.4,"",18.4,"",17.4,"",81.4,"",995.0,"",1011.0,"",.0,"",.0,""
"353200272","OLSZTYN","2010","06","04",1.8,"",5.3,"",15.9,"",9.7,"",56.0,"",997.7,"",1013.8,"",.0,"",.0,""
"353200272","OLSZTYN","2010","06","05",2.6,"",2.4,"",15.4,"",9.6,"",58.5,"",1004.5,"",1020.8,"",.0,"",.0,""
"353200272","OLSZTYN","2010","06","06",4.9,"",3.5,"",19.8,"",11.5,"",50.6,"",999.0,"",1015.0,"",.0,"",.0,""
"353200272","OLSZTYN","2010","06","07",5.0,"",3.0,"",18.5,"",15.3,"",71.9,"",991.5,"",1007.5,"",6.3,"",.0,""
"353200272","OLSZTYN","2010","06","08",5.5,"",2.5,"",15.7,"",13.5,"",75.9,"",994.4,"",1010.6,"",.0,"",.0,""
"353200272","OLSZTYN","2010","06","09",5.6,"",1.8,"",17.8,"",17.1,"",83.5,"",996.1,"",1012.2,"",6.0,"",.0,""
"353200272","OLSZTYN","2010","06","10",5.8,"",2.0,"",23.8,"",19.6,"",69.9,"",993.3,"",1009.0,"",.0,"",.0,""
"353200272","OLSZTYN","2010","06","11",2.3,"",2.5,"",23.9,"",20.5,"",73.0,"",988.4,"",1004.0,"",21.3,"",.0,""
"353200272","OLSZTYN","2010","06","12",4.8,"",4.1,"",18.4,"",15.7,"",75.3,"",990.3,"",1006.2,"",.5,"",3.2,""
"353200272","OLSZTYN","2010","06","13",5.5,"",3.5,"",13.1,"",11.9,"",79.8,"",995.3,"",1011.6,"",.0,"",.0,""
"353200272","OLSZTYN","2010","06","14",6.5,"",1.5,"",12.3,"",11.3,"",79.8,"",999.5,"",1015.9,"",.3,"",.0,""
"353200272","OLSZTYN","2010","06","15",4.9,"",2.6,"",12.7,"",11.5,"",79.1,"",1002.7,"",1019.1,"",.0,"",.3,""
"353200272","OLSZTYN","2010","06","16",3.1,"",4.3,"",12.0,"",9.8,"",72.1,"",1005.7,"",1022.2,"",.0,"",.0,""
"353200272","OLSZTYN","2010","06","17",1.5,"",1.1,"",14.2,"",8.9,"",59.5,"",1005.3,"",1021.7,"",.0,"",.0,""
"353200272","OLSZTYN","2010","06","18",2.6,"",3.0,"",17.3,"",10.7,"",57.8,"",993.0,"",1009.0,"",.0,"",16.7,""
"353200272","OLSZTYN","2010","06","19",5.5,"",2.6,"",13.4,"",11.3,"",74.9,"",986.3,"",1002.4,"",.0,"",.0,""
"353200272","OLSZTYN","2010","06","20",4.5,"",1.4,"",13.5,"",9.8,"",65.9,"",994.0,"",1010.3,"",.0,"",.0,""
"353200272","OLSZTYN","2010","06","21",4.9,"",4.3,"",13.9,"",12.8,"",81.0,"",997.6,"",1013.8,"",.0,"",.0,""
"353200272","OLSZTYN","2010","06","22",2.8,"",4.9,"",13.5,"",10.6,"",70.8,"",1001.4,"",1017.7,"",.0,"",.0,""
"353200272","OLSZTYN","2010","06","23",5.1,"",4.9,"",12.1,"",11.0,"",78.3,"",1000.9,"",1017.4,"",.3,"",5.8,""
"353200272","OLSZTYN","2010","06","24",7.8,"",4.9,"",12.7,"",13.6,"",92.9,"",996.2,"",1012.6,"",6.1,"",1.4,""
"353200272","OLSZTYN","2010","06","25",7.8,"",3.5,"",12.7,"",13.6,"",92.8,"",996.1,"",1012.4,"",.4,"",.0,""
"353200272","OLSZTYN","2010","06","26",2.0,"",3.6,"",15.0,"",12.9,"",76.8,"",998.7,"",1015.0,"",.0,"",.0,""
"353200272","OLSZTYN","2010","06","27",2.1,"",2.8,"",16.5,"",12.7,"",70.9,"",1005.0,"",1021.2,"",.0,"",.0,""
"353200272","OLSZTYN","2010","06","28",1.0,"",2.3,"",18.1,"",11.7,"",59.9,"",1006.0,"",1022.2,"",.0,"",.0,""
"353200272","OLSZTYN","2010","06","29",.6,"",1.5,"",19.4,"",12.5,"",60.3,"",1003.5,"",1019.6,"",.0,"",.0,""
"353200272","OLSZTYN","2010","06","30",2.4,"",1.3,"",20.8,"",13.8,"",60.4,"",1001.0,"",1016.9,"",.0,"",1.0,""
"353200272","OLSZTYN","2010","07","01",3.1,"",2.5,"",18.6,"",14.5,"",70.0,"",1001.1,"",1017.2,"",.0,"",.0,""
"353200272","OLSZTYN","2010","07","02",1.1,"",2.3,"",18.3,"",13.3,"",66.6,"",1002.7,"",1018.8,"",.0,"",.0,""
"353200272","OLSZTYN","2010","07","03",1.6,"",2.5,"",19.0,"",13.5,"",64.8,"",1004.3,"",1020.4,"",.0,"",.0,""
"353200272","OLSZTYN","2010","07","04",5.0,"",2.3,"",20.3,"",15.7,"",68.8,"",1002.7,"",1018.8,"",.0,"",.1,""
"353200272","OLSZTYN","2010","07","05",4.3,"",1.9,"",22.6,"",17.5,"",66.0,"",999.3,"",1015.1,"",.0,"",.0,""
"353200272","OLSZTYN","2010","07","06",4.9,"",3.8,"",19.2,"",17.8,"",80.9,"",996.4,"",1012.3,"",9.4,"",.1,""
"353200272","OLSZTYN","2010","07","07",4.1,"",5.5,"",16.5,"",13.1,"",71.4,"",1000.9,"",1017.1,"",.0,"",.0,""
"353200272","OLSZTYN","2010","07","08",2.6,"",4.0,"",17.6,"",12.9,"",67.8,"",1004.4,"",1020.6,"",.0,"",.0,""
"353200272","OLSZTYN","2010","07","09",2.4,"",.9,"",20.3,"",13.2,"",60.1,"",1006.1,"",1022.2,"",.0,"",.0,""
"353200272","OLSZTYN","2010","07","10",.4,"",1.6,"",23.9,"",15.4,"",56.6,"",1006.5,"",1022.4,"",.0,"",.0,""
"353200272","OLSZTYN","2010","07","11",.3,"",1.8,"",25.0,"",17.7,"",59.4,"",1005.2,"",1021.0,"",.0,"",.0,""
"353200272","OLSZTYN","2010","07","12",.8,"",1.8,"",25.6,"",18.6,"",60.0,"",1001.7,"",1017.4,"",.0,"",.0,""
"353200272","OLSZTYN","2010","07","13",3.0,"",2.6,"",24.8,"",19.7,"",64.6,"",995.9,"",1011.6,"",.0,"",.0,""
"353200272","OLSZTYN","2010","07","14",4.8,"",2.4,"",22.2,"",21.5,"",80.9,"",996.5,"",1012.3,"",.0,"",.0,""
"353200272","OLSZTYN","2010","07","15",3.1,"",1.8,"",24.9,"",18.9,"",64.1,"",997.5,"",1013.2,"",.0,"",.0,""
"353200272","OLSZTYN","2010","07","16",3.9,"",1.8,"",24.7,"",23.3,"",76.0,"",1002.6,"",1018.4,"",1.3,"",.0,""
"353200272","OLSZTYN","2010","07","17",1.8,"",3.0,"",27.1,"",20.6,"",61.9,"",1001.3,"",1017.0,"",.0,"",3.2,""
"353200272","OLSZTYN","2010","07","18",7.3,"",5.0,"",20.6,"",21.2,"",87.3,"",1002.7,"",1018.7,"",17.4,"",.0,""
"353200272","OLSZTYN","2010","07","19",5.6,"",3.6,"",18.8,"",15.4,"",72.6,"",1007.2,"",1023.3,"",.0,"",.0,""
"353200272","OLSZTYN","2010","07","20",3.3,"",1.8,"",20.5,"",14.7,"",62.9,"",1005.0,"",1021.0,"",.0,"",.0,""
"353200272","OLSZTYN","2010","07","21",1.4,"",2.1,"",23.4,"",17.8,"",63.5,"",998.9,"",1014.7,"",.0,"",.0,""
"353200272","OLSZTYN","2010","07","22",1.0,"",2.0,"",27.1,"",20.8,"",61.3,"",996.3,"",1011.9,"",.0,"",.0,""
"353200272","OLSZTYN","2010","07","23",5.0,"",2.9,"",23.4,"",23.0,"",81.6,"",995.5,"",1011.3,"",.0,"",.0,""
"353200272","OLSZTYN","2010","07","24",6.9,"",3.4,"",22.2,"",21.6,"",81.5,"",987.8,"",1003.5,"",8.4,"",.1,""
"353200272","OLSZTYN","2010","07","25",7.0,"",3.1,"",15.7,"",14.8,"",83.4,"",991.5,"",1007.6,"",.0,"",.1,""
"353200272","OLSZTYN","2010","07","26",7.9,"",2.9,"",14.9,"",15.0,"",89.1,"",995.4,"",1011.6,"",.8,"",2.0,""
"353200272","OLSZTYN","2010","07","27",8.0,"",3.9,"",16.4,"",17.3,"",93.0,"",996.1,"",1012.2,"",.1,"",2.2,""
"353200272","OLSZTYN","2010","07","28",7.5,"",2.4,"",18.7,"",19.9,"",92.8,"",989.1,"",1005.0,"",.5,"",4.1,""
"353200272","OLSZTYN","2010","07","29",6.0,"",3.0,"",16.5,"",16.4,"",87.9,"",987.9,"",1003.9,"",4.7,"",.0,""
"353200272","OLSZTYN","2010","07","30",6.5,"",1.5,"",17.6,"",16.3,"",81.4,"",996.6,"",1012.6,"",.0,"",.0,""
"353200272","OLSZTYN","2010","07","31",6.0,"",1.4,"",20.7,"",17.1,"",72.1,"",1001.1,"",1017.1,"",.0,"",10.6,""
"353200272","OLSZTYN","2010","08","01",4.5,"",1.6,"",21.3,"",18.4,"",74.9,"",1000.4,"",1016.3,"",.0,"",.0,""
"353200272","OLSZTYN","2010","08","02",3.8,"",1.5,"",22.4,"",17.9,"",69.6,"",998.6,"",1014.5,"",.0,"",.0,""
"353200272","OLSZTYN","2010","08","03",6.8,"",2.1,"",20.3,"",20.8,"",87.5,"",992.0,"",1007.8,"",8.1,"",.2,""
"353200272","OLSZTYN","2010","08","04",6.5,"",2.6,"",17.9,"",15.8,"",78.1,"",994.6,"",1010.6,"",.0,"",.0,""
"353200272","OLSZTYN","2010","08","05",2.9,"",1.6,"",18.5,"",13.7,"",68.4,"",995.9,"",1011.8,"",.0,"",.0,""
"353200272","OLSZTYN","2010","08","06",4.9,"",3.3,"",21.3,"",19.3,"",77.6,"",997.7,"",1013.5,"",.0,"",16.4,""
"353200272","OLSZTYN","2010","08","07",6.0,"",2.1,"",21.4,"",22.0,"",86.6,"",996.2,"",1012.1,"",1.1,"",.0,""
"353200272","OLSZTYN","2010","08","08",5.6,"",2.1,"",19.0,"",18.3,"",83.6,"",996.6,"",1012.6,"",.1,"",.0,""
"353200272","OLSZTYN","2010","08","09",2.9,"",2.4,"",19.6,"",16.0,"",73.3,"",999.7,"",1015.7,"",7.0,"",13.4,""
"353200272","OLSZTYN","2010","08","10",4.6,"",1.9,"",18.7,"",18.1,"",85.4,"",1000.7,"",1016.8,"",.0,"",.0,""
"353200272","OLSZTYN","2010","08","11",2.8,"",1.8,"",20.9,"",18.0,"",75.3,"",1000.4,"",1016.4,"",.0,"",.0,""
"353200272","OLSZTYN","2010","08","12",3.0,"",2.3,"",22.4,"",17.6,"",68.4,"",1000.5,"",1016.3,"",.0,"",.0,""
"353200272","OLSZTYN","2010","08","13",5.5,"",2.3,"",24.5,"",21.9,"",72.6,"",1000.5,"",1016.2,"",.0,"",5.0,""
"353200272","OLSZTYN","2010","08","14",4.0,"",2.6,"",24.6,"",21.0,"",70.9,"",1000.7,"",1016.4,"",.0,"",.0,""
"353200272","OLSZTYN","2010","08","15",4.4,"",2.1,"",24.4,"",22.3,"",74.6,"",1000.2,"",1016.0,"",.0,"",1.4,""
"353200272","OLSZTYN","2010","08","16",3.6,"",2.0,"",24.4,"",19.9,"",68.6,"",996.5,"",1012.2,"",.0,"",6.0,""
"353200272","OLSZTYN","2010","08","17",5.9,"",2.9,"",19.8,"",17.2,"",75.6,"",991.6,"",1007.4,"",.0,"",1.6,""
"353200272","OLSZTYN","2010","08","18",7.1,"",2.5,"",16.6,"",16.5,"",87.5,"",988.2,"",1004.1,"",2.8,"",.7,""
"353200272","OLSZTYN","2010","08","19",6.1,"",3.9,"",16.0,"",15.4,"",85.6,"",992.0,"",1008.1,"",5.4,"",6.3,""
"353200272","OLSZTYN","2010","08","20",5.4,"",3.8,"",16.6,"",15.2,"",81.9,"",1003.2,"",1019.4,"",.0,"",.0,""
"353200272","OLSZTYN","2010","08","21",3.6,"",2.3,"",19.0,"",14.5,"",69.1,"",1006.3,"",1022.4,"",.0,"",.0,""
"353200272","OLSZTYN","2010","08","22",4.9,"",2.8,"",21.7,"",17.6,"",69.8,"",999.0,"",1014.8,"",.1,"",15.7,""
"353200272","OLSZTYN","2010","08","23",6.6,"",2.6,"",19.7,"",19.3,"",85.1,"",991.5,"",1007.4,"",.0,"",4.8,""
"353200272","OLSZTYN","2010","08","24",5.3,"",3.0,"",20.0,"",18.8,"",81.5,"",987.7,"",1003.5,"",.0,"",.0,""
"353200272","OLSZTYN","2010","08","25",4.3,"",4.3,"",15.5,"",12.7,"",73.4,"",991.9,"",1008.0,"",.0,"",.0,""
"353200272","OLSZTYN","2010","08","26",4.6,"",3.6,"",14.7,"",12.8,"",77.5,"",993.6,"",1009.7,"",.0,"",.0,""
"353200272","OLSZTYN","2010","08","27",7.3,"",2.4,"",14.0,"",15.0,"",93.6,"",985.7,"",1001.7,"",16.1,"",7.9,""
"353200272","OLSZTYN","2010","08","28",7.1,"",4.3,"",14.3,"",14.0,"",86.1,"",986.5,"",1002.5,"",1.9,"",.3,""
"353200272","OLSZTYN","2010","08","29",6.1,"",2.4,"",12.2,"",12.4,"",88.0,"",992.5,"",1008.8,"",5.9,"",1.8,""
"353200272","OLSZTYN","2010","08","30",6.3,"",2.4,"",13.0,"",11.8,"",80.3,"",993.9,"",1010.1,"",.0,"",.0,""
"353200272","OLSZTYN","2010","08","31",6.9,"",2.6,"",14.6,"",12.6,"",77.9,"",996.1,"",1012.4,"",.0,"",.0,""
"353200272","OLSZTYN","2010","09","01",6.0,"",4.9,"",13.0,"",11.7,"",80.0,"",993.8,"",1010.1,"",.0,"",.0,""
"353200272","OLSZTYN","2010","09","02",4.9,"",4.9,"",12.3,"",11.8,"",82.8,"",992.9,"",1009.2,"",.0,"",.4,""
"353200272","OLSZTYN","2010","09","03",2.8,"",5.0,"",10.2,"",10.1,"",81.9,"",998.6,"",1015.2,"",1.2,"",.0,""
"353200272","OLSZTYN","2010","09","04",2.3,"",2.0,"",10.0,"",9.2,"",76.6,"",1004.5,"",1021.2,"",.0,"",.0,""
"353200272","OLSZTYN","2010","09","05",2.9,"",1.8,"",9.4,"",9.2,"",79.8,"",1007.6,"",1024.3,"",.0,"",.0,""
"353200272","OLSZTYN","2010","09","06",5.9,"",2.8,"",10.1,"",11.3,"",90.4,"",1005.7,"",1022.3,"",.5,"",2.1,""
"353200272","OLSZTYN","2010","09","07",5.1,"",2.5,"",13.2,"",12.7,"",84.3,"",1004.4,"",1020.8,"",1.2,"",.0,""
"353200272","OLSZTYN","2010","09","08",1.0,"",3.6,"",12.9,"",11.1,"",76.5,"",1004.3,"",1020.8,"",.0,"",.0,""
"353200272","OLSZTYN","2010","09","09",5.0,"",4.8,"",12.6,"",11.1,"",77.6,"",1004.3,"",1020.8,"",2.3,"",1.4,""
"353200272","OLSZTYN","2010","09","10",7.4,"",2.9,"",14.5,"",15.0,"",91.0,"",1004.0,"",1020.3,"",.0,"",.0,""
"353200272","OLSZTYN","2010","09","11",5.0,"",1.4,"",15.5,"",14.8,"",85.6,"",1005.9,"",1022.2,"",.0,"",.0,""
"353200272","OLSZTYN","2010","09","12",4.5,"",.8,"",13.7,"",13.6,"",87.9,"",1006.0,"",1022.4,"",.0,"",.0,""
"353200272","OLSZTYN","2010","09","13",6.6,"",1.8,"",15.8,"",14.3,"",80.6,"",1003.3,"",1019.6,"",.0,"",.2,""
"353200272","OLSZTYN","2010","09","14",7.3,"",3.5,"",14.1,"",13.4,"",83.9,"",1000.5,"",1016.8,"",.0,"",.8,""
"353200272","OLSZTYN","2010","09","15",6.1,"",3.1,"",12.9,"",13.6,"",91.1,"",990.1,"",1006.3,"",4.1,"",.4,""
"353200272","OLSZTYN","2010","09","16",3.8,"",3.8,"",11.0,"",11.4,"",87.3,"",988.9,"",1005.2,"",4.2,"",.0,""
"353200272","OLSZTYN","2010","09","17",3.6,"",2.9,"",11.1,"",11.1,"",83.6,"",991.2,"",1007.5,"",.8,"",.0,""
"353200272","OLSZTYN","2010","09","18",3.9,"",3.6,"",10.3,"",10.1,"",80.6,"",993.8,"",1010.2,"",.6,"",.0,""
"353200272","OLSZTYN","2010","09","19",3.8,"",3.5,"",9.8,"",9.3,"",77.4,"",997.0,"",1013.5,"",.0,"",.0,""
"353200272","OLSZTYN","2010","09","20",5.3,"",3.5,"",12.6,"",10.3,"",72.0,"",1000.4,"",1016.8,"",.0,"",.9,""
"353200272","OLSZTYN","2010","09","21",6.1,"",3.5,"",12.8,"",11.4,"",77.4,"",1000.0,"",1016.4,"",.9,"",.0,""
"353200272","OLSZTYN","2010","09","22",2.9,"",2.5,"",10.0,"",10.1,"",83.4,"",1006.6,"",1023.2,"",.0,"",.0,""
"353200272","OLSZTYN","2010","09","23",1.4,"",2.6,"",11.1,"",9.7,"",75.6,"",1003.7,"",1020.3,"",.0,"",.0,""
"353200272","OLSZTYN","2010","09","24",1.8,"",3.1,"",14.7,"",12.3,"",75.3,"",993.1,"",1009.2,"",.0,"",.0,""
"353200272","OLSZTYN","2010","09","25",3.5,"",2.9,"",15.2,"",12.9,"",76.9,"",989.5,"",1005.6,"",.0,"",.0,""
"353200272","OLSZTYN","2010","09","26",6.5,"",2.8,"",15.0,"",14.5,"",85.3,"",990.3,"",1006.4,"",.0,"",.0,""
"353200272","OLSZTYN","2010","09","27",7.8,"",3.0,"",14.0,"",14.2,"",89.0,"",985.7,"",1001.7,"",.2,"",.2,""
"353200272","OLSZTYN","2010","09","28",7.9,"",2.3,"",11.1,"",12.2,"",92.4,"",985.4,"",1001.7,"",1.0,"",3.8,""
"353200272","OLSZTYN","2010","09","29",8.0,"",4.0,"",6.0,"",8.8,"",93.6,"",996.5,"",1013.3,"",3.9,"",1.0,""
"353200272","OLSZTYN","2010","09","30",6.4,"",3.4,"",6.1,"",7.4,"",79.3,"",1002.1,"",1018.9,"",.0,"",.0,""
"353200272","OLSZTYN","2010","10","01",5.8,"",2.4,"",6.5,"",7.8,"",81.4,"",1004.5,"",1021.4,"",.0,"",.0,""
"353200272","OLSZTYN","2010","10","02",1.0,"",1.6,"",6.0,"",7.5,"",82.1,"",1008.5,"",1025.4,"",.0,"",.0,""
"353200272","OLSZTYN","2010","10","03",1.1,"",3.8,"",8.2,"",8.0,"",75.3,"",1009.5,"",1026.4,"",.0,"",.0,""
"353200272","OLSZTYN","2010","10","04",.0,"",5.6,"",8.8,"",7.3,"",66.3,"",1006.8,"",1023.6,"",.0,"",.0,""
"353200272","OLSZTYN","2010","10","05",.8,"",6.4,"",7.5,"",6.4,"",63.1,"",1005.9,"",1022.7,"",.0,"",.0,""
"353200272","OLSZTYN","2010","10","06",.8,"",5.8,"",7.7,"",6.7,"",64.4,"",1010.0,"",1026.9,"",.0,"",.0,""
"353200272","OLSZTYN","2010","10","07",1.0,"",4.5,"",5.3,"",6.2,"",70.9,"",1015.6,"",1032.7,"",.0,"",.0,""
"353200272","OLSZTYN","2010","10","08",3.4,"",3.3,"",4.2,"",6.0,"",74.5,"",1017.8,"",1035.0,"",.0,"",.0,""
"353200272","OLSZTYN","2010","10","09",.6,"",1.6,"",4.8,"",6.6,"",78.9,"",1013.6,"",1030.6,"",.0,"",.0,""
"353200272","OLSZTYN","2010","10","10",1.0,"",1.4,"",4.8,"",6.4,"",79.1,"",1003.8,"",1020.8,"",.0,"",.0,""
"353200272","OLSZTYN","2010","10","11",5.8,"",3.1,"",6.7,"",7.5,"",78.0,"",1000.9,"",1017.7,"",.0,"",.0,""
"353200272","OLSZTYN","2010","10","12",4.1,"",3.4,"",5.3,"",7.6,"",85.0,"",999.5,"",1016.3,"",.0,"",.0,""
"353200272","OLSZTYN","2010","10","13",3.8,"",2.0,"",5.1,"",6.7,"",78.8,"",1001.0,"",1017.8,"",.0,"",.0,""
"353200272","OLSZTYN","2010","10","14",7.8,"",3.8,"",6.9,"",8.5,"",86.0,"",992.5,"",1009.1,"",.0,"",.1,""
"353200272","OLSZTYN","2010","10","15",2.9,"",1.9,"",4.3,"",6.7,"",81.0,"",992.7,"",1009.4,"",.3,"",.0,""
"353200272","OLSZTYN","2010","10","16",2.9,"",1.1,"",1.5,"",5.0,"",76.9,"",999.9,"",1016.9,"",.0,"",.0,""
"353200272","OLSZTYN","2010","10","17",.6,"",.4,"",.8,"",4.8,"",77.8,"",1007.0,"",1024.2,"",.0,"",.0,""
"353200272","OLSZTYN","2010","10","18",1.1,"",1.3,"",.7,"",4.8,"",77.8,"",1005.9,"",1023.1,"",.0,"",.0,""
"353200272","OLSZTYN","2010","10","19",7.5,"",2.8,"",4.6,"",7.7,"",91.5,"",993.0,"",1009.8,"",.0,"",.0,""
"353200272","OLSZTYN","2010","10","20",7.6,"",2.3,"",5.8,"",8.3,"",90.3,"",984.5,"",1001.0,"",2.1,"",.3,""
"353200272","OLSZTYN","2010","10","21",5.9,"",5.0,"",2.7,"",6.5,"",87.0,"",990.9,"",1007.8,"",8.6,"",5.9,""
"353200272","OLSZTYN","2010","10","22",7.0,"",5.5,"",4.5,"",7.5,"",88.8,"",995.1,"",1011.9,"",1.8,"",.0,""
"353200272","OLSZTYN","2010","10","23",3.4,"",3.6,"",6.4,"",7.2,"",75.3,"",996.4,"",1013.1,"",.0,"",.0,""
"353200272","OLSZTYN","2010","10","24",6.9,"",3.5,"",7.4,"",8.5,"",82.1,"",988.5,"",1005.0,"",1.0,"",.0,""
"353200272","OLSZTYN","2010","10","25",7.6,"",3.6,"",6.1,"",7.2,"",77.3,"",996.0,"",1012.7,"",.0,"",.1,""
"353200272","OLSZTYN","2010","10","26",5.6,"",1.8,"",1.6,"",6.4,"",92.8,"",1003.8,"",1020.9,"",.0,"",.0,""
"353200272","OLSZTYN","2010","10","27",2.4,"",2.3,"",2.6,"",6.4,"",87.1,"",1009.0,"",1026.1,"",.0,"",.0,""
"353200272","OLSZTYN","2010","10","28",7.6,"",3.3,"",5.7,"",7.2,"",78.3,"",1001.7,"",1018.5,"",.5,"",.0,""
"353200272","OLSZTYN","2010","10","29",7.1,"",2.4,"",8.1,"",9.5,"",87.9,"",1000.1,"",1016.8,"",.0,"",.0,""
"353200272","OLSZTYN","2010","10","30",3.5,"",3.5,"",7.6,"",7.8,"",75.6,"",996.4,"",1013.0,"",.0,"",.0,""
"353200272","OLSZTYN","2010","10","31",2.0,"",3.0,"",6.4,"",7.2,"",75.3,"",994.3,"",1010.9,"",.0,"",.0,""
"353200272","OLSZTYN","2010","11","01",3.4,"",2.0,"",8.6,"",8.6,"",77.8,"",993.9,"",1010.5,"",.0,"",.0,""
"353200272","OLSZTYN","2010","11","02",6.8,"",2.0,"",7.4,"",9.3,"",90.6,"",995.5,"",1012.1,"",.0,"",.0,""
"353200272","OLSZTYN","2010","11","03",8.0,"",4.1,"",8.9,"",9.5,"",83.4,"",993.4,"",1009.9,"",.0,"",2.6,""
"353200272","OLSZTYN","2010","11","04",6.1,"",3.8,"",7.9,"",9.8,"",91.9,"",993.6,"",1010.1,"",5.1,"",14.9,""
"353200272","OLSZTYN","2010","11","05",7.3,"",5.1,"",10.4,"",11.0,"",86.6,"",990.2,"",1006.6,"",15.6,"",.0,""
"353200272","OLSZTYN","2010","11","06",7.5,"",4.0,"",6.4,"",8.5,"",88.5,"",989.0,"",1005.6,"",5.3,"",.1,""
"353200272","OLSZTYN","2010","11","07",7.6,"",2.4,"",3.8,"",7.2,"",89.6,"",989.7,"",1006.4,"",.0,"",.4,""
"353200272","OLSZTYN","2010","11","08",7.9,"",3.0,"",4.2,"",8.0,"",96.0,"",975.8,"",992.3,"",3.4,"",5.3,""
"353200272","OLSZTYN","2010","11","09",5.9,"",3.1,"",6.6,"",9.3,"",93.1,"",968.5,"",984.7,"",2.0,"",.0,""
"353200272","OLSZTYN","2010","11","10",7.4,"",2.6,"",4.1,"",8.0,"",97.6,"",974.8,"",991.3,"",8.2,"",.0,""
"353200272","OLSZTYN","2010","11","11",6.9,"",2.6,"",4.8,"",8.3,"",95.4,"",985.6,"",1002.3,"",1.0,"",1.0,""
"353200272","OLSZTYN","2010","11","12",7.0,"",5.0,"",5.7,"",8.1,"",88.0,"",973.3,"",989.7,"",2.5,"",.0,""
"353200272","OLSZTYN","2010","11","13",7.0,"",5.0,"",9.2,"",9.4,"",80.5,"",976.9,"",993.1,"",.0,"",.5,""
"353200272","OLSZTYN","2010","11","14",6.0,"",2.8,"",10.3,"",11.2,"",89.8,"",987.6,"",1003.9,"",.0,"",.0,""
"353200272","OLSZTYN","2010","11","15",4.1,"",2.4,"",9.5,"",10.0,"",84.3,"",994.8,"",1011.3,"",.0,"",.1,""
"353200272","OLSZTYN","2010","11","16",7.9,"",3.1,"",6.4,"",8.5,"",88.9,"",1004.3,"",1021.1,"",.0,"",4.8,""
"353200272","OLSZTYN","2010","11","17",8.0,"",4.1,"",4.4,"",7.8,"",92.8,"",1000.7,"",1017.6,"",.3,"",.6,""
"353200272","OLSZTYN","2010","11","18",8.0,"",1.9,"",7.0,"",9.8,"",98.0,"",995.8,"",1012.4,"",.1,"",2.9,""
"353200272","OLSZTYN","2010","11","19",8.0,"",2.9,"",7.5,"",9.3,"",89.3,"",998.5,"",1015.2,"",.0,"",.0,""
"353200272","OLSZTYN","2010","11","20",7.6,"",2.3,"",3.9,"",7.5,"",92.5,"",1000.9,"",1017.8,"",16.5,"",.1,""
"353200272","OLSZTYN","2010","11","21",7.9,"",2.1,"",3.0,"",7.3,"",96.0,"",1000.1,"",1017.1,"",.0,"",.0,""
"353200272","OLSZTYN","2010","11","22",7.4,"",5.1,"",3.8,"",7.0,"",87.8,"",990.9,"",1007.7,"",.1,"",6.0,""
"353200272","OLSZTYN","2010","11","23",8.0,"",3.8,"",3.8,"",7.6,"",94.3,"",974.4,"",990.9,"",4.5,"",.0,""
"353200272","OLSZTYN","2010","11","24",8.0,"",3.9,"",2.1,"",6.5,"",91.8,"",974.2,"",990.8,"",.3,"",1.8,""
"353200272","OLSZTYN","2010","11","25",8.0,"",5.4,"",-.1,"",5.6,"",92.4,"",980.3,"",997.1,"",.8,"",.7,""
"353200272","OLSZTYN","2010","11","26",5.0,"",2.3,"",-1.2,"",5.0,"",89.9,"",986.9,"",1003.9,"",.0,"",.0,""
"353200272","OLSZTYN","2010","11","27",6.0,"",3.0,"",-1.2,"",5.0,"",88.3,"",990.6,"",1007.7,"",.0,"",1.1,""
"353200272","OLSZTYN","2010","11","28",8.0,"",2.5,"",-3.2,"",4.4,"",91.4,"",997.6,"",1014.9,"",.7,"",.0,""
"353200272","OLSZTYN","2010","11","29",8.0,"",5.1,"",-7.4,"",3.2,"",89.5,"",993.4,"",1010.9,"",.9,"",2.7,""
"353200272","OLSZTYN","2010","11","30",6.6,"",3.8,"",-11.8,"",2.0,"",80.8,"",1000.1,"",1018.0,"",.0,"",.0,""
"353200272","OLSZTYN","2010","12","01",4.4,"",3.3,"",-15.1,"",1.7,"",85.9,"",1006.3,"",1024.6,"",.0,"",.1,""
"353200272","OLSZTYN","2010","12","02",7.6,"",5.6,"",-9.7,"",2.5,"",83.8,"",994.7,"",1012.4,"",2.7,"",.0,""
"353200272","OLSZTYN","2010","12","03",6.3,"",2.5,"",-11.0,"",2.2,"",82.5,"",994.8,"",1012.6,"",.0,"",.0,""
"353200272","OLSZTYN","2010","12","04",6.8,"",3.4,"",-7.6,"",3.2,"",90.8,"",998.8,"",1016.5,"",.0,"",.0,""
"353200272","OLSZTYN","2010","12","05",5.8,"",4.0,"",-7.7,"",2.8,"",82.1,"",994.6,"",1012.1,"",.0,"",1.0,""
"353200272","OLSZTYN","2010","12","06",8.0,"",3.4,"",-1.1,"",5.1,"",91.0,"",985.5,"",1002.5,"",.0,"",.0,""
"353200272","OLSZTYN","2010","12","07",8.0,"",1.6,"",-1.9,"",4.4,"",82.1,"",991.2,"",1008.3,"",.0,"",.0,""
"353200272","OLSZTYN","2010","12","08",8.0,"",2.6,"",-3.1,"",4.5,"",91.1,"",991.3,"",1008.5,"",.3,"",10.8,""
"353200272","OLSZTYN","2010","12","09",7.5,"",4.8,"",-2.1,"",4.9,"",93.3,"",982.8,"",999.8,"",.4,"",4.6,""
"353200272","OLSZTYN","2010","12","10",6.8,"",5.6,"",-2.6,"",4.8,"",94.4,"",993.3,"",1010.5,"",4.2,"",.0,""
"353200272","OLSZTYN","2010","12","11",7.6,"",4.8,"",-3.5,"",4.6,"",96.0,"",985.7,"",1002.8,"",4.4,"",3.8,""
"353200272","OLSZTYN","2010","12","12",8.0,"",3.3,"",-1.8,"",5.4,"",98.1,"",981.9,"",998.8,"",1.9,"",1.5,""
"353200272","OLSZTYN","2010","12","13",7.8,"",2.5,"",-7.8,"",3.2,"",94.0,"",994.0,"",1011.6,"",.4,"",.1,""
"353200272","OLSZTYN","2010","12","14",6.6,"",1.1,"",-13.4,"",2.1,"",91.8,"",997.0,"",1015.0,"",4.1,"",.0,""
"353200272","OLSZTYN","2010","12","15",6.9,"",1.1,"",-11.8,"",2.3,"",93.0,"",1002.6,"",1020.6,"",.0,"",.0,""
"353200272","OLSZTYN","2010","12","16",7.9,"",3.8,"",-10.0,"",2.6,"",91.6,"",994.0,"",1011.7,"",.0,"",.1,""
"353200272","OLSZTYN","2010","12","17",3.5,"",4.5,"",-10.9,"",2.4,"",88.8,"",986.0,"",1003.6,"",.0,"",.0,""
"353200272","OLSZTYN","2010","12","18",8.0,"",2.5,"",-8.5,"",3.0,"",91.1,"",986.6,"",1004.1,"",2.6,"",.5,""
"353200272","OLSZTYN","2010","12","19",6.6,"",2.6,"",-10.0,"",2.7,"",93.1,"",984.9,"",1002.5,"",.0,"",1.4,""
"353200272","OLSZTYN","2010","12","20",7.8,"",3.3,"",-6.6,"",3.6,"",95.0,"",981.1,"",998.4,"",4.0,"",.3,""
"353200272","OLSZTYN","2010","12","21",7.0,"",3.0,"",-7.5,"",3.3,"",94.4,"",993.8,"",1011.4,"",.0,"",.0,""
"353200272","OLSZTYN","2010","12","22",8.0,"",2.0,"",-5.0,"",4.1,"",96.9,"",996.8,"",1014.3,"",.0,"",.0,""
"353200272","OLSZTYN","2010","12","23",8.0,"",4.1,"",-2.5,"",5.0,"",98.3,"",991.1,"",1008.2,"",.0,"",.0,""
"353200272","OLSZTYN","2010","12","24",8.0,"",2.1,"",.4,"",6.3,"",99.6,"",982.9,"",999.8,"",.0,"",4.7,""
"353200272","OLSZTYN","2010","12","25",7.8,"",4.0,"",-1.4,"",5.3,"",96.0,"",986.1,"",1003.1,"",1.0,"",.7,""
"353200272","OLSZTYN","2010","12","26",7.4,"",4.5,"",-4.5,"",4.1,"",91.3,"",997.9,"",1015.3,"",.2,"",.0,""
"353200272","OLSZTYN","2010","12","27",3.6,"",1.9,"",-11.4,"",2.4,"",90.8,"",1005.9,"",1023.9,"",.0,"",.0,""
"353200272","OLSZTYN","2010","12","28",4.6,"",1.0,"",-14.0,"",2.0,"",91.8,"",1008.3,"",1026.5,"",.0,"",.1,""
"353200272","OLSZTYN","2010","12","29",7.9,"",4.4,"",-7.0,"",3.5,"",93.4,"",1003.8,"",1021.5,"",.9,"",1.3,""
"353200272","OLSZTYN","2010","12","30",8.0,"",5.9,"",-3.5,"",4.4,"",93.0,"",999.1,"",1016.5,"",.1,"",2.5,""
"353200272","OLSZTYN","2010","12","31",7.8,"",3.9,"",-5.3,"",4.0,"",94.0,"",995.9,"",1013.3,"",.8,"",.0,""
