"350150510","君IEｯKA","2010","01","01",7.6,"",5.3,"",-3.3,"",4.8,"",99.6,"",812.2,"",1253.2,"",.6,"",.9,""
"350150510","君IEｯKA","2010","01","02",7.8,"",11.4,"",-10.5,"",2.7,"",94.4,"",819.9,"",1334.9,"",9.6,"",12.9,""
"350150510","君IEｯKA","2010","01","03",7.3,"",8.4,"",-12.8,"",2.1,"",91.5,"",828.0,"",1412.8,"",1.9,"",.3,""
"350150510","君IEｯKA","2010","01","04",7.8,"",4.3,"",-13.4,"",2.0,"",91.6,"",826.8,"",1402.6,"",1.1,"",5.5,""
"350150510","君IEｯKA","2010","01","05",6.4,"",8.1,"",-13.3,"",1.9,"",85.0,"",821.3,"",1351.4,"",.0,"",5.3,""
"350150510","君IEｯKA","2010","01","06",7.5,"",6.8,"",-9.4,"",2.8,"",93.3,"",816.1,"",1298.5,"",.1,"",.2,""
"350150510","君IEｯKA","2010","01","07",4.8,"",7.1,"",-11.5,"",2.1,"",81.4,"",820.9,"",1345.7,"",.0,"",.0,""
"350150510","君IEｯKA","2010","01","08",5.8,"",9.9,"",-11.0,"",2.2,"",84.1,"",827.1,"",1403.3,"",7.0,"",9.7,""
"350150510","君IEｯKA","2010","01","09",8.0,"",10.0,"",-7.3,"",3.5,"",95.9,"",823.0,"",1361.7,"",2.7,"",2.0,""
"350150510","君IEｯKA","2010","01","10",8.0,"",5.6,"",-3.8,"",4.7,"",98.5,"",823.4,"",1362.3,"",2.3,"",3.0,""
"350150510","君IEｯKA","2010","01","11",4.3,"",7.3,"",-10.5,"",2.6,"",94.1,"",826.1,"",1393.6,"",.0,"",.0,""
"350150510","君IEｯKA","2010","01","12",4.5,"",9.0,"",-7.5,"",3.3,"",95.1,"",829.6,"",1424.2,"",.0,"",.0,""
"350150510","君IEｯKA","2010","01","13",6.0,"",11.4,"",-6.7,"",3.6,"",96.9,"",826.6,"",1395.1,"",.2,"",.0,""
"350150510","君IEｯKA","2010","01","14",.5,"",12.1,"",-7.6,"",2.9,"",82.0,"",826.9,"",1398.8,"",.0,"",.1,""
"350150510","君IEｯKA","2010","01","15",2.4,"",11.1,"",-7.7,"",2.6,"",76.3,"",834.4,"",1469.2,"",.0,"",.0,""
"350150510","君IEｯKA","2010","01","16",3.8,"",15.1,"",-8.7,"",2.5,"",78.1,"",836.3,"",1487.2,"",.3,"",.4,""
"350150510","君IEｯKA","2010","01","17",8.0,"",17.9,"",-10.3,"",2.7,"",93.6,"",828.3,"",1414.0,"",1.2,"",1.3,""
"350150510","君IEｯKA","2010","01","18",8.0,"",12.8,"",-6.7,"",3.6,"",96.6,"",834.1,"",1466.2,"",1.2,"",.4,""
"350150510","君IEｯKA","2010","01","19",7.9,"",7.0,"",-7.0,"",3.5,"",96.5,"",834.6,"",1471.1,"",.1,"",.0,""
"350150510","君IEｯKA","2010","01","20",3.8,"",7.4,"",-8.5,"",3.0,"",92.8,"",831.1,"",1439.3,"",.0,"",1.5,""
"350150510","君IEｯKA","2010","01","21",6.5,"",10.8,"",-10.6,"",2.6,"",93.6,"",831.9,"",1447.2,"",.0,"",.4,""
"350150510","君IEｯKA","2010","01","22",4.9,"",12.8,"",-9.6,"",2.8,"",94.5,"",837.1,"",1494.8,"",.0,"",.0,""
"350150510","君IEｯKA","2010","01","23",2.1,"",12.4,"",-9.6,"",2.2,"",74.9,"",837.2,"",1495.8,"",.0,"",.0,""
"350150510","君IEｯKA","2010","01","24",6.3,"",16.6,"",-11.7,"",1.4,"",56.6,"",837.4,"",1498.5,"",.0,"",.0,""
"350150510","君IEｯKA","2010","01","25",7.1,"",18.4,"",-13.8,"",1.5,"",70.4,"",838.5,"",1510.2,"",.0,"",.1,""
"350150510","君IEｯKA","2010","01","26",3.0,"",8.8,"",-13.9,"",1.0,"",50.4,"",842.0,"",1541.3,"",.0,"",.0,""
"350150510","君IEｯKA","2010","01","27",3.9,"",13.9,"",-13.8,"",1.4,"",62.1,"",831.9,"",1449.4,"",.9,"",9.3,""
"350150510","君IEｯKA","2010","01","28",7.8,"",24.8,"",-10.8,"",2.6,"",94.6,"",809.7,"",1238.6,"",4.1,"",5.1,""
"350150510","君IEｯKA","2010","01","29",7.9,"",14.9,"",-10.4,"",2.7,"",94.9,"",805.5,"",1197.7,"",7.5,"",14.5,""
"350150510","君IEｯKA","2010","01","30",7.1,"",19.0,"",-10.9,"",2.6,"",94.3,"",803.3,"",1177.7,"",7.3,"",.0,""
"350150510","君IEｯKA","2010","01","31",3.0,"",6.8,"",-13.0,"",2.0,"",89.0,"",815.9,"",1301.1,"",.0,"",1.1,""
"350150510","君IEｯKA","2010","02","01",7.5,"",13.0,"",-12.2,"",2.2,"",92.0,"",820.0,"",1338.4,"",.3,"",1.5,""
"350150510","君IEｯKA","2010","02","02",7.6,"",15.6,"",-11.8,"",2.2,"",86.4,"",822.2,"",1358.4,"",.1,"",9.1,""
"350150510","君IEｯKA","2010","02","03",7.6,"",19.8,"",-9.8,"",2.8,"",95.1,"",819.4,"",1329.7,"",1.6,"",.2,""
"350150510","君IEｯKA","2010","02","04",7.3,"",9.9,"",-7.7,"",3.4,"",95.6,"",832.0,"",1446.5,"",.0,"",.2,""
"350150510","君IEｯKA","2010","02","05",7.9,"",17.1,"",-6.6,"",3.6,"",97.0,"",828.7,"",1415.3,"",.5,"",.7,""
"350150510","君IEｯKA","2010","02","06",7.9,"",10.6,"",-5.9,"",3.8,"",96.8,"",828.6,"",1413.5,"",.8,"",.0,""
"350150510","君IEｯKA","2010","02","07",5.3,"",12.5,"",-10.9,"",2.3,"",84.9,"",829.1,"",1421.9,"",.1,"",.4,""
"350150510","君IEｯKA","2010","02","08",4.0,"",8.6,"",-10.4,"",2.6,"",92.6,"",824.3,"",1377.0,"",.0,"",.3,""
"350150510","君IEｯKA","2010","02","09",7.0,"",7.1,"",-12.3,"",2.0,"",85.8,"",819.2,"",1331.0,"",.2,"",1.4,""
"350150510","君IEｯKA","2010","02","10",8.0,"",8.9,"",-11.6,"",2.3,"",90.0,"",818.7,"",1325.8,"",.7,"",1.6,""
"350150510","君IEｯKA","2010","02","11",7.9,"",8.4,"",-11.5,"",2.4,"",93.6,"",818.3,"",1321.3,"",.2,"",.6,""
"350150510","君IEｯKA","2010","02","12",7.3,"",3.0,"",-7.4,"",3.5,"",97.1,"",822.4,"",1355.7,"",.2,"",.7,""
"350150510","君IEｯKA","2010","02","13",6.8,"",3.1,"",-8.8,"",3.0,"",95.6,"",824.8,"",1380.1,"",.0,"",.0,""
"350150510","君IEｯKA","2010","02","14",6.8,"",3.4,"",-7.4,"",3.4,"",95.6,"",825.2,"",1382.7,"",.0,"",.1,""
"350150510","君IEｯKA","2010","02","15",7.4,"",2.3,"",-7.9,"",3.3,"",97.1,"",823.6,"",1368.0,"",.0,"",.0,""
"350150510","君IEｯKA","2010","02","16",4.8,"",8.5,"",-9.8,"",2.8,"",94.5,"",820.6,"",1341.3,"",.0,"",.1,""
"350150510","君IEｯKA","2010","02","17",4.5,"",11.5,"",-5.9,"",3.0,"",77.1,"",817.6,"",1308.7,"",.0,"",.0,""
"350150510","君IEｯKA","2010","02","18",6.3,"",12.0,"",.1,"",4.5,"",74.5,"",818.3,"",1308.9,"",.0,"",.1,""
"350150510","君IEｯKA","2010","02","19",7.8,"",12.4,"",-3.3,"",4.8,"",100.0,"",815.1,"",1281.5,"",.0,"",.7,""
"350150510","君IEｯKA","2010","02","20",7.8,"",11.8,"",-7.7,"",3.4,"",97.1,"",813.4,"",1269.9,"",.1,"",.0,""
"350150510","君IEｯKA","2010","02","21",5.3,"",14.8,"",-9.7,"",2.8,"",95.1,"",816.8,"",1305.5,"",6.6,"",1.6,""
"350150510","君IEｯKA","2010","02","22",6.6,"",16.1,"",-7.0,"",3.5,"",96.4,"",816.1,"",1295.0,"",.2,"",.6,""
"350150510","君IEｯKA","2010","02","23",7.3,"",16.5,"",-2.7,"",4.9,"",97.4,"",816.0,"",1289.5,"",1.9,"",1.0,""
"350150510","君IEｯKA","2010","02","24",7.8,"",7.6,"",-1.3,"",5.6,"",100.0,"",821.1,"",1337.5,"",.2,"",.0,""
"350150510","君IEｯKA","2010","02","25",6.5,"",11.3,"",-2.0,"",5.3,"",100.0,"",822.8,"",1354.8,"",.0,"",.2,""
"350150510","君IEｯKA","2010","02","26",8.0,"",18.1,"",-2.4,"",5.1,"",100.0,"",815.7,"",1285.8,"",.8,"",.7,""
"350150510","君IEｯKA","2010","02","27",7.8,"",14.6,"",-5.5,"",4.1,"",99.0,"",821.8,"",1347.9,"",.3,"",.0,""
"350150510","君IEｯKA","2010","02","28",6.4,"",20.0,"",-3.6,"",4.4,"",92.3,"",815.5,"",1285.5,"",1.1,"",4.4,""
"350150510","君IEｯKA","2010","03","01",7.3,"",20.5,"",-5.9,"",4.0,"",99.5,"",818.2,"",1313.6,"",4.6,"",.4,""
"350150510","君IEｯKA","2010","03","02",5.9,"",16.5,"",-8.8,"",3.1,"",97.3,"",829.1,"",1420.1,"",.8,"",.3,""
"350150510","君IEｯKA","2010","03","03",6.6,"",15.3,"",-9.8,"",2.8,"",95.1,"",831.3,"",1441.3,"",.3,"",.2,""
"350150510","君IEｯKA","2010","03","04",7.8,"",7.3,"",-11.0,"",2.5,"",94.3,"",827.5,"",1407.3,"",.4,"",3.2,""
"350150510","君IEｯKA","2010","03","05",8.0,"",13.1,"",-15.4,"",1.7,"",90.3,"",826.6,"",1402.4,"",1.0,"",.1,""
"350150510","君IEｯKA","2010","03","06",7.1,"",6.1,"",-15.5,"",1.7,"",92.8,"",827.8,"",1413.3,"",2.8,"",.3,""
"350150510","君IEｯKA","2010","03","07",5.1,"",10.1,"",-13.7,"",2.0,"",92.4,"",836.0,"",1487.0,"",.2,"",1.6,""
"350150510","君IEｯKA","2010","03","08",7.3,"",4.3,"",-14.7,"",1.8,"",90.8,"",834.4,"",1473.1,"",.1,"",.1,""
"350150510","君IEｯKA","2010","03","09",3.3,"",10.4,"",-14.6,"",1.3,"",71.6,"",834.8,"",1476.3,"",.0,"",.0,""
"350150510","君IEｯKA","2010","03","10",3.6,"",13.0,"",-9.8,"",1.0,"",36.5,"",836.4,"",1488.8,"",.0,"",.0,""
"350150510","君IEｯKA","2010","03","11",6.1,"",11.3,"",-8.0,"",1.2,"",40.3,"",827.6,"",1406.0,"",.0,"",.0,""
"350150510","君IEｯKA","2010","03","12",7.5,"",14.4,"",-8.5,"",3.2,"",97.0,"",825.1,"",1382.8,"",.2,"",1.7,""
"350150510","君IEｯKA","2010","03","13",7.9,"",19.6,"",-7.4,"",3.5,"",98.4,"",825.8,"",1388.6,"",1.1,"",3.3,""
"350150510","君IEｯKA","2010","03","14",7.9,"",25.6,"",-6.5,"",3.8,"",99.4,"",823.6,"",1366.9,"",1.6,"",1.8,""
"350150510","君IEｯKA","2010","03","15",7.5,"",17.6,"",-10.4,"",2.7,"",95.9,"",826.2,"",1394.2,"",1.4,"",1.6,""
"350150510","君IEｯKA","2010","03","16",7.8,"",15.0,"",-9.6,"",2.9,"",96.8,"",829.8,"",1427.8,"",1.1,"",.6,""
"350150510","君IEｯKA","2010","03","17",7.5,"",15.4,"",-6.3,"",3.8,"",99.1,"",837.0,"",1493.1,"",.1,"",.0,""
"350150510","君IEｯKA","2010","03","18",5.9,"",12.3,"",-1.9,"",4.7,"",88.4,"",839.9,"",1517.9,"",.0,"",.0,""
"350150510","君IEｯKA","2010","03","19",5.9,"",12.9,"",1.4,"",4.9,"",72.4,"",837.8,"",1496.7,"",.0,"",.0,""
"350150510","君IEｯKA","2010","03","20",7.4,"",14.4,"",2.4,"",6.4,"",88.4,"",833.1,"",1450.8,"",.0,"",6.0,""
"350150510","君IEｯKA","2010","03","21",7.9,"",17.4,"",2.8,"",7.5,"",100.0,"",831.3,"",1433.1,"",7.2,"",.2,""
"350150510","君IEｯKA","2010","03","22",1.9,"",9.5,"",.7,"",2.7,"",42.4,"",838.6,"",1505.5,"",.0,"",.2,""
"350150510","君IEｯKA","2010","03","23",5.0,"",6.1,"",.3,"",5.2,"",83.6,"",837.5,"",1495.0,"",.0,"",.0,""
"350150510","君IEｯKA","2010","03","24",5.0,"",10.4,"",1.7,"",6.0,"",87.6,"",837.5,"",1493.8,"",.0,"",.4,""
"350150510","君IEｯKA","2010","03","25",7.5,"",20.6,"",3.2,"",7.7,"",99.5,"",832.9,"",1448.5,"",1.0,"",.2,""
"350150510","君IEｯKA","2010","03","26",5.1,"",10.6,"",5.2,"",7.2,"",82.4,"",830.2,"",1421.3,"",.0,"",3.9,""
"350150510","君IEｯKA","2010","03","27",7.3,"",14.3,"",-2.1,"",5.3,"",100.0,"",823.9,"",1365.0,"",3.5,"",.5,""
"350150510","君IEｯKA","2010","03","28",7.6,"",11.6,"",-2.2,"",5.2,"",99.9,"",827.6,"",1401.2,"",1.6,"",.7,""
"350150510","君IEｯKA","2010","03","29",8.0,"",9.3,"",-.3,"",6.0,"",100.0,"",826.4,"",1387.6,"",14.0,"",1.1,""
"350150510","君IEｯKA","2010","03","30",7.3,"",10.9,"",2.8,"",6.8,"",91.0,"",823.5,"",1357.0,"",.2,"",.0,""
"350150510","君IEｯKA","2010","03","31",7.0,"",11.4,"",-.9,"",5.6,"",97.4,"",821.3,"",1339.2,"",2.7,"",.0,""
"350150510","君IEｯKA","2010","04","01",6.1,"",8.3,"",-3.4,"",4.6,"",95.9,"",828.2,"",1408.1,"",.0,"",7.4,""
"350150510","君IEｯKA","2010","04","02",6.0,"",8.3,"",-5.4,"",3.9,"",95.6,"",832.5,"",1450.1,"",1.1,"",.0,""
"350150510","君IEｯKA","2010","04","03",3.4,"",10.1,"",-3.3,"",4.3,"",89.4,"",832.5,"",1448.7,"",.0,"",.0,""
"350150510","君IEｯKA","2010","04","04",5.8,"",7.4,"",.4,"",5.5,"",86.9,"",832.7,"",1448.1,"",.0,"",.8,""
"350150510","君IEｯKA","2010","04","05",7.9,"",14.0,"",-3.0,"",4.9,"",99.6,"",836.8,"",1489.2,"",.3,"",.2,""
"350150510","君IEｯKA","2010","04","06",4.8,"",10.8,"",-4.5,"",4.2,"",95.3,"",840.9,"",1529.0,"",.0,"",.0,""
"350150510","君IEｯKA","2010","04","07",.4,"",4.3,"",.5,"",2.6,"",40.0,"",840.9,"",1526.7,"",.0,"",.0,""
"350150510","君IEｯKA","2010","04","08",1.6,"",4.6,"",2.7,"",3.9,"",51.9,"",841.5,"",1531.9,"",.0,"",.0,""
"350150510","君IEｯKA","2010","04","09",6.1,"",11.5,"",-.8,"",5.3,"",93.3,"",842.4,"",1542.1,"",.1,"",.4,""
"350150510","君IEｯKA","2010","04","10",8.0,"",13.1,"",-4.2,"",4.4,"",98.4,"",838.0,"",1501.1,"",3.3,"",1.4,""
"350150510","君IEｯKA","2010","04","11",8.0,"",10.5,"",-4.7,"",4.3,"",98.1,"",835.2,"",1475.0,"",1.1,"",1.4,""
"350150510","君IEｯKA","2010","04","12",7.3,"",9.9,"",-1.4,"",5.5,"",100.0,"",834.3,"",1465.3,"",1.0,"",.0,""
"350150510","君IEｯKA","2010","04","13",5.9,"",7.8,"",-.8,"",5.2,"",90.8,"",833.8,"",1460.0,"",.1,"",.1,""
"350150510","君IEｯKA","2010","04","14",8.0,"",10.3,"",-2.0,"",5.3,"",100.0,"",830.1,"",1424.8,"",1.8,"",1.7,""
"350150510","君IEｯKA","2010","04","15",8.0,"",11.1,"",-.3,"",6.0,"",100.0,"",831.1,"",1433.8,"",.4,"",.1,""
"350150510","君IEｯKA","2010","04","16",6.8,"",13.3,"",-2.9,"",4.8,"",95.8,"",833.8,"",1460.5,"",.0,"",.0,""
"350150510","君IEｯKA","2010","04","17",1.9,"",9.0,"",-1.9,"",4.2,"",80.6,"",837.2,"",1492.8,"",.0,"",.0,""
"350150510","君IEｯKA","2010","04","18",3.4,"",9.9,"",2.2,"",4.3,"",61.3,"",835.1,"",1471.1,"",.0,"",.1,""
"350150510","君IEｯKA","2010","04","19",5.0,"",8.3,"",1.7,"",5.8,"",85.3,"",832.1,"",1442.0,"",.0,"",.0,""
"350150510","君IEｯKA","2010","04","20",6.3,"",6.8,"",.6,"",5.9,"",92.3,"",832.2,"",1443.2,"",.3,"",.0,""
"350150510","君IEｯKA","2010","04","21",6.3,"",17.3,"",-5.4,"",4.0,"",96.4,"",828.2,"",1409.0,"",.8,"",.3,""
"350150510","君IEｯKA","2010","04","22",5.8,"",11.9,"",-6.6,"",3.4,"",91.4,"",830.7,"",1434.2,"",.0,"",.0,""
"350150510","君IEｯKA","2010","04","23",1.6,"",4.4,"",-1.5,"",3.4,"",61.3,"",834.0,"",1462.4,"",.0,"",.0,""
"350150510","君IEｯKA","2010","04","24",3.5,"",5.0,"",1.8,"",4.7,"",66.5,"",839.8,"",1515.7,"",.0,"",.0,""
"350150510","君IEｯKA","2010","04","25",3.9,"",5.9,"",5.2,"",5.0,"",56.6,"",844.6,"",1561.1,"",.0,"",.0,""
"350150510","君IEｯKA","2010","04","26",5.9,"",9.9,"",5.5,"",7.1,"",79.9,"",841.4,"",1530.0,"",.4,"",.0,""
"350150510","君IEｯKA","2010","04","27",5.8,"",16.9,"",.8,"",6.4,"",98.1,"",841.1,"",1528.7,"",.1,"",.2,""
"350150510","君IEｯKA","2010","04","28",6.0,"",5.6,"",1.9,"",6.0,"",87.0,"",843.9,"",1555.2,"",.0,"",.0,""
"350150510","君IEｯKA","2010","04","29",6.4,"",8.3,"",6.2,"",6.5,"",68.3,"",839.4,"",1510.1,"",.0,"",.0,""
"350150510","君IEｯKA","2010","04","30",6.6,"",7.4,"",9.4,"",8.1,"",68.6,"",833.8,"",1454.4,"",.0,"",.1,""
"350150510","君IEｯKA","2010","05","01",7.5,"",5.8,"",5.6,"",8.8,"",96.5,"",832.2,"",1440.1,"",2.2,"",1.3,""
"350150510","君IEｯKA","2010","05","02",7.8,"",6.0,"",3.4,"",7.8,"",99.1,"",831.3,"",1433.3,"",1.5,"",13.1,""
"350150510","君IEｯKA","2010","05","03",7.3,"",6.5,"",4.1,"",8.2,"",100.0,"",829.8,"",1417.6,"",1.9,"",.0,""
"350150510","君IEｯKA","2010","05","04",7.9,"",4.3,"",.4,"",6.3,"",100.0,"",834.3,"",1463.9,"",.2,"",2.8,""
"350150510","君IEｯKA","2010","05","05",8.0,"",10.4,"",-1.8,"",5.4,"",100.0,"",833.3,"",1455.3,"",.0,"",6.0,""
"350150510","君IEｯKA","2010","05","06",7.9,"",9.6,"",4.0,"",8.2,"",100.0,"",824.6,"",1366.3,"",8.7,"",.0,""
"350150510","君IEｯKA","2010","05","07",5.9,"",6.8,"",3.1,"",6.7,"",87.6,"",826.4,"",1385.3,"",.0,"",.0,""
"350150510","君IEｯKA","2010","05","08",7.4,"",4.1,"",1.8,"",6.4,"",92.8,"",830.2,"",1423.2,"",.0,"",.0,""
"350150510","君IEｯKA","2010","05","09",6.0,"",3.8,"",2.7,"",6.3,"",85.6,"",830.5,"",1425.2,"",.0,"",12.8,""
"350150510","君IEｯKA","2010","05","10",7.9,"",5.3,"",2.1,"",7.1,"",99.8,"",828.1,"",1403.2,"",1.4,"",2.9,""
"350150510","君IEｯKA","2010","05","11",7.9,"",7.5,"",4.9,"",8.7,"",99.5,"",830.1,"",1419.8,"",.7,"",.9,""
"350150510","君IEｯKA","2010","05","12",8.0,"",8.0,"",5.9,"",9.3,"",100.0,"",828.7,"",1405.9,"",.4,"",2.0,""
"350150510","君IEｯKA","2010","05","13",7.8,"",4.9,"",3.0,"",7.6,"",100.0,"",829.2,"",1412.6,"",.4,"",.6,""
"350150510","君IEｯKA","2010","05","14",8.0,"",6.3,"",-.3,"",6.0,"",100.0,"",827.2,"",1395.8,"",3.9,"",.6,""
"350150510","君IEｯKA","2010","05","15",7.9,"",7.9,"",-1.7,"",5.4,"",100.0,"",825.5,"",1380.8,"",.0,"",.7,""
"350150510","君IEｯKA","2010","05","16",7.9,"",19.9,"",-1.7,"",5.4,"",100.0,"",825.7,"",1382.2,"",.8,"",.3,""
"350150510","君IEｯKA","2010","05","17",7.9,"",26.5,"",-1.5,"",5.5,"",99.8,"",830.1,"",1424.8,"",.4,"",.4,""
"350150510","君IEｯKA","2010","05","18",8.0,"",21.6,"",-1.4,"",5.5,"",100.0,"",833.5,"",1456.9,"",.3,"",3.4,""
"350150510","君IEｯKA","2010","05","19",7.6,"",8.3,"",1.7,"",6.9,"",100.0,"",835.6,"",1475.8,"",6.2,"",.0,""
"350150510","君IEｯKA","2010","05","20",6.0,"",7.8,"",4.8,"",8.2,"",95.6,"",842.2,"",1538.2,"",.1,"",2.8,""
"350150510","君IEｯKA","2010","05","21",8.0,"",13.6,"",6.0,"",9.3,"",100.0,"",843.1,"",1547.1,"",3.7,"",3.0,""
"350150510","君IEｯKA","2010","05","22",8.0,"",10.0,"",6.0,"",9.3,"",100.0,"",842.4,"",1539.6,"",2.5,"",.2,""
"350150510","君IEｯKA","2010","05","23",6.9,"",10.1,"",5.7,"",9.0,"",98.4,"",839.4,"",1510.6,"",.0,"",3.4,""
"350150510","君IEｯKA","2010","05","24",7.5,"",19.6,"",6.0,"",9.1,"",97.1,"",832.1,"",1439.1,"",3.8,"",.0,""
"350150510","君IEｯKA","2010","05","25",6.1,"",20.5,"",2.6,"",7.1,"",95.6,"",829.4,"",1414.9,"",.0,"",.0,""
"350150510","君IEｯKA","2010","05","26",6.9,"",9.6,"",3.5,"",7.5,"",95.8,"",830.6,"",1426.1,"",.0,"",.9,""
"350150510","君IEｯKA","2010","05","27",7.1,"",8.4,"",5.4,"",8.6,"",95.1,"",830.0,"",1418.6,"",2.2,"",.0,""
"350150510","君IEｯKA","2010","05","28",5.5,"",8.6,"",5.0,"",8.1,"",92.4,"",834.5,"",1463.3,"",.5,"",.0,""
"350150510","君IEｯKA","2010","05","29",7.0,"",4.4,"",3.8,"",8.0,"",100.0,"",839.2,"",1509.5,"",.0,"",1.0,""
"350150510","君IEｯKA","2010","05","30",7.9,"",6.8,"",5.1,"",8.8,"",100.0,"",831.2,"",1431.0,"",8.2,"",2.3,""
"350150510","君IEｯKA","2010","05","31",7.9,"",12.8,"",1.8,"",7.0,"",100.0,"",826.3,"",1385.0,"",.6,"",.6,""
"350150510","君IEｯKA","2010","06","01",7.5,"",7.6,"",1.6,"",6.9,"",100.0,"",828.6,"",1407.8,"",.0,"",.2,""
"350150510","君IEｯKA","2010","06","02",8.0,"",15.6,"",3.1,"",7.7,"",100.0,"",828.6,"",1407.3,"",16.7,"",13.9,""
"350150510","君IEｯKA","2010","06","03",8.0,"",14.9,"",6.2,"",9.5,"",100.0,"",834.1,"",1459.0,"",3.0,"",.6,""
"350150510","君IEｯKA","2010","06","04",4.5,"",13.8,"",4.3,"",7.2,"",86.1,"",837.8,"",1496.3,"",.0,"",.0,""
"350150510","君IEｯKA","2010","06","05",2.5,"",5.0,"",8.8,"",8.3,"",74.4,"",843.1,"",1545.9,"",.0,"",.0,""
"350150510","君IEｯKA","2010","06","06",4.5,"",6.1,"",11.4,"",9.1,"",68.4,"",839.5,"",1510.1,"",.0,"",.0,""
"350150510","君IEｯKA","2010","06","07",6.1,"",8.3,"",10.1,"",11.2,"",90.8,"",834.7,"",1462.6,"",.0,"",.0,""
"350150510","君IEｯKA","2010","06","08",4.9,"",4.9,"",10.9,"",11.1,"",84.3,"",835.6,"",1471.4,"",.0,"",6.2,""
"350150510","君IEｯKA","2010","06","09",6.6,"",5.9,"",14.0,"",14.8,"",92.8,"",836.2,"",1475.8,"",.8,"",.0,""
"350150510","君IEｯKA","2010","06","10",5.8,"",8.6,"",15.9,"",13.7,"",76.4,"",835.8,"",1470.3,"",.0,"",.0,""
"350150510","君IEｯKA","2010","06","11",2.9,"",10.0,"",16.6,"",11.9,"",64.0,"",834.9,"",1461.4,"",.0,"",.0,""
"350150510","君IEｯKA","2010","06","12",5.8,"",6.8,"",13.2,"",9.9,"",66.6,"",834.8,"",1461.9,"",.0,"",5.8,""
"350150510","君IEｯKA","2010","06","13",6.4,"",5.8,"",5.9,"",8.8,"",94.5,"",835.8,"",1476.0,"",.0,"",8.5,""
"350150510","君IEｯKA","2010","06","14",7.9,"",5.9,"",4.3,"",8.3,"",100.0,"",835.9,"",1477.6,"",1.4,"",.0,""
"350150510","君IEｯKA","2010","06","15",5.5,"",5.6,"",4.8,"",7.9,"",91.5,"",840.6,"",1523.2,"",.0,"",.3,""
"350150510","君IEｯKA","2010","06","16",7.0,"",11.8,"",3.3,"",7.4,"",95.5,"",840.6,"",1523.2,"",.0,"",.0,""
"350150510","君IEｯKA","2010","06","17",1.5,"",8.8,"",5.1,"",7.6,"",86.6,"",839.9,"",1515.6,"",.0,"",1.1,""
"350150510","君IEｯKA","2010","06","18",6.9,"",8.8,"",7.7,"",10.2,"",96.8,"",831.7,"",1433.9,"",3.5,"",.8,""
"350150510","君IEｯKA","2010","06","19",6.6,"",7.5,"",1.3,"",6.5,"",96.4,"",826.8,"",1390.6,"",.0,"",.0,""
"350150510","君IEｯKA","2010","06","20",7.1,"",8.0,"",2.0,"",6.5,"",91.9,"",831.2,"",1432.5,"",.0,"",.0,""
"350150510","君IEｯKA","2010","06","21",7.4,"",12.1,"",2.7,"",7.4,"",99.8,"",836.0,"",1479.1,"",.0,"",.2,""
"350150510","君IEｯKA","2010","06","22",6.9,"",15.6,"",3.6,"",7.8,"",97.8,"",839.3,"",1510.5,"",.0,"",.0,""
"350150510","君IEｯKA","2010","06","23",5.6,"",14.4,"",3.7,"",7.3,"",92.5,"",840.4,"",1521.2,"",.0,"",.0,""
"350150510","君IEｯKA","2010","06","24",6.6,"",14.0,"",5.9,"",8.6,"",93.1,"",838.3,"",1499.5,"",.0,"",.0,""
"350150510","君IEｯKA","2010","06","25",6.1,"",15.3,"",6.9,"",9.7,"",97.9,"",836.4,"",1481.2,"",.0,"",.0,""
"350150510","君IEｯKA","2010","06","26",6.5,"",9.1,"",8.2,"",10.6,"",97.4,"",839.2,"",1508.2,"",.0,"",.0,""
"350150510","君IEｯKA","2010","06","27",2.6,"",8.5,"",7.5,"",8.4,"",81.5,"",842.6,"",1541.0,"",.0,"",.0,""
"350150510","君IEｯKA","2010","06","28",1.8,"",3.8,"",10.2,"",10.2,"",82.0,"",843.7,"",1551.9,"",.0,"",.0,""
"350150510","君IEｯKA","2010","06","29",3.4,"",3.0,"",12.5,"",10.4,"",71.6,"",843.2,"",1545.6,"",.0,"",.0,""
"350150510","君IEｯKA","2010","06","30",4.1,"",6.5,"",12.9,"",10.3,"",69.3,"",842.9,"",1542.8,"",.0,"",.0,""
"350150510","君IEｯKA","2010","07","01",6.3,"",4.9,"",12.4,"",10.9,"",76.4,"",842.7,"",1541.6,"",9.9,"",.0,""
"350150510","君IEｯKA","2010","07","02",5.6,"",4.6,"",13.5,"",12.0,"",77.6,"",843.7,"",1550.4,"",.0,"",.0,""
"350150510","君IEｯKA","2010","07","03",3.0,"",6.6,"",13.3,"",10.1,"",66.3,"",843.7,"",1550.5,"",.0,"",.0,""
"350150510","君IEｯKA","2010","07","04",3.3,"",6.8,"",12.8,"",7.7,"",52.5,"",842.4,"",1537.7,"",.0,"",.0,""
"350150510","君IEｯKA","2010","07","05",5.3,"",7.4,"",12.7,"",10.5,"",71.0,"",841.2,"",1526.2,"",.0,"",1.3,""
"350150510","君IEｯKA","2010","07","06",7.8,"",14.5,"",7.8,"",10.3,"",96.6,"",839.3,"",1509.1,"",8.4,"",.4,""
"350150510","君IEｯKA","2010","07","07",5.5,"",11.5,"",5.3,"",8.1,"",91.3,"",842.5,"",1541.1,"",.0,"",.0,""
"350150510","君IEｯKA","2010","07","08",1.5,"",4.8,"",9.6,"",8.7,"",72.9,"",845.1,"",1565.7,"",.0,"",.0,""
"350150510","君IEｯKA","2010","07","09",1.6,"",2.9,"",14.9,"",10.3,"",60.5,"",846.8,"",1581.1,"",.0,"",.0,""
"350150510","君IEｯKA","2010","07","10",.8,"",3.4,"",17.6,"",10.0,"",49.5,"",847.4,"",1587.6,"",.0,"",.0,""
"350150510","君IEｯKA","2010","07","11",.6,"",3.9,"",18.6,"",11.1,"",52.6,"",845.9,"",1571.8,"",.0,"",.0,""
"350150510","君IEｯKA","2010","07","12",1.6,"",3.0,"",18.2,"",13.2,"",63.8,"",842.9,"",1541.3,"",.0,"",.0,""
"350150510","君IEｯKA","2010","07","13",4.6,"",6.6,"",15.5,"",13.0,"",74.8,"",839.0,"",1503.3,"",10.1,"",.0,""
"350150510","君IEｯKA","2010","07","14",2.6,"",4.4,"",15.1,"",13.3,"",77.4,"",839.7,"",1509.9,"",.0,"",.0,""
"350150510","君IEｯKA","2010","07","15",4.6,"",6.8,"",16.3,"",12.8,"",69.3,"",841.5,"",1527.7,"",.0,"",32.1,""
"350150510","君IEｯKA","2010","07","16",3.8,"",7.3,"",17.3,"",14.5,"",73.8,"",844.8,"",1561.5,"",.0,"",.0,""
"350150510","君IEｯKA","2010","07","17",5.9,"",9.4,"",15.8,"",15.8,"",88.6,"",843.8,"",1550.9,"",.8,"",10.1,""
"350150510","君IEｯKA","2010","07","18",7.6,"",17.3,"",7.7,"",10.3,"",96.6,"",844.3,"",1557.6,"",3.6,"",.0,""
"350150510","君IEｯKA","2010","07","19",5.4,"",10.3,"",7.0,"",9.4,"",93.8,"",846.1,"",1575.4,"",.0,"",.1,""
"350150510","君IEｯKA","2010","07","20",6.8,"",7.1,"",11.1,"",12.8,"",96.1,"",842.4,"",1538.5,"",.1,"",.1,""
"350150510","君IEｯKA","2010","07","21",5.5,"",6.5,"",15.2,"",14.2,"",83.9,"",839.1,"",1504.6,"",.0,"",.0,""
"350150510","君IEｯKA","2010","07","22",3.9,"",5.0,"",16.8,"",13.0,"",68.1,"",840.7,"",1520.3,"",13.9,"",6.3,""
"350150510","君IEｯKA","2010","07","23",7.8,"",5.5,"",13.0,"",13.6,"",91.5,"",838.7,"",1501.3,"",1.4,"",15.6,""
"350150510","君IEｯKA","2010","07","24",8.0,"",21.6,"",7.7,"",10.4,"",98.8,"",832.4,"",1441.3,"",3.4,"",1.0,""
"350150510","君IEｯKA","2010","07","25",7.6,"",14.5,"",5.2,"",8.8,"",99.3,"",834.3,"",1461.7,"",.0,"",1.8,""
"350150510","君IEｯKA","2010","07","26",6.9,"",7.0,"",6.3,"",9.2,"",96.3,"",835.9,"",1476.1,"",.0,"",.0,""
"350150510","君IEｯKA","2010","07","27",5.3,"",9.3,"",8.2,"",8.8,"",80.6,"",837.8,"",1494.3,"",.0,"",.0,""
"350150510","君IEｯKA","2010","07","28",7.3,"",14.8,"",8.2,"",10.3,"",95.3,"",835.2,"",1468.8,"",.0,"",.4,""
"350150510","君IEｯKA","2010","07","29",6.8,"",9.5,"",7.5,"",9.4,"",90.8,"",832.8,"",1444.9,"",2.1,"",.6,""
"350150510","君IEｯKA","2010","07","30",7.8,"",6.4,"",6.5,"",9.6,"",99.4,"",836.7,"",1483.6,"",.0,"",.0,""
"350150510","君IEｯKA","2010","07","31",4.6,"",2.8,"",8.9,"",10.3,"",90.5,"",841.6,"",1531.2,"",.2,"",.0,""
"350150510","君IEｯKA","2010","08","01",2.9,"",4.1,"",12.3,"",10.5,"",73.9,"",841.9,"",1533.6,"",.0,"",.0,""
"350150510","君IEｯKA","2010","08","02",5.0,"",5.6,"",13.4,"",12.4,"",80.3,"",840.3,"",1517.1,"",.0,"",17.6,""
"350150510","君IEｯKA","2010","08","03",8.0,"",8.1,"",9.2,"",11.4,"",98.0,"",835.5,"",1471.4,"",5.5,"",.5,""
"350150510","君IEｯKA","2010","08","04",6.6,"",5.1,"",6.8,"",9.9,"",99.4,"",835.9,"",1476.5,"",1.6,"",.0,""
"350150510","君IEｯKA","2010","08","05",5.0,"",5.1,"",9.5,"",10.5,"",88.8,"",834.2,"",1458.2,"",.0,"",.1,""
"350150510","君IEｯKA","2010","08","06",7.6,"",6.8,"",10.6,"",12.5,"",97.6,"",836.4,"",1479.3,"",2.3,"",8.0,""
"350150510","君IEｯKA","2010","08","07",7.8,"",5.6,"",10.5,"",12.6,"",99.9,"",837.2,"",1487.5,"",41.1,"",15.5,""
"350150510","君IEｯKA","2010","08","08",6.6,"",8.9,"",8.6,"",10.6,"",94.9,"",839.0,"",1506.1,"",.2,"",.5,""
"350150510","君IEｯKA","2010","08","09",7.3,"",5.9,"",8.9,"",10.7,"",93.4,"",840.0,"",1515.2,"",21.5,"",.0,""
"350150510","君IEｯKA","2010","08","10",4.0,"",3.5,"",10.0,"",11.1,"",90.9,"",841.3,"",1527.8,"",.0,"",.0,""
"350150510","君IEｯKA","2010","08","11",5.1,"",6.3,"",12.1,"",11.7,"",83.1,"",840.8,"",1522.5,"",.0,"",.0,""
"350150510","君IEｯKA","2010","08","12",5.9,"",9.5,"",12.8,"",13.2,"",89.6,"",839.3,"",1507.2,"",.0,"",16.0,""
"350150510","君IEｯKA","2010","08","13",7.6,"",6.3,"",12.0,"",14.0,"",99.9,"",840.8,"",1522.4,"",4.5,"",17.7,""
"350150510","君IEｯKA","2010","08","14",8.0,"",6.8,"",11.7,"",13.7,"",100.0,"",840.2,"",1516.3,"",.9,"",1.1,""
"350150510","君IEｯKA","2010","08","15",7.6,"",13.1,"",13.5,"",15.4,"",99.6,"",838.2,"",1495.7,"",.4,"",.1,""
"350150510","君IEｯKA","2010","08","16",7.4,"",5.6,"",9.2,"",11.4,"",97.6,"",836.1,"",1476.5,"",.4,"",.2,""
"350150510","君IEｯKA","2010","08","17",8.0,"",8.0,"",6.3,"",9.6,"",100.0,"",830.8,"",1425.8,"",17.8,"",10.1,""
"350150510","君IEｯKA","2010","08","18",7.9,"",9.0,"",6.4,"",9.6,"",99.6,"",831.5,"",1432.7,"",1.9,"",1.6,""
"350150510","君IEｯKA","2010","08","19",6.0,"",12.6,"",6.3,"",8.7,"",90.8,"",836.9,"",1486.1,"",.6,"",.0,""
"350150510","君IEｯKA","2010","08","20",2.4,"",5.0,"",8.8,"",8.5,"",75.3,"",845.2,"",1566.9,"",.0,"",.0,""
"350150510","君IEｯKA","2010","08","21",2.6,"",6.3,"",13.5,"",11.3,"",73.1,"",848.2,"",1595.1,"",.0,"",.0,""
"350150510","君IEｯKA","2010","08","22",3.6,"",6.0,"",14.2,"",13.9,"",85.4,"",843.8,"",1552.0,"",.0,"",7.6,""
"350150510","君IEｯKA","2010","08","23",7.1,"",10.0,"",12.5,"",13.6,"",94.1,"",835.1,"",1465.4,"",7.7,"",2.4,""
"350150510","君IEｯKA","2010","08","24",7.8,"",9.5,"",10.7,"",12.8,"",99.1,"",833.1,"",1446.7,"",.3,"",.0,""
"350150510","君IEｯKA","2010","08","25",5.5,"",16.0,"",5.5,"",7.9,"",87.5,"",836.6,"",1483.8,"",.0,"",.0,""
"350150510","君IEｯKA","2010","08","26",6.9,"",12.4,"",8.0,"",10.6,"",97.4,"",835.7,"",1473.0,"",4.5,"",11.5,""
"350150510","君IEｯKA","2010","08","27",8.0,"",14.4,"",10.3,"",12.5,"",100.0,"",828.6,"",1401.5,"",7.6,"",13.6,""
"350150510","君IEｯKA","2010","08","28",7.8,"",15.9,"",4.2,"",8.4,"",100.0,"",830.4,"",1423.9,"",3.9,"",.8,""
"350150510","君IEｯKA","2010","08","29",7.9,"",12.1,"",2.1,"",7.2,"",100.0,"",833.0,"",1450.6,"",2.3,"",14.7,""
"350150510","君IEｯKA","2010","08","30",8.0,"",4.1,"",1.7,"",6.9,"",100.0,"",828.6,"",1407.9,"",3.0,"",3.2,""
"350150510","君IEｯKA","2010","08","31",8.0,"",21.4,"",2.8,"",7.5,"",100.0,"",831.5,"",1434.9,"",9.2,"",2.3,""
"350150510","君IEｯKA","2010","09","01",7.6,"",21.1,"",2.3,"",7.2,"",100.0,"",833.7,"",1457.0,"",.7,"",2.0,""
"350150510","君IEｯKA","2010","09","02",7.9,"",14.9,"",3.1,"",7.6,"",100.0,"",835.6,"",1474.9,"",2.0,"",2.8,""
"350150510","君IEｯKA","2010","09","03",6.0,"",6.9,"",2.2,"",6.3,"",87.8,"",839.0,"",1508.3,"",.0,"",.0,""
"350150510","君IEｯKA","2010","09","04",6.0,"",6.1,"",1.5,"",6.6,"",97.4,"",839.3,"",1510.9,"",3.2,"",.1,""
"350150510","君IEｯKA","2010","09","05",7.4,"",8.4,"",1.1,"",6.6,"",99.4,"",841.8,"",1535.6,"",.1,"",.1,""
"350150510","君IEｯKA","2010","09","06",7.1,"",7.1,"",.8,"",6.5,"",99.3,"",840.1,"",1519.3,"",.1,"",.0,""
"350150510","君IEｯKA","2010","09","07",5.6,"",8.8,"",2.0,"",6.7,"",94.5,"",835.2,"",1471.7,"",.0,"",.0,""
"350150510","君IEｯKA","2010","09","08",7.1,"",14.9,"",4.4,"",8.0,"",95.5,"",833.2,"",1451.3,"",.1,"",5.5,""
"350150510","君IEｯKA","2010","09","09",8.0,"",6.1,"",6.2,"",9.5,"",100.0,"",835.6,"",1473.1,"",10.4,"",.2,""
"350150510","君IEｯKA","2010","09","10",6.9,"",7.8,"",5.6,"",9.1,"",99.8,"",841.8,"",1533.9,"",.6,"",.0,""
"350150510","君IEｯKA","2010","09","11",4.4,"",2.1,"",6.6,"",9.2,"",94.4,"",843.7,"",1552.1,"",.0,"",.0,""
"350150510","君IEｯKA","2010","09","12",3.1,"",3.1,"",8.3,"",8.4,"",76.5,"",842.9,"",1543.7,"",.0,"",.0,""
"350150510","君IEｯKA","2010","09","13",7.1,"",8.0,"",6.2,"",9.1,"",96.0,"",842.2,"",1537.8,"",.5,"",.4,""
"350150510","君IEｯKA","2010","09","14",7.3,"",12.0,"",4.1,"",8.2,"",99.5,"",840.0,"",1517.5,"",4.0,"",2.1,""
"350150510","君IEｯKA","2010","09","15",8.0,"",13.0,"",5.8,"",9.3,"",100.0,"",831.8,"",1436.6,"",7.4,"",1.4,""
"350150510","君IEｯKA","2010","09","16",7.3,"",9.8,"",2.6,"",7.4,"",99.5,"",830.1,"",1421.9,"",4.1,"",.0,""
"350150510","君IEｯKA","2010","09","17",7.5,"",10.9,"",2.1,"",7.1,"",100.0,"",831.6,"",1436.8,"",1.1,"",.0,""
"350150510","君IEｯKA","2010","09","18",6.6,"",9.5,"",.9,"",5.9,"",91.1,"",835.2,"",1472.6,"",.0,"",.0,""
"350150510","君IEｯKA","2010","09","19",4.5,"",7.8,"",.5,"",5.9,"",93.3,"",836.8,"",1487.7,"",.0,"",.0,""
"350150510","君IEｯKA","2010","09","20",4.1,"",8.9,"",3.2,"",6.7,"",87.3,"",839.0,"",1508.1,"",.0,"",.0,""
"350150510","君IEｯKA","2010","09","21",4.6,"",10.4,"",5.6,"",8.1,"",89.4,"",841.3,"",1528.8,"",.0,"",.0,""
"350150510","君IEｯKA","2010","09","22",1.9,"",6.0,"",6.6,"",8.8,"",89.9,"",844.4,"",1559.4,"",.0,"",.0,""
"350150510","君IEｯKA","2010","09","23",4.4,"",13.1,"",7.1,"",8.9,"",88.4,"",839.6,"",1512.6,"",.0,"",.0,""
"350150510","君IEｯKA","2010","09","24",7.0,"",17.6,"",7.5,"",9.7,"",93.5,"",830.2,"",1419.3,"",.0,"",.3,""
"350150510","君IEｯKA","2010","09","25",7.3,"",9.1,"",7.2,"",9.9,"",98.0,"",826.8,"",1385.6,"",.0,"",32.2,""
"350150510","君IEｯKA","2010","09","26",8.0,"",7.6,"",6.5,"",9.7,"",100.0,"",826.5,"",1383.8,"",11.1,"",12.0,""
"350150510","君IEｯKA","2010","09","27",8.0,"",18.4,"",2.0,"",7.1,"",100.0,"",824.4,"",1366.7,"",11.9,"",4.6,""
"350150510","君IEｯKA","2010","09","28",8.0,"",18.4,"",2.3,"",7.2,"",100.0,"",827.9,"",1400.3,"",4.9,"",4.6,""
"350150510","君IEｯKA","2010","09","29",8.0,"",17.5,"",-.8,"",5.8,"",99.9,"",833.1,"",1452.7,"",5.2,"",1.5,""
"350150510","君IEｯKA","2010","09","30",7.4,"",8.9,"",-2.6,"",5.0,"",99.0,"",835.3,"",1474.8,"",.1,"",.0,""
"350150510","君IEｯKA","2010","10","01",5.8,"",2.8,"",-1.7,"",5.4,"",99.4,"",835.6,"",1477.8,"",.0,"",.0,""
"350150510","君IEｯKA","2010","10","02",6.0,"",5.5,"",.3,"",6.1,"",97.1,"",838.2,"",1501.6,"",.0,"",.3,""
"350150510","君IEｯKA","2010","10","03",8.0,"",16.8,"",2.0,"",7.1,"",100.0,"",837.3,"",1491.7,"",.3,"",.5,""
"350150510","君IEｯKA","2010","10","04",8.0,"",23.0,"",2.4,"",7.2,"",100.0,"",832.1,"",1441.6,"",.6,"",.3,""
"350150510","君IEｯKA","2010","10","05",8.0,"",10.9,"",3.9,"",8.1,"",100.0,"",833.6,"",1455.5,"",.5,"",.9,""
"350150510","君IEｯKA","2010","10","06",8.0,"",14.5,"",4.6,"",8.5,"",100.0,"",838.7,"",1504.5,"",.5,"",.3,""
"350150510","君IEｯKA","2010","10","07",7.3,"",12.3,"",4.4,"",8.3,"",98.8,"",843.8,"",1553.6,"",.0,"",.0,""
"350150510","君IEｯKA","2010","10","08",4.9,"",13.8,"",3.7,"",5.9,"",74.4,"",845.0,"",1565.6,"",.0,"",.0,""
"350150510","君IEｯKA","2010","10","09",3.1,"",10.9,"",5.1,"",1.9,"",21.6,"",843.3,"",1548.4,"",.0,"",.0,""
"350150510","君IEｯKA","2010","10","10",.4,"",9.6,"",4.5,"",1.1,"",12.6,"",837.7,"",1494.3,"",.0,"",.0,""
"350150510","君IEｯKA","2010","10","11",.3,"",4.1,"",4.6,"",1.6,"",19.6,"",836.5,"",1482.8,"",.0,"",.0,""
"350150510","君IEｯKA","2010","10","12",.0,"",2.0,"",3.9,"",2.9,"",34.9,"",836.0,"",1478.5,"",.0,"",.0,""
"350150510","君IEｯKA","2010","10","13",1.0,"",3.3,"",3.3,"",3.1,"",40.0,"",835.7,"",1476.2,"",.0,"",.0,""
"350150510","君IEｯKA","2010","10","14",2.9,"",6.0,"",2.4,"",4.1,"",59.4,"",832.3,"",1443.9,"",.0,"",1.2,""
"350150510","君IEｯKA","2010","10","15",7.8,"",6.9,"",-.9,"",5.7,"",99.8,"",829.8,"",1421.7,"",.5,"",.3,""
"350150510","君IEｯKA","2010","10","16",7.9,"",4.3,"",-1.4,"",5.4,"",98.6,"",829.5,"",1419.3,"",.1,"",2.0,""
"350150510","君IEｯKA","2010","10","17",4.4,"",12.9,"",-4.5,"",3.7,"",83.1,"",835.2,"",1475.2,"",.0,"",.0,""
"350150510","君IEｯKA","2010","10","18",7.0,"",5.0,"",-2.7,"",4.9,"",97.3,"",836.0,"",1481.7,"",.0,"",.0,""
"350150510","君IEｯKA","2010","10","19",5.8,"",8.1,"",-3.2,"",4.4,"",92.3,"",827.4,"",1399.6,"",.5,"",2.1,""
"350150510","君IEｯKA","2010","10","20",7.4,"",15.4,"",-3.5,"",4.6,"",98.0,"",822.7,"",1355.6,"",1.2,"",1.0,""
"350150510","君IEｯKA","2010","10","21",7.5,"",20.0,"",-6.3,"",3.7,"",96.3,"",831.5,"",1440.9,"",3.5,"",.2,""
"350150510","君IEｯKA","2010","10","22",5.4,"",11.9,"",-4.1,"",3.3,"",73.5,"",835.7,"",1479.3,"",.0,"",.0,""
"350150510","君IEｯKA","2010","10","23",4.3,"",7.9,"",-1.6,"",4.1,"",73.5,"",831.2,"",1435.4,"",.0,"",1.2,""
"350150510","君IEｯKA","2010","10","24",7.6,"",10.8,"",-1.5,"",5.5,"",99.9,"",825.4,"",1378.9,"",3.2,"",.0,""
"350150510","君IEｯKA","2010","10","25",6.9,"",13.1,"",-5.7,"",4.0,"",98.0,"",832.8,"",1453.0,"",.0,"",2.2,""
"350150510","君IEｯKA","2010","10","26",6.5,"",15.1,"",-5.8,"",3.8,"",94.5,"",838.4,"",1505.2,"",2.3,"",.0,""
"350150510","君IEｯKA","2010","10","27",3.9,"",5.8,"",-4.9,"",2.9,"",68.0,"",841.8,"",1536.9,"",.0,"",.0,""
"350150510","君IEｯKA","2010","10","28",6.1,"",13.5,"",.4,"",4.5,"",71.4,"",838.9,"",1507.6,"",.0,"",.0,""
"350150510","君IEｯKA","2010","10","29",3.9,"",12.1,"",2.2,"",5.9,"",83.4,"",836.7,"",1486.5,"",.0,"",.0,""
"350150510","君IEｯKA","2010","10","30",2.8,"",10.6,"",7.6,"",3.3,"",37.6,"",831.4,"",1431.6,"",.0,"",.0,""
"350150510","君IEｯKA","2010","10","31",5.1,"",15.3,"",4.7,"",5.3,"",66.9,"",829.3,"",1412.4,"",.0,"",.0,""
"350150510","君IEｯKA","2010","11","01",5.6,"",12.6,"",5.1,"",7.9,"",90.1,"",830.8,"",1426.6,"",.0,"",.0,""
"350150510","君IEｯKA","2010","11","02",5.8,"",8.3,"",6.4,"",7.4,"",77.0,"",834.1,"",1458.9,"",.0,"",.0,""
"350150510","君IEｯKA","2010","11","03",5.9,"",13.6,"",2.7,"",6.3,"",85.5,"",833.5,"",1455.1,"",.2,"",7.8,""
"350150510","君IEｯKA","2010","11","04",8.0,"",18.9,"",4.3,"",8.4,"",100.0,"",836.3,"",1481.6,"",5.2,"",5.4,""
"350150510","君IEｯKA","2010","11","05",8.0,"",19.4,"",4.1,"",8.2,"",100.0,"",837.4,"",1491.9,"",1.1,"",1.9,""
"350150510","君IEｯKA","2010","11","06",8.0,"",15.6,"",1.6,"",6.9,"",100.0,"",829.8,"",1419.5,"",12.3,"",1.1,""
"350150510","君IEｯKA","2010","11","07",7.5,"",7.1,"",-1.3,"",5.5,"",99.0,"",823.5,"",1360.6,"",17.9,"",4.8,""
"350150510","君IEｯKA","2010","11","08",7.9,"",7.5,"",-1.0,"",5.7,"",99.5,"",809.6,"",1224.5,"",2.0,"",5.3,""
"350150510","君IEｯKA","2010","11","09",7.5,"",11.9,"",-2.7,"",4.9,"",97.0,"",805.5,"",1186.2,"",.1,"",.2,""
"350150510","君IEｯKA","2010","11","10",5.6,"",10.4,"",-.3,"",5.1,"",84.9,"",813.8,"",1264.4,"",.0,"",2.9,""
"350150510","君IEｯKA","2010","11","11",7.9,"",12.8,"",-4.0,"",4.5,"",97.4,"",821.7,"",1345.4,"",1.7,"",9.0,""
"350150510","君IEｯKA","2010","11","12",8.0,"",20.6,"",-1.9,"",5.3,"",98.8,"",814.6,"",1274.6,"",6.5,"",16.8,""
"350150510","君IEｯKA","2010","11","13",8.0,"",15.9,"",3.7,"",8.0,"",99.9,"",820.9,"",1330.4,"",.7,"",.3,""
"350150510","君IEｯKA","2010","11","14",5.8,"",13.8,"",4.6,"",7.7,"",91.5,"",827.6,"",1396.2,"",.0,"",.0,""
"350150510","君IEｯKA","2010","11","15",6.1,"",6.9,"",5.9,"",7.8,"",84.4,"",833.2,"",1450.1,"",.0,"",4.7,""
"350150510","君IEｯKA","2010","11","16",8.0,"",7.4,"",1.2,"",6.7,"",100.0,"",833.0,"",1451.3,"",.6,"",.5,""
"350150510","君IEｯKA","2010","11","17",7.5,"",8.8,"",3.5,"",7.7,"",98.4,"",830.9,"",1429.0,"",.3,"",.1,""
"350150510","君IEｯKA","2010","11","18",8.0,"",9.9,"",2.1,"",7.2,"",100.0,"",828.1,"",1402.9,"",8.3,"",.8,""
"350150510","君IEｯKA","2010","11","19",6.1,"",6.0,"",-2.5,"",5.0,"",99.1,"",832.5,"",1448.4,"",2.4,"",3.8,""
"350150510","君IEｯKA","2010","11","20",7.1,"",4.6,"",-4.4,"",4.3,"",97.3,"",833.6,"",1460.2,"",.1,"",.0,""
"350150510","君IEｯKA","2010","11","21",6.3,"",10.8,"",-3.1,"",4.7,"",96.8,"",828.6,"",1411.1,"",.8,"",8.0,""
"350150510","君IEｯKA","2010","11","22",8.0,"",11.9,"",.2,"",6.2,"",100.0,"",818.5,"",1310.7,"",6.2,"",2.7,""
"350150510","君IEｯKA","2010","11","23",7.6,"",12.8,"",-5.6,"",4.0,"",98.3,"",813.7,"",1270.3,"",2.0,"",6.1,""
"350150510","君IEｯKA","2010","11","24",6.8,"",20.1,"",-8.5,"",3.1,"",94.5,"",814.0,"",1277.1,"",.7,"",.7,""
"350150510","君IEｯKA","2010","11","25",6.4,"",14.4,"",-9.7,"",2.8,"",93.4,"",818.3,"",1319.8,"",.0,"",2.2,""
"350150510","君IEｯKA","2010","11","26",7.6,"",5.6,"",-7.7,"",3.3,"",95.1,"",817.7,"",1311.3,"",.3,"",9.6,""
"350150510","君IEｯKA","2010","11","27",5.5,"",4.9,"",-10.7,"",2.5,"",91.9,"",819.9,"",1335.9,"",.0,"",.0,""
"350150510","君IEｯKA","2010","11","28",5.8,"",12.1,"",-9.1,"",2.5,"",81.9,"",822.9,"",1362.4,"",.0,"",7.3,""
"350150510","君IEｯKA","2010","11","29",8.0,"",17.6,"",-11.7,"",2.4,"",93.1,"",816.0,"",1299.8,"",7.5,"",2.7,""
"350150510","君IEｯKA","2010","11","30",4.1,"",8.5,"",-12.4,"",2.2,"",90.9,"",825.1,"",1385.6,"",.0,"",.0,""
"350150510","君IEｯKA","2010","12","01",7.8,"",15.3,"",-13.1,"",2.0,"",89.8,"",820.1,"",1340.4,"",2.1,"",8.9,""
"350150510","君IEｯKA","2010","12","02",6.1,"",9.5,"",-15.7,"",1.6,"",87.1,"",815.3,"",1298.9,"",2.9,"",.0,""
"350150510","君IEｯKA","2010","12","03",5.3,"",7.9,"",-11.5,"",1.8,"",72.5,"",822.2,"",1357.7,"",.0,"",.0,""
"350150510","君IEｯKA","2010","12","04",.5,"",13.9,"",-12.1,"",1.7,"",70.5,"",828.5,"",1417.6,"",.0,"",.0,""
"350150510","君IEｯKA","2010","12","05",5.6,"",12.3,"",-9.4,"",2.0,"",66.8,"",823.0,"",1363.8,"",1.8,"",8.0,""
"350150510","君IEｯKA","2010","12","06",7.8,"",7.3,"",-6.9,"",3.5,"",93.9,"",818.7,"",1319.9,"",1.2,"",1.1,""
"350150510","君IEｯKA","2010","12","07",7.1,"",4.9,"",-3.1,"",4.7,"",96.8,"",820.5,"",1333.6,"",.3,"",6.0,""
"350150510","君IEｯKA","2010","12","08",7.9,"",10.8,"",.1,"",6.1,"",99.9,"",821.3,"",1337.7,"",4.3,"",4.1,""
"350150510","君IEｯKA","2010","12","09",7.5,"",24.1,"",-9.7,"",2.9,"",94.5,"",819.9,"",1334.7,"",2.9,"",6.4,""
"350150510","君IEｯKA","2010","12","10",8.0,"",20.6,"",-13.2,"",2.1,"",92.1,"",829.0,"",1423.0,"",3.4,"",1.1,""
"350150510","君IEｯKA","2010","12","11",8.0,"",28.3,"",-6.3,"",3.8,"",98.5,"",821.6,"",1346.6,"",1.4,"",2.3,""
"350150510","君IEｯKA","2010","12","12",8.0,"",25.0,"",-8.2,"",3.3,"",97.3,"",818.1,"",1315.9,"",4.7,"",3.6,""
"350150510","君IEｯKA","2010","12","13",7.8,"",17.5,"",-14.1,"",1.9,"",92.1,"",824.2,"",1378.6,"",1.7,"",2.6,""
"350150510","君IEｯKA","2010","12","14",8.0,"",20.1,"",-13.7,"",2.0,"",92.6,"",825.0,"",1386.5,"",8.4,"",9.0,""
"350150510","君IEｯKA","2010","12","15",5.5,"",12.3,"",-15.2,"",1.7,"",89.9,"",825.3,"",1390.6,"",.7,"",.0,""
"350150510","君IEｯKA","2010","12","16",1.8,"",11.3,"",-13.3,"",1.7,"",77.4,"",822.5,"",1362.9,"",.0,"",1.0,""
"350150510","君IEｯKA","2010","12","17",7.6,"",19.5,"",-15.6,"",1.6,"",87.1,"",809.0,"",1239.5,"",.7,"",.4,""
"350150510","君IEｯKA","2010","12","18",5.5,"",5.6,"",-14.0,"",1.8,"",84.3,"",814.6,"",1290.0,"",.0,"",.0,""
"350150510","君IEｯKA","2010","12","19",5.6,"",15.0,"",-12.5,"",1.9,"",78.6,"",814.1,"",1282.8,"",1.2,"",8.0,""
"350150510","君IEｯKA","2010","12","20",7.1,"",14.1,"",-9.5,"",2.6,"",86.6,"",815.8,"",1295.4,"",.4,"",.0,""
"350150510","君IEｯKA","2010","12","21",6.8,"",11.3,"",-6.6,"",3.6,"",91.6,"",823.3,"",1364.3,"",6.8,"",5.6,""
"350150510","君IEｯKA","2010","12","22",6.8,"",8.9,"",-1.5,"",5.1,"",93.9,"",825.0,"",1375.4,"",.0,"",.0,""
"350150510","君IEｯKA","2010","12","23",6.5,"",15.0,"",2.8,"",5.7,"",77.3,"",822.0,"",1342.3,"",.0,"",.2,""
"350150510","君IEｯKA","2010","12","24",8.0,"",12.5,"",.8,"",6.5,"",100.0,"",817.1,"",1296.3,"",6.0,"",2.0,""
"350150510","君IEｯKA","2010","12","25",8.0,"",16.0,"",-11.4,"",2.5,"",92.0,"",821.0,"",1346.2,"",1.0,"",.9,""
"350150510","君IEｯKA","2010","12","26",5.8,"",14.5,"",-15.8,"",1.5,"",81.1,"",829.4,"",1427.8,"",.1,"",.0,""
"350150510","君IEｯKA","2010","12","27",4.5,"",12.5,"",-13.0,"",1.9,"",84.5,"",831.1,"",1441.5,"",.0,"",1.8,""
"350150510","君IEｯKA","2010","12","28",6.0,"",14.1,"",-13.6,"",1.9,"",88.1,"",830.1,"",1432.8,"",1.0,"",.0,""
"350150510","君IEｯKA","2010","12","29",.8,"",8.3,"",-11.7,"",1.1,"",46.1,"",834.8,"",1475.1,"",.0,"",.0,""
"350150510","君IEｯKA","2010","12","30",1.8,"",16.0,"",-7.2,"",.8,"",23.8,"",834.2,"",1467.4,"",.0,"",.0,""
"350150510","君IEｯKA","2010","12","31",5.8,"",19.4,"",-6.3,"",3.1,"",81.1,"",831.5,"",1440.8,"",.5,"",.0,""
